CPT_ID,zone,Vs_12,a_max,M,FC,GWL
CPT000000004610_IMBRO_A,0,140,0.25,5,20,0.5
CPT000000012505_IMBRO_A,0,140,0.25,5,20,0.5
CPT000000016285_IMBRO_A,0,140,0.25,5,20,0.5
CPT000000022309_IMBRO_A,0,140,0.25,5,20,0.5
CPT000000022313_IMBRO_A,0,140,0.25,5,20,0.5
CPT000000022314_IMBRO_A,0,140,0.25,5,20,0.5
CPT000000022315_IMBRO_A,0,140,0.25,5,20,0.5
CPT000000022316_IMBRO_A,0,140,0.25,5,20,0.5
CPT000000022317_IMBRO_A,0,140,0.25,5,20,0.5
CPT000000032787_IMBRO_A,0,140,0.25,5,20,0.5
CPT000000032788_IMBRO_A,0,140,0.25,5,20,0.5
CPT000000041942_IMBRO_A,0,140,0.25,5,20,0.5
CPT000000041960_IMBRO_A,0,140,0.25,5,20,0.5
CPT000000044933_IMBRO_A,0,140,0.25,5,20,0.5
CPT000000044934_IMBRO_A,0,140,0.25,5,20,0.5
CPT000000044935_IMBRO_A,0,140,0.25,5,20,0.5
CPT000000044936_IMBRO_A,0,140,0.25,5,20,0.5
CPT000000044937_IMBRO_A,0,140,0.25,5,20,0.5
CPT000000044940_IMBRO_A,0,140,0.25,5,20,0.5
CPT000000044941_IMBRO_A,0,140,0.25,5,20,0.5
CPT000000044942_IMBRO_A,0,140,0.25,5,20,0.5
CPT000000044943_IMBRO_A,0,140,0.25,5,20,0.5
CPT000000044944_IMBRO_A,0,140,0.25,5,20,0.5
CPT000000044945_IMBRO_A,0,140,0.25,5,20,0.5
CPT000000044946_IMBRO_A,0,140,0.25,5,20,0.5
CPT000000044947_IMBRO_A,0,140,0.25,5,20,0.5
CPT000000048479_IMBRO_A,0,140,0.25,5,20,0.5
CPT000000048480_IMBRO_A,0,140,0.25,5,20,0.5
CPT000000048481_IMBRO_A,0,140,0.25,5,20,0.5
CPT000000048482_IMBRO_A,0,140,0.25,5,20,0.5
CPT000000048565_IMBRO_A,0,140,0.25,5,20,0.5
CPT000000048569_IMBRO_A,0,140,0.25,5,20,0.5
CPT000000052223_IMBRO_A,0,140,0.25,5,20,0.5
CPT000000052224_IMBRO_A,0,140,0.25,5,20,0.5
CPT000000053288_IMBRO_A,0,140,0.25,5,20,0.5
CPT000000053292_IMBRO_A,0,140,0.25,5,20,0.5
CPT000000053293_IMBRO_A,0,140,0.25,5,20,0.5
CPT000000053294_IMBRO_A,0,140,0.25,5,20,0.5
CPT000000053295_IMBRO_A,0,140,0.25,5,20,0.5
CPT000000053296_IMBRO_A,0,140,0.25,5,20,0.5
CPT000000053297_IMBRO_A,0,140,0.25,5,20,0.5
CPT000000053298_IMBRO_A,0,140,0.25,5,20,0.5
CPT000000053299_IMBRO_A,0,140,0.25,5,20,0.5
CPT000000053300_IMBRO_A,0,140,0.25,5,20,0.5
CPT000000053345_IMBRO_A,0,140,0.25,5,20,0.5
CPT000000057860_IMBRO_A,0,140,0.25,5,20,0.5
CPT000000057861_IMBRO_A,0,140,0.25,5,20,0.5
CPT000000057862_IMBRO_A,0,140,0.25,5,20,0.5
CPT000000057863_IMBRO_A,0,140,0.25,5,20,0.5
CPT000000057872_IMBRO_A,0,140,0.25,5,20,0.5
CPT000000057873_IMBRO_A,0,140,0.25,5,20,0.5
CPT000000057889_IMBRO_A,0,140,0.25,5,20,0.5
CPT000000061789_IMBRO_A,0,140,0.25,5,20,0.5
CPT000000061794_IMBRO_A,0,140,0.25,5,20,0.5
CPT000000083285_IMBRO_A,0,140,0.25,5,20,0.5
CPT000000097668_IMBRO_A,0,140,0.25,5,20,0.5
CPT000000097670_IMBRO_A,0,140,0.25,5,20,0.5
CPT000000097671_IMBRO_A,0,140,0.25,5,20,0.5
CPT000000097672_IMBRO_A,0,140,0.25,5,20,0.5
CPT000000097675_IMBRO_A,0,140,0.25,5,20,0.5
CPT000000097677_IMBRO_A,0,140,0.25,5,20,0.5
CPT000000097679_IMBRO_A,0,140,0.25,5,20,0.5
CPT000000097681_IMBRO_A,0,140,0.25,5,20,0.5
CPT000000097683_IMBRO_A,0,140,0.25,5,20,0.5
CPT000000097685_IMBRO_A,0,140,0.25,5,20,0.5
CPT000000097687_IMBRO_A,0,140,0.25,5,20,0.5
CPT000000097689_IMBRO_A,0,140,0.25,5,20,0.5
CPT000000097690_IMBRO_A,0,140,0.25,5,20,0.5
CPT000000097692_IMBRO_A,0,140,0.25,5,20,0.5
CPT000000097693_IMBRO_A,0,140,0.25,5,20,0.5
CPT000000097694_IMBRO_A,0,140,0.25,5,20,0.5
CPT000000097695_IMBRO_A,0,140,0.25,5,20,0.5
CPT000000097697_IMBRO_A,0,140,0.25,5,20,0.5
CPT000000097699_IMBRO_A,0,140,0.25,5,20,0.5
CPT000000097701_IMBRO_A,0,140,0.25,5,20,0.5
CPT000000097702_IMBRO_A,0,140,0.25,5,20,0.5
CPT000000097704_IMBRO_A,0,140,0.25,5,20,0.5
CPT000000097706_IMBRO_A,0,140,0.25,5,20,0.5
CPT000000097708_IMBRO_A,0,140,0.25,5,20,0.5
CPT000000097711_IMBRO_A,0,140,0.25,5,20,0.5
CPT000000097713_IMBRO_A,0,140,0.25,5,20,0.5
CPT000000097715_IMBRO_A,0,140,0.25,5,20,0.5
CPT000000097716_IMBRO_A,0,140,0.25,5,20,0.5
CPT000000097718_IMBRO_A,0,140,0.25,5,20,0.5
CPT000000097721_IMBRO_A,0,140,0.25,5,20,0.5
CPT000000097722_IMBRO_A,0,140,0.25,5,20,0.5
CPT000000097723_IMBRO_A,0,140,0.25,5,20,0.5
CPT000000097724_IMBRO_A,0,140,0.25,5,20,0.5
CPT000000097725_IMBRO_A,0,140,0.25,5,20,0.5
CPT000000097726_IMBRO_A,0,140,0.25,5,20,0.5
CPT000000097727_IMBRO_A,0,140,0.25,5,20,0.5
CPT000000097728_IMBRO_A,0,140,0.25,5,20,0.5
CPT000000097729_IMBRO_A,0,140,0.25,5,20,0.5
CPT000000097730_IMBRO_A,0,140,0.25,5,20,0.5
CPT000000097731_IMBRO_A,0,140,0.25,5,20,0.5
CPT000000097732_IMBRO_A,0,140,0.25,5,20,0.5
CPT000000097733_IMBRO_A,0,140,0.25,5,20,0.5
CPT000000097734_IMBRO_A,0,140,0.25,5,20,0.5
CPT000000097735_IMBRO_A,0,140,0.25,5,20,0.5
CPT000000097736_IMBRO_A,0,140,0.25,5,20,0.5
CPT000000097737_IMBRO_A,0,140,0.25,5,20,0.5
CPT000000097738_IMBRO_A,0,140,0.25,5,20,0.5
CPT000000097739_IMBRO_A,0,140,0.25,5,20,0.5
CPT000000097740_IMBRO_A,0,140,0.25,5,20,0.5
CPT000000097741_IMBRO_A,0,140,0.25,5,20,0.5
CPT000000097742_IMBRO_A,0,140,0.25,5,20,0.5
CPT000000097743_IMBRO_A,0,140,0.25,5,20,0.5
CPT000000097744_IMBRO_A,0,140,0.25,5,20,0.5
CPT000000097745_IMBRO_A,0,140,0.25,5,20,0.5
CPT000000097746_IMBRO_A,0,140,0.25,5,20,0.5
CPT000000097747_IMBRO_A,0,140,0.25,5,20,0.5
CPT000000097749_IMBRO_A,0,140,0.25,5,20,0.5
CPT000000097750_IMBRO_A,0,140,0.25,5,20,0.5
CPT000000097751_IMBRO_A,0,140,0.25,5,20,0.5
CPT000000097752_IMBRO_A,0,140,0.25,5,20,0.5
CPT000000097753_IMBRO_A,0,140,0.25,5,20,0.5
CPT000000097755_IMBRO_A,0,140,0.25,5,20,0.5
CPT000000097756_IMBRO_A,0,140,0.25,5,20,0.5
CPT000000097757_IMBRO_A,0,140,0.25,5,20,0.5
CPT000000097758_IMBRO_A,0,140,0.25,5,20,0.5
CPT000000097759_IMBRO_A,0,140,0.25,5,20,0.5
CPT000000097760_IMBRO_A,0,140,0.25,5,20,0.5
CPT000000097762_IMBRO_A,0,140,0.25,5,20,0.5
CPT000000097763_IMBRO_A,0,140,0.25,5,20,0.5
CPT000000097764_IMBRO_A,0,140,0.25,5,20,0.5
CPT000000097765_IMBRO_A,0,140,0.25,5,20,0.5
CPT000000097766_IMBRO_A,0,140,0.25,5,20,0.5
CPT000000097767_IMBRO_A,0,140,0.25,5,20,0.5
CPT000000097768_IMBRO_A,0,140,0.25,5,20,0.5
CPT000000097769_IMBRO_A,0,140,0.25,5,20,0.5
CPT000000097770_IMBRO_A,0,140,0.25,5,20,0.5
CPT000000097771_IMBRO_A,0,140,0.25,5,20,0.5
CPT000000097772_IMBRO_A,0,140,0.25,5,20,0.5
CPT000000097773_IMBRO_A,0,140,0.25,5,20,0.5
CPT000000097774_IMBRO_A,0,140,0.25,5,20,0.5
CPT000000097775_IMBRO_A,0,140,0.25,5,20,0.5
CPT000000097776_IMBRO_A,0,140,0.25,5,20,0.5
CPT000000097777_IMBRO_A,0,140,0.25,5,20,0.5
CPT000000097778_IMBRO_A,0,140,0.25,5,20,0.5
CPT000000097779_IMBRO_A,0,140,0.25,5,20,0.5
CPT000000097780_IMBRO_A,0,140,0.25,5,20,0.5
CPT000000097781_IMBRO_A,0,140,0.25,5,20,0.5
CPT000000097782_IMBRO_A,0,140,0.25,5,20,0.5
CPT000000097783_IMBRO_A,0,140,0.25,5,20,0.5
CPT000000097784_IMBRO_A,0,140,0.25,5,20,0.5
CPT000000097785_IMBRO_A,0,140,0.25,5,20,0.5
CPT000000097786_IMBRO_A,0,140,0.25,5,20,0.5
CPT000000097787_IMBRO_A,0,140,0.25,5,20,0.5
CPT000000097788_IMBRO_A,0,140,0.25,5,20,0.5
CPT000000097789_IMBRO_A,0,140,0.25,5,20,0.5
CPT000000097790_IMBRO_A,0,140,0.25,5,20,0.5
CPT000000097791_IMBRO_A,0,140,0.25,5,20,0.5
CPT000000097792_IMBRO_A,0,140,0.25,5,20,0.5
CPT000000097793_IMBRO_A,0,140,0.25,5,20,0.5
CPT000000097794_IMBRO_A,0,140,0.25,5,20,0.5
CPT000000097795_IMBRO_A,0,140,0.25,5,20,0.5
CPT000000097796_IMBRO_A,0,140,0.25,5,20,0.5
CPT000000097797_IMBRO_A,0,140,0.25,5,20,0.5
CPT000000097798_IMBRO_A,0,140,0.25,5,20,0.5
CPT000000097799_IMBRO_A,0,140,0.25,5,20,0.5
CPT000000097800_IMBRO_A,0,140,0.25,5,20,0.5
CPT000000097801_IMBRO_A,0,140,0.25,5,20,0.5
CPT000000097802_IMBRO_A,0,140,0.25,5,20,0.5
CPT000000097803_IMBRO_A,0,140,0.25,5,20,0.5
CPT000000097804_IMBRO_A,0,140,0.25,5,20,0.5
CPT000000097805_IMBRO_A,0,140,0.25,5,20,0.5
CPT000000097806_IMBRO_A,0,140,0.25,5,20,0.5
CPT000000097807_IMBRO_A,0,140,0.25,5,20,0.5
CPT000000097808_IMBRO_A,0,140,0.25,5,20,0.5
CPT000000097809_IMBRO_A,0,140,0.25,5,20,0.5
CPT000000097810_IMBRO_A,0,140,0.25,5,20,0.5
CPT000000097811_IMBRO_A,0,140,0.25,5,20,0.5
CPT000000097812_IMBRO_A,0,140,0.25,5,20,0.5
CPT000000097813_IMBRO_A,0,140,0.25,5,20,0.5
CPT000000097814_IMBRO_A,0,140,0.25,5,20,0.5
CPT000000097815_IMBRO_A,0,140,0.25,5,20,0.5
CPT000000097816_IMBRO_A,0,140,0.25,5,20,0.5
CPT000000097817_IMBRO_A,0,140,0.25,5,20,0.5
CPT000000097818_IMBRO_A,0,140,0.25,5,20,0.5
CPT000000097819_IMBRO_A,0,140,0.25,5,20,0.5
CPT000000097820_IMBRO_A,0,140,0.25,5,20,0.5
CPT000000097822_IMBRO_A,0,140,0.25,5,20,0.5
CPT000000097824_IMBRO_A,0,140,0.25,5,20,0.5
CPT000000097825_IMBRO_A,0,140,0.25,5,20,0.5
CPT000000097826_IMBRO_A,0,140,0.25,5,20,0.5
CPT000000097827_IMBRO_A,0,140,0.25,5,20,0.5
CPT000000097828_IMBRO_A,0,140,0.25,5,20,0.5
CPT000000097829_IMBRO_A,0,140,0.25,5,20,0.5
CPT000000097830_IMBRO_A,0,140,0.25,5,20,0.5
CPT000000097831_IMBRO_A,0,140,0.25,5,20,0.5
CPT000000097832_IMBRO_A,0,140,0.25,5,20,0.5
CPT000000097833_IMBRO_A,0,140,0.25,5,20,0.5
CPT000000097836_IMBRO_A,0,140,0.25,5,20,0.5
CPT000000097837_IMBRO_A,0,140,0.25,5,20,0.5
CPT000000097838_IMBRO_A,0,140,0.25,5,20,0.5
CPT000000097839_IMBRO_A,0,140,0.25,5,20,0.5
CPT000000097840_IMBRO_A,0,140,0.25,5,20,0.5
CPT000000097841_IMBRO_A,0,140,0.25,5,20,0.5
CPT000000097842_IMBRO_A,0,140,0.25,5,20,0.5
CPT000000097843_IMBRO_A,0,140,0.25,5,20,0.5
CPT000000097844_IMBRO_A,0,140,0.25,5,20,0.5
CPT000000097846_IMBRO_A,0,140,0.25,5,20,0.5
CPT000000097847_IMBRO_A,0,140,0.25,5,20,0.5
CPT000000097848_IMBRO_A,0,140,0.25,5,20,0.5
CPT000000097849_IMBRO_A,0,140,0.25,5,20,0.5
CPT000000097850_IMBRO_A,0,140,0.25,5,20,0.5
CPT000000097854_IMBRO_A,0,140,0.25,5,20,0.5
CPT000000097856_IMBRO_A,0,140,0.25,5,20,0.5
CPT000000097861_IMBRO_A,0,140,0.25,5,20,0.5
CPT000000097864_IMBRO_A,0,140,0.25,5,20,0.5
CPT000000097866_IMBRO_A,0,140,0.25,5,20,0.5
CPT000000097870_IMBRO_A,0,140,0.25,5,20,0.5
CPT000000097905_IMBRO_A,0,140,0.25,5,20,0.5
CPT000000097908_IMBRO_A,0,140,0.25,5,20,0.5
CPT000000097911_IMBRO_A,0,140,0.25,5,20,0.5
CPT000000097913_IMBRO_A,0,140,0.25,5,20,0.5
CPT000000097915_IMBRO_A,0,140,0.25,5,20,0.5
CPT000000097916_IMBRO_A,0,140,0.25,5,20,0.5
CPT000000097918_IMBRO_A,0,140,0.25,5,20,0.5
CPT000000097919_IMBRO_A,0,140,0.25,5,20,0.5
CPT000000097921_IMBRO_A,0,140,0.25,5,20,0.5
CPT000000097922_IMBRO_A,0,140,0.25,5,20,0.5
CPT000000097923_IMBRO_A,0,140,0.25,5,20,0.5
CPT000000097925_IMBRO_A,0,140,0.25,5,20,0.5
CPT000000097926_IMBRO_A,0,140,0.25,5,20,0.5
CPT000000097927_IMBRO_A,0,140,0.25,5,20,0.5
CPT000000097928_IMBRO_A,0,140,0.25,5,20,0.5
CPT000000097929_IMBRO_A,0,140,0.25,5,20,0.5
CPT000000097930_IMBRO_A,0,140,0.25,5,20,0.5
CPT000000097931_IMBRO_A,0,140,0.25,5,20,0.5
CPT000000097932_IMBRO_A,0,140,0.25,5,20,0.5
CPT000000097933_IMBRO_A,0,140,0.25,5,20,0.5
CPT000000097934_IMBRO_A,0,140,0.25,5,20,0.5
CPT000000097935_IMBRO_A,0,140,0.25,5,20,0.5
CPT000000097936_IMBRO_A,0,140,0.25,5,20,0.5
CPT000000097937_IMBRO_A,0,140,0.25,5,20,0.5
CPT000000097938_IMBRO_A,0,140,0.25,5,20,0.5
CPT000000097939_IMBRO_A,0,140,0.25,5,20,0.5
CPT000000097940_IMBRO_A,0,140,0.25,5,20,0.5
CPT000000097941_IMBRO_A,0,140,0.25,5,20,0.5
CPT000000097942_IMBRO_A,0,140,0.25,5,20,0.5
CPT000000097943_IMBRO_A,0,140,0.25,5,20,0.5
CPT000000097944_IMBRO_A,0,140,0.25,5,20,0.5
CPT000000097945_IMBRO_A,0,140,0.25,5,20,0.5
CPT000000097946_IMBRO_A,0,140,0.25,5,20,0.5
CPT000000097947_IMBRO_A,0,140,0.25,5,20,0.5
CPT000000097948_IMBRO_A,0,140,0.25,5,20,0.5
CPT000000097949_IMBRO_A,0,140,0.25,5,20,0.5
CPT000000097950_IMBRO_A,0,140,0.25,5,20,0.5
CPT000000097951_IMBRO_A,0,140,0.25,5,20,0.5
CPT000000097952_IMBRO_A,0,140,0.25,5,20,0.5
CPT000000097953_IMBRO_A,0,140,0.25,5,20,0.5
CPT000000097954_IMBRO_A,0,140,0.25,5,20,0.5
CPT000000097955_IMBRO_A,0,140,0.25,5,20,0.5
CPT000000097956_IMBRO_A,0,140,0.25,5,20,0.5
CPT000000097957_IMBRO_A,0,140,0.25,5,20,0.5
CPT000000097958_IMBRO_A,0,140,0.25,5,20,0.5
CPT000000097959_IMBRO_A,0,140,0.25,5,20,0.5
CPT000000097960_IMBRO_A,0,140,0.25,5,20,0.5
CPT000000097961_IMBRO_A,0,140,0.25,5,20,0.5
CPT000000097962_IMBRO_A,0,140,0.25,5,20,0.5
CPT000000097963_IMBRO_A,0,140,0.25,5,20,0.5
CPT000000097964_IMBRO_A,0,140,0.25,5,20,0.5
CPT000000097965_IMBRO_A,0,140,0.25,5,20,0.5
CPT000000097966_IMBRO_A,0,140,0.25,5,20,0.5
CPT000000097967_IMBRO_A,0,140,0.25,5,20,0.5
CPT000000097968_IMBRO_A,0,140,0.25,5,20,0.5
CPT000000097969_IMBRO_A,0,140,0.25,5,20,0.5
CPT000000097970_IMBRO_A,0,140,0.25,5,20,0.5
CPT000000097971_IMBRO_A,0,140,0.25,5,20,0.5
CPT000000097972_IMBRO_A,0,140,0.25,5,20,0.5
CPT000000097973_IMBRO_A,0,140,0.25,5,20,0.5
CPT000000097974_IMBRO_A,0,140,0.25,5,20,0.5
CPT000000097975_IMBRO_A,0,140,0.25,5,20,0.5
CPT000000097977_IMBRO_A,0,140,0.25,5,20,0.5
CPT000000097978_IMBRO_A,0,140,0.25,5,20,0.5
CPT000000097980_IMBRO_A,0,140,0.25,5,20,0.5
CPT000000097981_IMBRO_A,0,140,0.25,5,20,0.5
CPT000000097982_IMBRO_A,0,140,0.25,5,20,0.5
CPT000000097984_IMBRO_A,0,140,0.25,5,20,0.5
CPT000000097985_IMBRO_A,0,140,0.25,5,20,0.5
CPT000000097986_IMBRO_A,0,140,0.25,5,20,0.5
CPT000000097987_IMBRO_A,0,140,0.25,5,20,0.5
CPT000000097989_IMBRO_A,0,140,0.25,5,20,0.5
CPT000000097990_IMBRO_A,0,140,0.25,5,20,0.5
CPT000000097992_IMBRO_A,0,140,0.25,5,20,0.5
CPT000000097994_IMBRO_A,0,140,0.25,5,20,0.5
CPT000000097995_IMBRO_A,0,140,0.25,5,20,0.5
CPT000000097996_IMBRO_A,0,140,0.25,5,20,0.5
CPT000000097998_IMBRO_A,0,140,0.25,5,20,0.5
CPT000000097999_IMBRO_A,0,140,0.25,5,20,0.5
CPT000000098002_IMBRO_A,0,140,0.25,5,20,0.5
CPT000000098004_IMBRO_A,0,140,0.25,5,20,0.5
CPT000000098006_IMBRO_A,0,140,0.25,5,20,0.5
CPT000000098008_IMBRO_A,0,140,0.25,5,20,0.5
CPT000000098011_IMBRO_A,0,140,0.25,5,20,0.5
CPT000000098013_IMBRO_A,0,140,0.25,5,20,0.5
CPT000000098014_IMBRO_A,0,140,0.25,5,20,0.5
CPT000000098016_IMBRO_A,0,140,0.25,5,20,0.5
CPT000000098018_IMBRO_A,0,140,0.25,5,20,0.5
CPT000000098021_IMBRO_A,0,140,0.25,5,20,0.5
CPT000000098023_IMBRO_A,0,140,0.25,5,20,0.5
CPT000000098024_IMBRO_A,0,140,0.25,5,20,0.5
CPT000000098027_IMBRO_A,0,140,0.25,5,20,0.5
CPT000000098028_IMBRO_A,0,140,0.25,5,20,0.5
CPT000000098030_IMBRO_A,0,140,0.25,5,20,0.5
CPT000000098031_IMBRO_A,0,140,0.25,5,20,0.5
CPT000000098034_IMBRO_A,0,140,0.25,5,20,0.5
CPT000000098035_IMBRO_A,0,140,0.25,5,20,0.5
CPT000000098036_IMBRO_A,0,140,0.25,5,20,0.5
CPT000000098039_IMBRO_A,0,140,0.25,5,20,0.5
CPT000000098041_IMBRO_A,0,140,0.25,5,20,0.5
CPT000000098044_IMBRO_A,0,140,0.25,5,20,0.5
CPT000000098050_IMBRO_A,0,140,0.25,5,20,0.5
CPT000000098053_IMBRO_A,0,140,0.25,5,20,0.5
CPT000000098056_IMBRO_A,0,140,0.25,5,20,0.5
CPT000000098058_IMBRO_A,0,140,0.25,5,20,0.5
CPT000000098064_IMBRO_A,0,140,0.25,5,20,0.5
CPT000000098069_IMBRO_A,0,140,0.25,5,20,0.5
CPT000000098073_IMBRO_A,0,140,0.25,5,20,0.5
CPT000000098074_IMBRO_A,0,140,0.25,5,20,0.5
CPT000000098077_IMBRO_A,0,140,0.25,5,20,0.5
CPT000000098079_IMBRO_A,0,140,0.25,5,20,0.5
CPT000000098081_IMBRO_A,0,140,0.25,5,20,0.5
CPT000000098083_IMBRO_A,0,140,0.25,5,20,0.5
CPT000000098084_IMBRO_A,0,140,0.25,5,20,0.5
CPT000000098086_IMBRO_A,0,140,0.25,5,20,0.5
CPT000000098088_IMBRO_A,0,140,0.25,5,20,0.5
CPT000000098090_IMBRO_A,0,140,0.25,5,20,0.5
CPT000000098092_IMBRO_A,0,140,0.25,5,20,0.5
CPT000000098095_IMBRO_A,0,140,0.25,5,20,0.5
CPT000000098096_IMBRO_A,0,140,0.25,5,20,0.5
CPT000000098099_IMBRO_A,0,140,0.25,5,20,0.5
CPT000000098101_IMBRO_A,0,140,0.25,5,20,0.5
CPT000000098103_IMBRO_A,0,140,0.25,5,20,0.5
CPT000000098105_IMBRO_A,0,140,0.25,5,20,0.5
CPT000000098107_IMBRO_A,0,140,0.25,5,20,0.5
CPT000000098109_IMBRO_A,0,140,0.25,5,20,0.5
CPT000000098111_IMBRO_A,0,140,0.25,5,20,0.5
CPT000000098114_IMBRO_A,0,140,0.25,5,20,0.5
CPT000000098117_IMBRO_A,0,140,0.25,5,20,0.5
CPT000000098118_IMBRO_A,0,140,0.25,5,20,0.5
CPT000000098121_IMBRO_A,0,140,0.25,5,20,0.5
CPT000000098122_IMBRO_A,0,140,0.25,5,20,0.5
CPT000000098125_IMBRO_A,0,140,0.25,5,20,0.5
CPT000000098127_IMBRO_A,0,140,0.25,5,20,0.5
CPT000000098128_IMBRO_A,0,140,0.25,5,20,0.5
CPT000000098129_IMBRO_A,0,140,0.25,5,20,0.5
CPT000000098130_IMBRO_A,0,140,0.25,5,20,0.5
CPT000000098131_IMBRO_A,0,140,0.25,5,20,0.5
CPT000000098132_IMBRO_A,0,140,0.25,5,20,0.5
CPT000000098133_IMBRO_A,0,140,0.25,5,20,0.5
CPT000000098134_IMBRO_A,0,140,0.25,5,20,0.5
CPT000000098135_IMBRO_A,0,140,0.25,5,20,0.5
CPT000000098136_IMBRO_A,0,140,0.25,5,20,0.5
CPT000000098137_IMBRO_A,0,140,0.25,5,20,0.5
CPT000000098138_IMBRO_A,0,140,0.25,5,20,0.5
CPT000000098139_IMBRO_A,0,140,0.25,5,20,0.5
CPT000000098140_IMBRO_A,0,140,0.25,5,20,0.5
CPT000000098141_IMBRO_A,0,140,0.25,5,20,0.5
CPT000000098142_IMBRO_A,0,140,0.25,5,20,0.5
CPT000000098143_IMBRO_A,0,140,0.25,5,20,0.5
CPT000000098144_IMBRO_A,0,140,0.25,5,20,0.5
CPT000000098145_IMBRO_A,0,140,0.25,5,20,0.5
CPT000000098146_IMBRO_A,0,140,0.25,5,20,0.5
CPT000000098147_IMBRO_A,0,140,0.25,5,20,0.5
CPT000000098148_IMBRO_A,0,140,0.25,5,20,0.5
CPT000000098149_IMBRO_A,0,140,0.25,5,20,0.5
CPT000000098150_IMBRO_A,0,140,0.25,5,20,0.5
CPT000000098151_IMBRO_A,0,140,0.25,5,20,0.5
CPT000000098152_IMBRO_A,0,140,0.25,5,20,0.5
CPT000000098153_IMBRO_A,0,140,0.25,5,20,0.5
CPT000000098154_IMBRO_A,0,140,0.25,5,20,0.5
CPT000000098155_IMBRO_A,0,140,0.25,5,20,0.5
CPT000000098156_IMBRO_A,0,140,0.25,5,20,0.5
CPT000000098157_IMBRO_A,0,140,0.25,5,20,0.5
CPT000000098158_IMBRO_A,0,140,0.25,5,20,0.5
CPT000000098159_IMBRO_A,0,140,0.25,5,20,0.5
CPT000000098160_IMBRO_A,0,140,0.25,5,20,0.5
CPT000000098161_IMBRO_A,0,140,0.25,5,20,0.5
CPT000000098162_IMBRO_A,0,140,0.25,5,20,0.5
CPT000000098163_IMBRO_A,0,140,0.25,5,20,0.5
CPT000000098164_IMBRO_A,0,140,0.25,5,20,0.5
CPT000000098165_IMBRO_A,0,140,0.25,5,20,0.5
CPT000000098166_IMBRO_A,0,140,0.25,5,20,0.5
CPT000000098168_IMBRO_A,0,140,0.25,5,20,0.5
CPT000000098170_IMBRO_A,0,140,0.25,5,20,0.5
CPT000000098172_IMBRO_A,0,140,0.25,5,20,0.5
CPT000000098173_IMBRO_A,0,140,0.25,5,20,0.5
CPT000000098174_IMBRO_A,0,140,0.25,5,20,0.5
CPT000000098175_IMBRO_A,0,140,0.25,5,20,0.5
CPT000000098176_IMBRO_A,0,140,0.25,5,20,0.5
CPT000000098177_IMBRO_A,0,140,0.25,5,20,0.5
CPT000000098178_IMBRO_A,0,140,0.25,5,20,0.5
CPT000000098194_IMBRO_A,0,140,0.25,5,20,0.5
CPT000000098195_IMBRO_A,0,140,0.25,5,20,0.5
CPT000000098196_IMBRO_A,0,140,0.25,5,20,0.5
CPT000000098199_IMBRO_A,0,140,0.25,5,20,0.5
CPT000000098200_IMBRO_A,0,140,0.25,5,20,0.5
CPT000000098201_IMBRO_A,0,140,0.25,5,20,0.5
CPT000000098204_IMBRO_A,0,140,0.25,5,20,0.5
CPT000000098207_IMBRO_A,0,140,0.25,5,20,0.5
CPT000000098209_IMBRO_A,0,140,0.25,5,20,0.5
CPT000000098210_IMBRO_A,0,140,0.25,5,20,0.5
CPT000000098211_IMBRO_A,0,140,0.25,5,20,0.5
CPT000000098212_IMBRO_A,0,140,0.25,5,20,0.5
CPT000000098214_IMBRO_A,0,140,0.25,5,20,0.5
CPT000000098215_IMBRO_A,0,140,0.25,5,20,0.5
CPT000000101001_IMBRO,0,140,0.25,5,20,0.5
CPT000000101002_IMBRO,0,140,0.25,5,20,0.5
CPT000000110515_IMBRO,0,140,0.25,5,20,0.5
CPT000000110516_IMBRO,0,140,0.25,5,20,0.5
CPT000000110517_IMBRO,0,140,0.25,5,20,0.5
CPT000000110518_IMBRO,0,140,0.25,5,20,0.5
CPT000000110519_IMBRO,0,140,0.25,5,20,0.5
CPT000000110520_IMBRO,0,140,0.25,5,20,0.5
CPT000000110521_IMBRO,0,140,0.25,5,20,0.5
CPT000000110522_IMBRO,0,140,0.25,5,20,0.5
CPT000000110523_IMBRO,0,140,0.25,5,20,0.5
CPT000000110524_IMBRO,0,140,0.25,5,20,0.5
CPT000000110525_IMBRO,0,140,0.25,5,20,0.5
CPT000000110526_IMBRO,0,140,0.25,5,20,0.5
CPT000000110527_IMBRO,0,140,0.25,5,20,0.5
CPT000000110528_IMBRO,0,140,0.25,5,20,0.5
CPT000000110529_IMBRO,0,140,0.25,5,20,0.5
CPT000000110530_IMBRO,0,140,0.25,5,20,0.5
CPT000000110531_IMBRO,0,140,0.25,5,20,0.5
CPT000000110532_IMBRO,0,140,0.25,5,20,0.5
CPT000000110533_IMBRO,0,140,0.25,5,20,0.5
CPT000000110534_IMBRO,0,140,0.25,5,20,0.5
CPT000000110535_IMBRO,0,140,0.25,5,20,0.5
CPT000000110536_IMBRO,0,140,0.25,5,20,0.5
CPT000000110537_IMBRO,0,140,0.25,5,20,0.5
CPT000000110538_IMBRO,0,140,0.25,5,20,0.5
CPT000000154588_IMBRO,0,140,0.25,5,20,0.5
CPT000000154589_IMBRO,0,140,0.25,5,20,0.5
CPT000000154590_IMBRO,0,140,0.25,5,20,0.5
CPT000000154591_IMBRO,0,140,0.25,5,20,0.5
CPT000000154592_IMBRO,0,140,0.25,5,20,0.5
CPT000000154593_IMBRO,0,140,0.25,5,20,0.5
CPT000000154594_IMBRO,0,140,0.25,5,20,0.5
CPT000000154595_IMBRO,0,140,0.25,5,20,0.5
CPT000000154596_IMBRO,0,140,0.25,5,20,0.5
CPT000000154597_IMBRO,0,140,0.25,5,20,0.5
CPT000000154598_IMBRO,0,140,0.25,5,20,0.5
CPT000000154599_IMBRO,0,140,0.25,5,20,0.5
CPT000000154600_IMBRO,0,140,0.25,5,20,0.5
CPT000000154601_IMBRO,0,140,0.25,5,20,0.5
CPT000000154602_IMBRO,0,140,0.25,5,20,0.5
CPT000000154603_IMBRO,0,140,0.25,5,20,0.5
CPT000000157947_IMBRO,0,140,0.25,5,20,0.5
CPT000000157948_IMBRO,0,140,0.25,5,20,0.5
CPT000000157949_IMBRO,0,140,0.25,5,20,0.5
CPT000000157950_IMBRO,0,140,0.25,5,20,0.5
CPT000000164101_IMBRO,0,140,0.25,5,20,0.5
CPT000000164102_IMBRO,0,140,0.25,5,20,0.5
CPT000000164103_IMBRO,0,140,0.25,5,20,0.5
CPT000000164776_IMBRO,0,140,0.25,5,20,0.5
CPT000000164777_IMBRO,0,140,0.25,5,20,0.5
