CPT ID,X coord,Y coord,LPIish Det,S Det [cm],P(LPI>1,P(LPI>5,P(LPI>10,P(LPI>15,P(S>0[cm],P(S>1[cm],P(S>2[cm],P(S>3[cm],P(S>4[cm],P(S>5[cm],P(S>6[cm],P(S>7[cm],P(S>8[cm],P(S>9[cm]
CPT000000032788_IMBRO_A,252795.0,592059.0,0,0.0,0.0,0.0,0.0,0.0,21.0,0.0,0.0,0.0,0.0,0.0,0.0,0.0,0.0,0.0
CPT000000041942_IMBRO_A,244176.0,591404.0,0.0,2.809658273010555,10.0,5.0,1.0,0.0,97.0,55.0,48.0,44.0,42.0,40.0,36.0,35.0,33.0,33.0
CPT000000041960_IMBRO_A,252117.0,588459.0,0.0,10.007341728119998,31.0,4.0,0.0,0.0,97.0,78.0,72.0,68.0,63.0,56.0,54.0,50.0,48.0,46.0
CPT000000044933_IMBRO_A,246200.0,589250.0,0,0.5840587568078797,7.0,1.0,0.0,0.0,97.0,49.0,44.0,33.0,29.0,26.0,24.0,21.0,19.0,19.0
CPT000000044934_IMBRO_A,245550.0,589500.0,0.0,3.4205043927473358,18.0,4.0,0.0,0.0,96.0,61.0,57.0,52.0,45.0,42.0,38.0,38.0,35.0,28.0
CPT000000044935_IMBRO_A,245170.0,590220.0,0.0,2.7514640753941033,5.0,3.0,0.0,0.0,100.0,58.0,54.0,51.0,45.0,39.0,35.0,33.0,32.0,31.0
CPT000000044936_IMBRO_A,245980.0,591740.0,0.0,3.5209909936540287,16.0,0.0,0.0,0.0,100.0,68.0,65.0,56.0,51.0,37.0,24.0,5.0,0.0,0.0
CPT000000044937_IMBRO_A,245020.0,592430.0,0.24960314666377187,6.935519716611571,37.0,0.0,0.0,0.0,99.0,83.0,80.0,75.0,75.0,72.0,64.0,53.0,13.0,0.0
CPT000000044940_IMBRO_A,243030.0,591840.0,0.0,2.8788025987984214,17.0,0.0,0.0,0.0,89.0,50.0,44.0,41.0,39.0,39.0,37.0,36.0,35.0,32.0
CPT000000044941_IMBRO_A,243130.0,591230.0,0.2558899651446046,4.004159725723038,30.0,0.0,0.0,0.0,97.0,71.0,63.0,53.0,48.0,36.0,21.0,5.0,0.0,0.0
CPT000000044942_IMBRO_A,242740.0,591020.0,0.0,8.028951283415491,8.0,0.0,0.0,0.0,97.0,76.0,72.0,71.0,71.0,68.0,66.0,61.0,52.0,29.0
CPT000000044943_IMBRO_A,241950.0,591510.0,0.0,3.2218795649059806,18.0,0.0,0.0,0.0,97.0,60.0,56.0,53.0,39.0,21.0,0.0,0.0,0.0,0.0
CPT000000044944_IMBRO_A,242230.0,591880.0,0.0,2.1805704298048756,20.0,0.0,0.0,0.0,97.0,56.0,50.0,38.0,33.0,29.0,20.0,0.0,0.0,0.0
CPT000000044945_IMBRO_A,240940.0,591040.0,0.0,2.0924879184328606,8.0,2.0,0.0,0.0,81.0,53.0,49.0,26.0,22.0,15.0,15.0,14.0,12.0,10.0
CPT000000044946_IMBRO_A,240850.0,592450.0,0.0,2.640581987571501,16.0,0.0,0.0,0.0,96.0,62.0,58.0,43.0,36.0,30.0,28.0,24.0,20.0,17.0
CPT000000044947_IMBRO_A,240150.0,592700.0,0,0.0,51.0,49.0,0.0,0.0,51.0,51.0,51.0,51.0,51.0,51.0,51.0,51.0,50.0,44.0
CPT000000048479_IMBRO_A,248700.0,592450.0,0.09018189057872923,0.17465104789536945,13.0,7.0,0.0,0.0,100.0,34.0,28.0,25.0,24.0,22.0,22.0,21.0,21.0,20.0
CPT000000048480_IMBRO_A,246350.0,592770.0,0.0,7.593102692247686,11.0,0.0,0.0,0.0,99.0,79.0,76.0,74.0,70.0,66.0,60.0,60.0,52.0,0.0
CPT000000048481_IMBRO_A,245340.0,592500.0,0.0,16.11163890395714,19.0,12.0,4.0,0.0,98.0,77.0,71.0,63.0,62.0,61.0,60.0,60.0,58.0,56.0
CPT000000048482_IMBRO_A,242200.0,592390.0,0.0,1.339977700992218,11.0,0.0,0.0,0.0,91.0,48.0,47.0,40.0,0.0,0.0,0.0,0.0,0.0,0.0
CPT000000048565_IMBRO_A,243499.0,584092.0,0,0.0,48.0,48.0,48.0,48.0,48.0,48.0,48.0,48.0,48.0,48.0,48.0,48.0,48.0,48.0
CPT000000048569_IMBRO_A,241805.0,585427.0,0.0,1.5467980990629138,15.0,3.0,0.0,0.0,94.0,48.0,45.0,40.0,34.0,32.0,29.0,25.0,22.0,18.0
CPT000000052223_IMBRO_A,251328.0,587679.0,0.9027843073906764,6.227059333803966,56.0,10.0,1.0,1.0,100.0,86.0,84.0,78.0,72.0,66.0,59.0,46.0,36.0,30.0
CPT000000052224_IMBRO_A,252386.0,587964.0,0.05713170867051777,6.148029921867739,32.0,18.0,10.0,2.0,99.0,72.0,62.0,54.0,51.0,48.0,45.0,41.0,38.0,36.0
CPT000000053288_IMBRO_A,241783.0,585468.0,0.0,3.636358571124461,33.0,13.0,4.0,0.0,98.0,68.0,64.0,59.0,57.0,57.0,50.0,47.0,44.0,42.0
CPT000000053292_IMBRO_A,244393.0,590868.0,0.015425412117248034,4.285931759464579,32.0,2.0,0.0,0.0,95.0,71.0,66.0,59.0,55.0,50.0,50.0,50.0,49.0,46.0
CPT000000053293_IMBRO_A,244213.0,590935.0,0.0,2.038397464837581,4.0,0.0,0.0,0.0,98.0,62.0,51.0,29.0,14.0,2.0,0.0,0.0,0.0,0.0
CPT000000053294_IMBRO_A,244298.0,590901.0,0.0,0.5721831803841637,0.0,0.0,0.0,0.0,96.0,0.0,0.0,0.0,0.0,0.0,0.0,0.0,0.0,0.0
CPT000000053295_IMBRO_A,244326.0,590976.0,0.0,0.6264497009206711,0.0,0.0,0.0,0.0,99.0,41.0,20.0,0.0,0.0,0.0,0.0,0.0,0.0,0.0
CPT000000053296_IMBRO_A,244508.0,591003.0,0.0,1.691737907492763,2.0,0.0,0.0,0.0,100.0,60.0,38.0,0.0,0.0,0.0,0.0,0.0,0.0,0.0
CPT000000053297_IMBRO_A,244368.0,591038.0,0.0,2.7642890227424872,6.0,0.0,0.0,0.0,98.0,58.0,47.0,44.0,39.0,29.0,21.0,0.0,0.0,0.0
CPT000000053298_IMBRO_A,244428.0,590984.0,0.0,2.0870831968030656,4.0,0.0,0.0,0.0,96.0,61.0,52.0,20.0,0.0,0.0,0.0,0.0,0.0,0.0
CPT000000053299_IMBRO_A,244285.0,591108.0,0.0,1.8502393397437207,6.0,0.0,0.0,0.0,96.0,57.0,49.0,42.0,31.0,18.0,8.0,1.0,0.0,0.0
CPT000000053300_IMBRO_A,244336.0,591178.0,0.0,2.4185156857937997,0.0,0.0,0.0,0.0,96.0,56.0,51.0,0.0,0.0,0.0,0.0,0.0,0.0,0.0
CPT000000053345_IMBRO_A,252120.0,588429.0,0.0,4.1379837945544855,27.0,0.0,0.0,0.0,99.0,76.0,65.0,60.0,53.0,48.0,46.0,35.0,0.0,0.0
CPT000000057860_IMBRO_A,244750.98,587827.22,0,0.0,0.0,0.0,0.0,0.0,45.0,2.0,1.0,0.0,0.0,0.0,0.0,0.0,0.0,0.0
CPT000000057861_IMBRO_A,244664.97,587758.36,0,0.0,0.0,0.0,0.0,0.0,11.0,1.0,1.0,1.0,1.0,1.0,1.0,0.0,0.0,0.0
CPT000000057862_IMBRO_A,244129.26,587372.79,0,0.0,0.0,0.0,0.0,0.0,12.0,0.0,0.0,0.0,0.0,0.0,0.0,0.0,0.0,0.0
CPT000000057863_IMBRO_A,243848.46,587171.07,0,0.0,48.0,0.0,0.0,0.0,48.0,48.0,48.0,48.0,48.0,48.0,48.0,48.0,48.0,0.0
CPT000000057872_IMBRO_A,244436.95,587595.04,0,0.0,0.0,0.0,0.0,0.0,20.0,0.0,0.0,0.0,0.0,0.0,0.0,0.0,0.0,0.0
CPT000000057873_IMBRO_A,252833.37,592126.22,0,0.0,0.0,0.0,0.0,0.0,22.0,0.0,0.0,0.0,0.0,0.0,0.0,0.0,0.0,0.0
CPT000000057889_IMBRO_A,244027.47,587299.35,0,0.0,0.0,0.0,0.0,0.0,15.0,0.0,0.0,0.0,0.0,0.0,0.0,0.0,0.0,0.0
CPT000000061789_IMBRO_A,247109.78,592740.2,0.0,11.333449418810751,16.0,2.0,0.0,0.0,97.0,74.0,71.0,65.0,65.0,65.0,65.0,62.0,58.0,57.0
CPT000000061794_IMBRO_A,246992.41,592917.85,0.0,11.537474453006311,21.0,7.0,0.0,0.0,99.0,78.0,74.0,69.0,67.0,66.0,65.0,62.0,61.0,56.0
CPT000000083285_IMBRO_A,252860.0,588505.0,0,1.3278847410555432,20.0,6.0,0.0,0.0,92.0,62.0,56.0,53.0,51.0,47.0,42.0,41.0,40.0,38.0
CPT000000097668_IMBRO_A,243991.262,587289.933,0,0.0,0.0,0.0,0.0,0.0,40.0,5.0,3.0,2.0,2.0,1.0,1.0,1.0,1.0,1.0
CPT000000097670_IMBRO_A,242480.325,586309.871,0,0.0,0.0,0.0,0.0,0.0,23.0,5.0,2.0,2.0,1.0,1.0,1.0,1.0,1.0,1.0
CPT000000097671_IMBRO_A,252833.37,592126.22,0,0.0,0.0,0.0,0.0,0.0,18.0,0.0,0.0,0.0,0.0,0.0,0.0,0.0,0.0,0.0
CPT000000097672_IMBRO_A,243073.405,586681.313,0,0.0,50.0,48.0,0.0,0.0,51.0,50.0,50.0,50.0,50.0,50.0,50.0,50.0,50.0,0.0
CPT000000097675_IMBRO_A,242904.812,586576.481,0,0.0,0.0,0.0,0.0,0.0,41.0,6.0,4.0,4.0,3.0,2.0,2.0,1.0,0.0,0.0
CPT000000097677_IMBRO_A,242986.909,586627.34,0,0.0,37.0,35.0,25.0,0.0,42.0,41.0,41.0,41.0,41.0,41.0,41.0,39.0,39.0,39.0
CPT000000097679_IMBRO_A,243588.227,587000.186,0,0.0,41.0,41.0,40.0,0.0,41.0,41.0,41.0,41.0,41.0,41.0,41.0,41.0,41.0,41.0
CPT000000097681_IMBRO_A,240624.674,585158.65,0.0,4.823881002048532,24.0,15.0,0.0,0.0,97.0,64.0,60.0,58.0,57.0,53.0,48.0,42.0,37.0,34.0
CPT000000097683_IMBRO_A,242649.726,586417.214,9.612522949021587,13.879916335535855,88.0,75.0,52.0,20.0,100.0,98.0,98.0,94.0,92.0,91.0,89.0,89.0,86.0,84.0
CPT000000097685_IMBRO_A,242736.497,586469.504,0,0.0,1.0,0.0,0.0,0.0,33.0,6.0,4.0,3.0,3.0,3.0,3.0,3.0,3.0,3.0
CPT000000097687_IMBRO_A,242821.13,586521.583,0,0.0,0.0,0.0,0.0,0.0,25.0,4.0,3.0,2.0,2.0,2.0,2.0,2.0,2.0,2.0
CPT000000097689_IMBRO_A,243827.523,587172.152,0,0.0,46.0,46.0,46.0,0.0,46.0,46.0,46.0,46.0,46.0,46.0,46.0,46.0,46.0,46.0
CPT000000097690_IMBRO_A,243848.46,587171.07,0,0.0,54.0,0.0,0.0,0.0,54.0,54.0,54.0,54.0,54.0,54.0,54.0,54.0,54.0,0.0
CPT000000097692_IMBRO_A,243415.344,586893.636,0,0.0,48.0,48.0,0.0,0.0,48.0,48.0,48.0,48.0,48.0,48.0,48.0,48.0,48.0,48.0
CPT000000097693_IMBRO_A,244129.26,587372.79,0,0.0,0.0,0.0,0.0,0.0,12.0,2.0,1.0,1.0,0.0,0.0,0.0,0.0,0.0,0.0
CPT000000097694_IMBRO_A,243909.745,587231.135,0,0.0,52.0,52.0,52.0,50.0,52.0,52.0,52.0,52.0,52.0,52.0,52.0,52.0,52.0,52.0
CPT000000097695_IMBRO_A,244027.47,587299.35,0,0.0,0.0,0.0,0.0,0.0,12.0,0.0,0.0,0.0,0.0,0.0,0.0,0.0,0.0,0.0
CPT000000097697_IMBRO_A,243500.081,586945.475,0,0.0,46.0,46.0,46.0,0.0,46.0,46.0,46.0,46.0,46.0,46.0,46.0,46.0,46.0,46.0
CPT000000097699_IMBRO_A,240550.08,585112.094,0.0,4.452571965447202,24.0,3.0,0.0,0.0,100.0,64.0,60.0,51.0,49.0,41.0,37.0,25.0,2.0,0.0
CPT000000097701_IMBRO_A,243165.662,586738.717,0,0.0,43.0,42.0,0.0,0.0,44.0,44.0,44.0,43.0,43.0,43.0,43.0,43.0,43.0,0.0
CPT000000097702_IMBRO_A,244436.95,587595.04,0,0.0,0.0,0.0,0.0,0.0,20.0,1.0,1.0,1.0,0.0,0.0,0.0,0.0,0.0,0.0
CPT000000097704_IMBRO_A,243664.627,587053.637,0,0.0,49.0,49.0,49.0,49.0,49.0,49.0,49.0,49.0,49.0,49.0,49.0,49.0,49.0,49.0
CPT000000097706_IMBRO_A,243747.61,587114.393,0,0.0,56.0,56.0,56.0,56.0,56.0,56.0,56.0,56.0,56.0,56.0,56.0,56.0,56.0,56.0
CPT000000097708_IMBRO_A,243250.086,586790.574,0,0.0,57.0,56.0,0.0,0.0,57.0,57.0,57.0,57.0,57.0,57.0,57.0,57.0,57.0,57.0
CPT000000097711_IMBRO_A,243336.46,586844.88,0,0.0,52.0,52.0,49.0,0.0,52.0,52.0,52.0,52.0,52.0,52.0,52.0,52.0,52.0,52.0
CPT000000097713_IMBRO_A,242573.159,586369.542,5.261513162024352,6.3486630006073215,97.0,60.0,4.0,0.0,100.0,100.0,100.0,100.0,99.0,91.0,84.0,21.0,17.0,16.0
CPT000000097715_IMBRO_A,240476.881,585065.253,0.0,2.4422306855305216,18.0,4.0,0.0,0.0,95.0,67.0,61.0,56.0,55.0,54.0,46.0,43.0,40.0,37.0
CPT000000097716_IMBRO_A,244750.98,587827.22,0,0.0,0.0,0.0,0.0,0.0,41.0,3.0,2.0,1.0,1.0,1.0,1.0,0.0,0.0,0.0
CPT000000097718_IMBRO_A,244664.97,587758.36,0,0.0,0.0,0.0,0.0,0.0,14.0,0.0,0.0,0.0,0.0,0.0,0.0,0.0,0.0,0.0
CPT000000097721_IMBRO_A,242133.256,586094.879,0.0,4.9242488766309735,26.0,21.0,11.0,8.0,97.0,70.0,64.0,59.0,55.0,54.0,53.0,52.0,51.0,51.0
CPT000000097722_IMBRO_A,241346.471,585608.915,0.0,3.735209471948618,26.0,10.0,1.0,0.0,97.0,63.0,60.0,57.0,54.0,51.0,51.0,44.0,41.0,40.0
CPT000000097723_IMBRO_A,241416.286,585649.375,0.0,5.083159339198208,24.0,8.0,0.0,0.0,98.0,62.0,60.0,59.0,57.0,52.0,50.0,48.0,46.0,42.0
CPT000000097724_IMBRO_A,241502.174,585701.364,0.0,5.676373653947395,25.0,14.0,4.0,0.0,92.0,72.0,65.0,61.0,59.0,58.0,58.0,57.0,56.0,53.0
CPT000000097725_IMBRO_A,241949.793,585981.212,0.0,14.039392410431056,29.0,22.0,9.0,0.0,97.0,75.0,69.0,67.0,65.0,64.0,61.0,61.0,59.0,55.0
CPT000000097726_IMBRO_A,241795.165,585882.39,0.0,0.8571389699070296,8.0,5.0,0.0,0.0,96.0,54.0,48.0,46.0,42.0,41.0,36.0,35.0,31.0,30.0
CPT000000097727_IMBRO_A,241823.224,585900.463,0.0,1.6197364007439583,13.0,5.0,0.0,0.0,96.0,58.0,50.0,49.0,48.0,43.0,42.0,40.0,36.0,30.0
CPT000000097728_IMBRO_A,241657.78,585798.939,0.0,3.289530410678501,21.0,5.0,0.0,0.0,95.0,66.0,56.0,52.0,49.0,47.0,45.0,45.0,44.0,42.0
CPT000000097729_IMBRO_A,241175.942,585500.899,0.0,5.553896364136569,24.0,9.0,2.0,0.0,98.0,82.0,78.0,73.0,66.0,60.0,57.0,55.0,54.0,52.0
CPT000000097730_IMBRO_A,241253.538,585550.531,0.0,2.80873483824195,20.0,10.0,4.0,1.0,95.0,64.0,55.0,49.0,46.0,44.0,44.0,43.0,41.0,38.0
CPT000000097731_IMBRO_A,242229.66,586155.624,0,0.0,0.0,0.0,0.0,0.0,28.0,3.0,3.0,3.0,2.0,1.0,0.0,0.0,0.0,0.0
CPT000000097732_IMBRO_A,242075.256,586060.809,0.0,12.381625024638053,32.0,18.0,8.0,2.0,97.0,78.0,74.0,72.0,66.0,62.0,61.0,60.0,58.0,57.0
CPT000000097733_IMBRO_A,241584.299,585752.662,0.0,3.4377498563077156,12.0,5.0,2.0,0.0,96.0,57.0,50.0,47.0,47.0,46.0,45.0,44.0,42.0,40.0
CPT000000097734_IMBRO_A,241091.28,585449.371,0.0,9.607728597260044,44.0,26.0,9.0,1.0,96.0,75.0,69.0,66.0,64.0,64.0,63.0,62.0,61.0,60.0
CPT000000097735_IMBRO_A,241726.434,585840.334,0,0.6197659115653139,8.0,1.0,0.0,0.0,93.0,52.0,46.0,41.0,37.0,33.0,29.0,28.0,24.0,16.0
CPT000000097736_IMBRO_A,241866.123,585927.83,0,1.3415699801454615,8.0,6.0,0.0,0.0,92.0,54.0,50.0,48.0,47.0,44.0,42.0,42.0,42.0,40.0
CPT000000097737_IMBRO_A,242170.808,586118.611,0,1.1587158786803473,20.0,15.0,10.0,4.0,87.0,59.0,45.0,41.0,40.0,40.0,40.0,40.0,39.0,38.0
CPT000000097738_IMBRO_A,240154.671,584818.49,0.0,7.444306585892603,19.0,11.0,4.0,2.0,100.0,72.0,68.0,65.0,64.0,63.0,61.0,60.0,58.0,55.0
CPT000000097739_IMBRO_A,240230.181,584879.048,0.0,6.753676247715146,30.0,11.0,1.0,0.0,96.0,74.0,72.0,69.0,67.0,62.0,57.0,55.0,54.0,51.0
CPT000000097740_IMBRO_A,242039.318,586037.025,0.0,11.250694994672713,35.0,22.0,1.0,0.0,99.0,75.0,70.0,67.0,65.0,64.0,62.0,60.0,59.0,54.0
CPT000000097741_IMBRO_A,241905.476,585953.671,0.0,18.33126501970117,33.0,21.0,12.0,8.0,95.0,71.0,68.0,66.0,65.0,64.0,63.0,61.0,61.0,60.0
CPT000000097742_IMBRO_A,240076.797,584757.064,0.0,4.714078208742555,21.0,5.0,2.0,0.0,97.0,69.0,64.0,59.0,55.0,54.0,52.0,51.0,45.0,44.0
CPT000000097743_IMBRO_A,242311.879,586206.223,0,0.0,0.0,0.0,0.0,0.0,20.0,2.0,1.0,1.0,1.0,1.0,1.0,1.0,1.0,1.0
CPT000000097744_IMBRO_A,242396.219,586259.634,0,0.0,0.0,0.0,0.0,0.0,27.0,4.0,3.0,1.0,1.0,1.0,1.0,1.0,1.0,1.0
CPT000000097745_IMBRO_A,241995.561,586009.143,0.0,7.27778400244023,35.0,19.0,5.0,1.0,96.0,67.0,63.0,63.0,61.0,59.0,57.0,53.0,50.0,47.0
CPT000000097746_IMBRO_A,242395.367,586259.111,0,0.0,1.0,0.0,0.0,0.0,34.0,4.0,3.0,3.0,3.0,3.0,3.0,2.0,1.0,1.0
CPT000000097747_IMBRO_A,243638.525,587021.019,0,0.0,52.0,52.0,49.0,0.0,52.0,52.0,52.0,52.0,52.0,52.0,52.0,52.0,52.0,52.0
CPT000000097749_IMBRO_A,243717.844,587076.576,0,0.0,56.0,56.0,56.0,0.0,56.0,56.0,56.0,56.0,56.0,56.0,56.0,56.0,56.0,0.0
CPT000000097750_IMBRO_A,243965.008,587254.874,0,0.0,46.0,46.0,0.0,0.0,46.0,46.0,46.0,46.0,46.0,46.0,46.0,46.0,46.0,46.0
CPT000000097751_IMBRO_A,239542.149,584334.506,0.0,1.7495686098372598,7.0,1.0,0.0,0.0,90.0,49.0,45.0,40.0,35.0,29.0,24.0,16.0,11.0,0.0
CPT000000097752_IMBRO_A,239772.821,584515.914,0.0,4.42359687406044,20.0,0.0,0.0,0.0,99.0,72.0,66.0,61.0,54.0,49.0,40.0,32.0,12.0,1.0
CPT000000097753_IMBRO_A,243554.517,586966.803,0,0.0,52.0,52.0,52.0,0.0,52.0,52.0,52.0,52.0,52.0,52.0,52.0,52.0,52.0,52.0
CPT000000097755_IMBRO_A,243467.711,586913.13,0,0.0,50.0,50.0,0.0,0.0,50.0,50.0,50.0,50.0,50.0,50.0,50.0,50.0,50.0,0.0
CPT000000097756_IMBRO_A,239462.931,584272.57,0.0,7.263885997041456,15.0,3.0,1.0,0.0,98.0,67.0,62.0,60.0,58.0,56.0,54.0,50.0,49.0,48.0
CPT000000097757_IMBRO_A,243883.253,587195.912,0,0.0,46.0,46.0,0.0,0.0,46.0,46.0,46.0,46.0,46.0,46.0,46.0,46.0,46.0,46.0
CPT000000097758_IMBRO_A,239854.959,584582.988,0.0,2.8530464710222123,13.0,0.0,0.0,0.0,93.0,60.0,53.0,44.0,36.0,25.0,16.0,9.0,0.0,0.0
CPT000000097759_IMBRO_A,243212.502,586754.897,0,0.0,49.0,0.0,0.0,0.0,51.0,50.0,50.0,50.0,0.0,0.0,0.0,0.0,0.0,0.0
CPT000000097760_IMBRO_A,243298.648,586807.885,1.1869380203245972,0.5324107653085908,56.0,0.0,0.0,0.0,76.0,50.0,50.0,50.0,50.0,50.0,50.0,0.0,0.0,0.0
CPT000000097762_IMBRO_A,243383.342,586860.988,0.6208559889264293,0.2646958749857436,51.0,51.0,0.0,0.0,67.0,51.0,51.0,51.0,51.0,51.0,51.0,51.0,51.0,0.0
CPT000000097763_IMBRO_A,240002.5,584697.687,0.0,5.29249004877974,23.0,5.0,0.0,0.0,97.0,65.0,64.0,60.0,58.0,52.0,48.0,44.0,42.0,35.0
CPT000000097764_IMBRO_A,243125.681,586701.078,0,0.0,51.0,46.0,0.0,0.0,53.0,53.0,53.0,53.0,53.0,53.0,53.0,53.0,52.0,52.0
CPT000000097765_IMBRO_A,239696.131,584455.534,0.0,5.404638630195324,20.0,5.0,0.0,0.0,98.0,74.0,67.0,62.0,58.0,54.0,51.0,46.0,46.0,43.0
CPT000000097766_IMBRO_A,244057.613,587321.199,0,0.0,0.0,0.0,0.0,0.0,11.0,1.0,1.0,1.0,1.0,1.0,1.0,1.0,1.0,1.0
CPT000000097767_IMBRO_A,239926.36,584637.171,0.0,3.110197814173069,18.0,3.0,0.0,0.0,96.0,62.0,54.0,51.0,49.0,46.0,44.0,33.0,30.0,19.0
CPT000000097768_IMBRO_A,243801.421,587136.963,0,0.0,51.0,51.0,0.0,0.0,51.0,51.0,51.0,51.0,51.0,51.0,51.0,51.0,51.0,51.0
CPT000000097769_IMBRO_A,243720.27,587078.33,0,0.0,45.0,45.0,45.0,0.0,45.0,45.0,45.0,45.0,45.0,45.0,45.0,45.0,45.0,45.0
CPT000000097770_IMBRO_A,239617.334,584393.382,0.0,3.246276764898443,9.0,0.0,0.0,0.0,93.0,55.0,54.0,52.0,52.0,50.0,46.0,43.0,41.0,40.0
CPT000000097771_IMBRO_A,242785.064,586489.359,0,0.0,0.0,0.0,0.0,0.0,38.0,7.0,6.0,5.0,5.0,4.0,3.0,1.0,1.0,1.0
CPT000000097772_IMBRO_A,242361.605,586225.936,0,0.0,0.0,0.0,0.0,0.0,7.0,1.0,0.0,0.0,0.0,0.0,0.0,0.0,0.0,0.0
CPT000000097773_IMBRO_A,242616.109,586383.912,0,0.0,9.0,5.0,5.0,3.0,48.0,38.0,36.0,35.0,35.0,35.0,34.0,34.0,33.0,33.0
CPT000000097774_IMBRO_A,241808.658,585881.996,0,1.603801689291602,3.0,1.0,1.0,0.0,87.0,52.0,47.0,42.0,40.0,39.0,39.0,36.0,34.0,34.0
CPT000000097775_IMBRO_A,241851.494,585908.02,0,1.1915999191611621,5.0,3.0,0.0,0.0,91.0,48.0,38.0,35.0,31.0,31.0,31.0,27.0,27.0,27.0
CPT000000097776_IMBRO_A,242159.756,586101.059,0,0.1577906993115959,1.0,1.0,0.0,0.0,76.0,32.0,23.0,22.0,20.0,20.0,20.0,18.0,17.0,17.0
CPT000000097777_IMBRO_A,242701.091,586436.614,0,0.0,0.0,0.0,0.0,0.0,16.0,0.0,0.0,0.0,0.0,0.0,0.0,0.0,0.0,0.0
CPT000000097778_IMBRO_A,241766.076,585856.035,0,0.887036521126866,5.0,1.0,0.0,0.0,92.0,43.0,37.0,35.0,33.0,32.0,30.0,28.0,25.0,24.0
CPT000000097779_IMBRO_A,243040.909,586648.4,0,0.0,49.0,44.0,0.0,0.0,50.0,49.0,49.0,49.0,49.0,49.0,49.0,49.0,49.0,49.0
CPT000000097780_IMBRO_A,241699.465,585813.918,0,2.0018936021732276,10.0,3.0,2.0,0.0,92.0,55.0,49.0,48.0,47.0,46.0,46.0,45.0,45.0,45.0
CPT000000097781_IMBRO_A,242446.371,586278.427,0,0.0,0.0,0.0,0.0,0.0,13.0,1.0,1.0,1.0,0.0,0.0,0.0,0.0,0.0,0.0
CPT000000097782_IMBRO_A,242954.696,586594.869,0,0.0,0.0,0.0,0.0,0.0,19.0,3.0,2.0,2.0,2.0,1.0,1.0,1.0,1.0,1.0
CPT000000097783_IMBRO_A,242122.284,586077.196,0,1.5096625999745064,6.0,4.0,1.0,0.0,89.0,59.0,51.0,49.0,47.0,46.0,44.0,43.0,41.0,40.0
CPT000000097784_IMBRO_A,242192.021,586121.092,0,0.022722885007285205,0.0,0.0,0.0,0.0,57.0,27.0,20.0,19.0,16.0,15.0,13.0,13.0,11.0,11.0
CPT000000097785_IMBRO_A,241979.739,585988.422,0,0.9467840804589912,5.0,2.0,0.0,0.0,81.0,47.0,41.0,37.0,37.0,37.0,36.0,36.0,36.0,35.0
CPT000000097786_IMBRO_A,242022.966,586014.799,0,1.2880910208273686,3.0,0.0,0.0,0.0,89.0,64.0,55.0,52.0,49.0,47.0,45.0,43.0,43.0,43.0
CPT000000097787_IMBRO_A,242073.584,586046.711,0,0.9126135597630949,5.0,3.0,0.0,0.0,87.0,47.0,42.0,40.0,39.0,39.0,37.0,36.0,35.0,32.0
CPT000000097788_IMBRO_A,242276.97,586173.391,0,0.0,0.0,0.0,0.0,0.0,15.0,1.0,1.0,0.0,0.0,0.0,0.0,0.0,0.0,0.0
CPT000000097789_IMBRO_A,242542.687,586338.067,0.0,1.911923044225598,5.0,2.0,0.0,0.0,97.0,49.0,41.0,25.0,21.0,18.0,18.0,18.0,18.0,16.0
CPT000000097790_IMBRO_A,242869.622,586541.909,0,0.0,0.0,0.0,0.0,0.0,19.0,2.0,2.0,1.0,1.0,1.0,1.0,1.0,1.0,1.0
CPT000000097791_IMBRO_A,241937.037,585961.772,0,1.996122503572683,6.0,3.0,3.0,0.0,92.0,54.0,50.0,45.0,42.0,39.0,37.0,36.0,36.0,36.0
CPT000000097792_IMBRO_A,241893.884,585934.907,0,1.228549977270239,4.0,2.0,1.0,0.0,87.0,51.0,43.0,38.0,38.0,35.0,35.0,34.0,32.0,32.0
CPT000000097793_IMBRO_A,241386.089,585619.965,0,0.5615034703745261,6.0,0.0,0.0,0.0,87.0,40.0,37.0,35.0,32.0,31.0,31.0,30.0,29.0,29.0
CPT000000097794_IMBRO_A,240933.626,585339.466,0,0.879553765278512,6.0,3.0,1.0,0.0,83.0,54.0,48.0,44.0,38.0,37.0,36.0,35.0,34.0,34.0
CPT000000097795_IMBRO_A,240354.138,584965.517,0,0.375508527354096,5.0,0.0,0.0,0.0,86.0,49.0,46.0,43.0,39.0,36.0,35.0,34.0,32.0,24.0
CPT000000097796_IMBRO_A,240276.474,584904.195,0.0,1.5490446401195346,0.0,0.0,0.0,0.0,95.0,48.0,43.0,38.0,34.0,33.0,31.0,27.0,26.0,25.0
CPT000000097797_IMBRO_A,240687.155,585185.79,0.0,4.758742982372698,6.0,0.0,0.0,0.0,99.0,68.0,59.0,55.0,53.0,50.0,50.0,41.0,28.0,8.0
CPT000000097798_IMBRO_A,241142.921,585469.23,0,0.4688730108189797,3.0,1.0,0.0,0.0,90.0,47.0,43.0,38.0,36.0,34.0,33.0,30.0,24.0,20.0
CPT000000097799_IMBRO_A,240977.336,585366.965,0,0.6089634637229507,0.0,0.0,0.0,0.0,91.0,45.0,40.0,38.0,35.0,31.0,30.0,28.0,27.0,22.0
CPT000000097800_IMBRO_A,241061.122,585418.419,0,0.4560389790620953,4.0,1.0,0.0,0.0,90.0,44.0,41.0,38.0,37.0,37.0,35.0,33.0,33.0,29.0
CPT000000097801_IMBRO_A,240121.868,584781.813,0,1.7477334945369967,1.0,0.0,0.0,0.0,86.0,57.0,50.0,46.0,41.0,39.0,39.0,36.0,36.0,36.0
CPT000000097802_IMBRO_A,240199.487,584843.265,0,1.0344108742529075,2.0,1.0,0.0,0.0,90.0,53.0,48.0,46.0,43.0,40.0,39.0,39.0,39.0,39.0
CPT000000097803_IMBRO_A,239893.6,584599.655,0,0.375471107126857,2.0,0.0,0.0,0.0,81.0,38.0,35.0,35.0,31.0,27.0,25.0,25.0,22.0,19.0
CPT000000097804_IMBRO_A,239969.749,584660.401,0,0.8901967511231891,5.0,1.0,0.0,0.0,87.0,51.0,44.0,43.0,41.0,40.0,39.0,38.0,37.0,35.0
CPT000000097805_IMBRO_A,240601.896,585132.931,0.0,6.176262777249962,9.0,0.0,0.0,0.0,99.0,80.0,72.0,69.0,66.0,60.0,57.0,54.0,27.0,1.0
CPT000000097806_IMBRO_A,240045.506,584720.752,0,0.4623675340182619,0.0,0.0,0.0,0.0,88.0,48.0,40.0,40.0,37.0,35.0,34.0,31.0,29.0,29.0
CPT000000097807_IMBRO_A,240432.96,585025.389,0,0.2640568212643985,2.0,0.0,0.0,0.0,86.0,39.0,37.0,36.0,34.0,30.0,25.0,18.0,5.0,0.0
CPT000000097808_IMBRO_A,240771.177,585238.282,0.0,3.1730782289005477,9.0,0.0,0.0,0.0,99.0,73.0,61.0,50.0,46.0,38.0,30.0,24.0,18.0,10.0
CPT000000097809_IMBRO_A,239823.633,584541.628,1.195212068404601,10.441762216441333,60.0,30.0,5.0,0.0,97.0,80.0,78.0,75.0,71.0,68.0,65.0,62.0,59.0,57.0
CPT000000097810_IMBRO_A,241550.059,585722.749,0,0.6208145223675016,6.0,4.0,1.0,0.0,88.0,53.0,50.0,43.0,41.0,37.0,36.0,35.0,35.0,35.0
CPT000000097811_IMBRO_A,239586.924,584354.069,0,0.19075460493322932,0.0,0.0,0.0,0.0,86.0,35.0,29.0,22.0,3.0,0.0,0.0,0.0,0.0,0.0
CPT000000097812_IMBRO_A,239743.074,584477.894,0.0,8.263263877554081,14.0,5.0,0.0,0.0,100.0,74.0,71.0,65.0,64.0,61.0,57.0,55.0,54.0,53.0
CPT000000097813_IMBRO_A,241306.288,585571.186,0,0.7243322508408803,2.0,1.0,0.0,0.0,88.0,45.0,44.0,41.0,37.0,37.0,35.0,35.0,35.0,34.0
CPT000000097814_IMBRO_A,241469.775,585672.075,0,0.608705330232759,0.0,0.0,0.0,0.0,91.0,41.0,36.0,35.0,32.0,31.0,31.0,31.0,31.0,29.0
CPT000000097815_IMBRO_A,240516.443,585080.229,0,0.3028775533015331,3.0,0.0,0.0,0.0,83.0,38.0,34.0,30.0,27.0,25.0,24.0,21.0,20.0,13.0
CPT000000097816_IMBRO_A,240863.402,585295.642,0.0,4.500119294344025,8.0,0.0,0.0,0.0,99.0,71.0,61.0,60.0,57.0,53.0,51.0,48.0,36.0,27.0
CPT000000097817_IMBRO_A,239665.201,584416.186,0.016864528391995703,8.93818408511927,49.0,14.0,5.0,2.0,96.0,76.0,70.0,70.0,68.0,67.0,66.0,63.0,56.0,49.0
CPT000000097818_IMBRO_A,241630.091,585770.432,0,2.4639984290298678,4.0,2.0,1.0,0.0,90.0,65.0,56.0,54.0,45.0,43.0,41.0,37.0,37.0,35.0
CPT000000097819_IMBRO_A,241224.78,585520.048,0,0.5235839086029228,2.0,1.0,0.0,0.0,88.0,57.0,47.0,45.0,38.0,36.0,33.0,29.0,29.0,26.0
CPT000000097820_IMBRO_A,242473.0,586295.0,0,0.0,0.0,0.0,0.0,0.0,12.0,1.0,0.0,0.0,0.0,0.0,0.0,0.0,0.0,0.0
CPT000000097822_IMBRO_A,242402.947,586251.431,0,0.0,0.0,0.0,0.0,0.0,23.0,4.0,2.0,2.0,1.0,1.0,1.0,1.0,1.0,1.0
CPT000000097824_IMBRO_A,242317.0,586198.0,0,0.0,0.0,0.0,0.0,0.0,11.0,0.0,0.0,0.0,0.0,0.0,0.0,0.0,0.0,0.0
CPT000000097825_IMBRO_A,242339.0,586212.0,0,0.0,0.0,0.0,0.0,0.0,11.0,1.0,0.0,0.0,0.0,0.0,0.0,0.0,0.0,0.0
CPT000000097826_IMBRO_A,242381.0,586238.0,0,0.0,0.0,0.0,0.0,0.0,12.0,1.0,1.0,1.0,1.0,1.0,0.0,0.0,0.0,0.0
CPT000000097827_IMBRO_A,239352.359,584168.71,0.021718569956934986,8.810730476426313,47.0,25.0,2.0,0.0,97.0,68.0,66.0,62.0,61.0,60.0,57.0,54.0,50.0,48.0
CPT000000097828_IMBRO_A,242254.0,586159.0,0,0.0,0.0,0.0,0.0,0.0,14.0,5.0,5.0,2.0,2.0,1.0,0.0,0.0,0.0,0.0
CPT000000097829_IMBRO_A,239430.742,584230.063,0.0,5.8064957383116225,42.0,12.0,0.0,0.0,96.0,74.0,68.0,65.0,64.0,62.0,57.0,53.0,51.0,49.0
CPT000000097830_IMBRO_A,242317.0,586198.0,0,0.0,0.0,0.0,0.0,0.0,6.0,1.0,0.0,0.0,0.0,0.0,0.0,0.0,0.0,0.0
CPT000000097831_IMBRO_A,242494.0,586308.0,0,0.0,0.0,0.0,0.0,0.0,17.0,3.0,3.0,1.0,1.0,1.0,0.0,0.0,0.0,0.0
CPT000000097832_IMBRO_A,242232.0,586146.0,0,0.0,0.0,0.0,0.0,0.0,22.0,5.0,4.0,3.0,3.0,3.0,3.0,3.0,3.0,3.0
CPT000000097833_IMBRO_A,242515.0,586321.0,0,0.0,0.0,0.0,0.0,0.0,13.0,5.0,3.0,3.0,3.0,3.0,2.0,2.0,2.0,2.0
CPT000000097836_IMBRO_A,242424.0,586264.0,0,0.0,0.0,0.0,0.0,0.0,12.0,0.0,0.0,0.0,0.0,0.0,0.0,0.0,0.0,0.0
CPT000000097837_IMBRO_A,242211.0,586133.0,0,0.0,0.0,0.0,0.0,0.0,48.0,20.0,16.0,13.0,10.0,8.0,8.0,8.0,8.0,8.0
CPT000000097838_IMBRO_A,239508.958,584291.952,0,0.5471399006511641,2.0,0.0,0.0,0.0,85.0,43.0,31.0,30.0,28.0,26.0,23.0,21.0,21.0,21.0
CPT000000097839_IMBRO_A,242148.01,586093.511,0,0.8589632190317276,1.0,1.0,0.0,0.0,89.0,48.0,40.0,31.0,26.0,25.0,25.0,24.0,21.0,21.0
CPT000000097840_IMBRO_A,242169.0,586106.0,0,0.38406890429255586,0.0,0.0,0.0,0.0,71.0,36.0,29.0,27.0,23.0,23.0,23.0,22.0,21.0,21.0
CPT000000097841_IMBRO_A,242296.0,586185.0,0,0.0,0.0,0.0,0.0,0.0,14.0,1.0,1.0,1.0,1.0,1.0,1.0,1.0,1.0,1.0
CPT000000097842_IMBRO_A,252869.0,592136.4,0,0.0,0.0,0.0,0.0,0.0,52.0,5.0,4.0,0.0,0.0,0.0,0.0,0.0,0.0,0.0
CPT000000097843_IMBRO_A,244340.03,587526.77,0,0.0,54.0,54.0,54.0,52.0,55.0,54.0,54.0,54.0,54.0,54.0,54.0,54.0,54.0,54.0
CPT000000097844_IMBRO_A,245191.45,588053.41,0,0.0,51.0,0.0,0.0,0.0,51.0,51.0,51.0,51.0,51.0,51.0,51.0,51.0,51.0,51.0
CPT000000097846_IMBRO_A,242504.98,586315.67,0,0.0,0.0,0.0,0.0,0.0,21.0,3.0,2.0,2.0,2.0,1.0,0.0,0.0,0.0,0.0
CPT000000097847_IMBRO_A,248239.51,589931.39,0,0.000798682044355063,1.0,0.0,0.0,0.0,47.0,27.0,18.0,18.0,17.0,17.0,17.0,17.0,17.0,17.0
CPT000000097848_IMBRO_A,240668.19,585175.0,0.0,3.700396108715581,4.0,0.0,0.0,0.0,99.0,79.0,65.0,52.0,51.0,45.0,44.0,41.0,38.0,34.0
CPT000000097849_IMBRO_A,241546.44,585719.77,0,0.5418441923089585,3.0,2.0,0.0,0.0,84.0,52.0,49.0,45.0,43.0,38.0,36.0,35.0,34.0,32.0
CPT000000097850_IMBRO_A,251739.2,591785.58,0,0.0,0.0,0.0,0.0,0.0,14.0,2.0,2.0,1.0,1.0,1.0,1.0,1.0,1.0,1.0
CPT000000097854_IMBRO_A,239857.51,584570.86,0.0,5.225816587318648,10.0,4.0,0.0,0.0,98.0,72.0,67.0,64.0,62.0,59.0,54.0,53.0,52.0,46.0
CPT000000097856_IMBRO_A,250757.71,591430.56,0,0.0,26.0,0.0,0.0,0.0,46.0,43.0,43.0,43.0,43.0,43.0,43.0,42.0,41.0,37.0
CPT000000097861_IMBRO_A,249105.79,590448.23,0,0.0,0.0,0.0,0.0,0.0,12.0,1.0,1.0,1.0,1.0,1.0,0.0,0.0,0.0,0.0
CPT000000097864_IMBRO_A,249859.68,590896.88,0,0.0,0.0,0.0,0.0,0.0,16.0,0.0,0.0,0.0,0.0,0.0,0.0,0.0,0.0,0.0
CPT000000097866_IMBRO_A,247238.43,589305.82,0,0.23857982788730156,0.0,0.0,0.0,0.0,83.0,44.0,39.0,36.0,31.0,25.0,23.0,20.0,20.0,18.0
CPT000000097870_IMBRO_A,246330.42,588737.15,0,0.0,0.0,0.0,0.0,0.0,54.0,12.0,8.0,5.0,5.0,5.0,5.0,5.0,4.0,3.0
CPT000000097905_IMBRO_A,244639.0,587753.0,0,0.0,0.0,0.0,0.0,0.0,20.0,2.0,1.0,1.0,1.0,1.0,1.0,1.0,1.0,1.0
CPT000000097908_IMBRO_A,244678.0,587778.0,0,0.0,0.0,0.0,0.0,0.0,26.0,5.0,2.0,1.0,1.0,1.0,1.0,1.0,1.0,1.0
CPT000000097911_IMBRO_A,244949.0,587926.0,0,0.0,50.0,0.0,0.0,0.0,50.0,50.0,50.0,50.0,50.0,50.0,50.0,50.0,50.0,50.0
CPT000000097913_IMBRO_A,248588.0,590141.0,0,0.0,0.0,0.0,0.0,0.0,13.0,1.0,1.0,1.0,0.0,0.0,0.0,0.0,0.0,0.0
CPT000000097915_IMBRO_A,250479.0,591266.0,0,0.0,0.0,0.0,0.0,0.0,7.0,0.0,0.0,0.0,0.0,0.0,0.0,0.0,0.0,0.0
CPT000000097916_IMBRO_A,244562.0,587697.0,0,0.0,0.0,0.0,0.0,0.0,41.0,4.0,3.0,3.0,2.0,2.0,2.0,2.0,2.0,2.0
CPT000000097918_IMBRO_A,249362.0,590601.0,0,0.0,0.0,0.0,0.0,0.0,25.0,4.0,4.0,4.0,4.0,4.0,4.0,4.0,4.0,2.0
CPT000000097919_IMBRO_A,244608.0,587718.0,0,0.0,0.0,0.0,0.0,0.0,12.0,0.0,0.0,0.0,0.0,0.0,0.0,0.0,0.0,0.0
CPT000000097921_IMBRO_A,250221.0,591113.0,0,0.0,0.0,0.0,0.0,0.0,17.0,0.0,0.0,0.0,0.0,0.0,0.0,0.0,0.0,0.0
CPT000000097922_IMBRO_A,247736.0,589616.0,0,0.002706448869150599,3.0,2.0,0.0,0.0,65.0,35.0,31.0,31.0,31.0,31.0,31.0,30.0,29.0,29.0
CPT000000097923_IMBRO_A,245072.0,588012.0,0,0.0,53.0,53.0,53.0,0.0,53.0,53.0,53.0,53.0,53.0,53.0,53.0,53.0,53.0,53.0
CPT000000097925_IMBRO_A,249276.0,590550.0,0,0.0,0.0,0.0,0.0,0.0,17.0,0.0,0.0,0.0,0.0,0.0,0.0,0.0,0.0,0.0
CPT000000097926_IMBRO_A,252422.0,591997.0,0,0.0,0.0,0.0,0.0,0.0,15.0,2.0,1.0,1.0,0.0,0.0,0.0,0.0,0.0,0.0
CPT000000097927_IMBRO_A,244806.0,587872.0,0,0.0,0.0,0.0,0.0,0.0,41.0,4.0,3.0,3.0,3.0,3.0,3.0,3.0,1.0,1.0
CPT000000097928_IMBRO_A,250135.0,591061.0,0,0.0,0.0,0.0,0.0,0.0,14.0,0.0,0.0,0.0,0.0,0.0,0.0,0.0,0.0,0.0
CPT000000097929_IMBRO_A,252518.0,592027.0,0,0.0,0.0,0.0,0.0,0.0,20.0,1.0,0.0,0.0,0.0,0.0,0.0,0.0,0.0,0.0
CPT000000097930_IMBRO_A,248674.0,590192.0,0,0.0,0.0,0.0,0.0,0.0,8.0,0.0,0.0,0.0,0.0,0.0,0.0,0.0,0.0,0.0
CPT000000097931_IMBRO_A,251480.0,591706.0,0,0.0,0.0,0.0,0.0,0.0,11.0,1.0,1.0,1.0,1.0,1.0,0.0,0.0,0.0,0.0
CPT000000097932_IMBRO_A,244987.0,587968.0,0,0.0,46.0,0.0,0.0,0.0,46.0,46.0,46.0,46.0,0.0,0.0,0.0,0.0,0.0,0.0
CPT000000097933_IMBRO_A,250307.0,591164.0,0,0.0,0.0,0.0,0.0,0.0,14.0,0.0,0.0,0.0,0.0,0.0,0.0,0.0,0.0,0.0
CPT000000097934_IMBRO_A,251289.0,591646.0,0,0.0,0.0,0.0,0.0,0.0,7.0,0.0,0.0,0.0,0.0,0.0,0.0,0.0,0.0,0.0
CPT000000097935_IMBRO_A,244722.0,587808.0,0,0.0,0.0,0.0,0.0,0.0,27.0,4.0,2.0,2.0,1.0,1.0,1.0,1.0,1.0,1.0
CPT000000097936_IMBRO_A,251384.0,591675.0,0,0.0,0.0,0.0,0.0,0.0,13.0,0.0,0.0,0.0,0.0,0.0,0.0,0.0,0.0,0.0
CPT000000097937_IMBRO_A,248076.0,589828.0,0,0.0,17.0,7.0,2.0,0.0,44.0,37.0,35.0,35.0,35.0,34.0,34.0,33.0,33.0,33.0
CPT000000097938_IMBRO_A,252382.0,592030.0,0,0.0,0.0,0.0,0.0,0.0,12.0,0.0,0.0,0.0,0.0,0.0,0.0,0.0,0.0,0.0
CPT000000097939_IMBRO_A,252149.0,591913.0,0,0.0,0.0,0.0,0.0,0.0,7.0,2.0,0.0,0.0,0.0,0.0,0.0,0.0,0.0,0.0
CPT000000097940_IMBRO_A,244862.0,587880.0,0.12412653651531778,0.04740172978756205,54.0,54.0,0.0,0.0,55.0,54.0,54.0,54.0,54.0,54.0,0.0,0.0,0.0,0.0
CPT000000097941_IMBRO_A,251193.0,591617.0,0,0.0,1.0,0.0,0.0,0.0,34.0,6.0,5.0,4.0,3.0,2.0,1.0,1.0,1.0,1.0
CPT000000097942_IMBRO_A,247567.0,589510.0,0.0,1.4626366209018349,7.0,2.0,1.0,0.0,93.0,62.0,58.0,54.0,52.0,50.0,43.0,40.0,39.0,31.0
CPT000000097943_IMBRO_A,252244.0,591945.0,0,0.0,0.0,0.0,0.0,0.0,9.0,1.0,1.0,0.0,0.0,0.0,0.0,0.0,0.0,0.0
CPT000000097944_IMBRO_A,249877.0,590908.0,0,0.0,0.0,0.0,0.0,0.0,30.0,6.0,5.0,5.0,5.0,5.0,5.0,4.0,0.0,0.0
CPT000000097945_IMBRO_A,252473.0,592027.0,0,0.0,0.0,0.0,0.0,0.0,23.0,4.0,4.0,3.0,2.0,1.0,1.0,0.0,0.0,0.0
CPT000000097946_IMBRO_A,244480.0,587639.0,0,0.0,0.0,0.0,0.0,0.0,35.0,6.0,3.0,3.0,3.0,3.0,3.0,3.0,3.0,3.0
CPT000000097947_IMBRO_A,252340.0,592011.0,0,0.0,0.0,0.0,0.0,0.0,11.0,0.0,0.0,0.0,0.0,0.0,0.0,0.0,0.0,0.0
CPT000000097948_IMBRO_A,250913.0,591511.0,0,0.0,23.0,1.0,0.0,0.0,52.0,47.0,46.0,45.0,45.0,44.0,44.0,44.0,41.0,35.0
CPT000000097949_IMBRO_A,252707.0,592087.0,0,0.0,0.0,0.0,0.0,0.0,23.0,2.0,2.0,2.0,2.0,1.0,1.0,0.0,0.0,0.0
CPT000000097950_IMBRO_A,247397.0,589405.0,0,1.8805304454347669,6.0,1.0,0.0,0.0,89.0,56.0,46.0,41.0,39.0,38.0,37.0,36.0,34.0,33.0
CPT000000097951_IMBRO_A,244527.0,587659.0,0,0.0,0.0,0.0,0.0,0.0,18.0,4.0,2.0,2.0,2.0,2.0,2.0,2.0,2.0,2.0
CPT000000097952_IMBRO_A,251098.0,591586.0,0,0.0,0.0,0.0,0.0,0.0,41.0,33.0,27.0,12.0,0.0,0.0,0.0,0.0,0.0,0.0
CPT000000097953_IMBRO_A,251958.0,591853.0,0,0.0,0.0,0.0,0.0,0.0,16.0,2.0,2.0,1.0,1.0,1.0,1.0,1.0,1.0,0.0
CPT000000097954_IMBRO_A,247312.0,589352.0,0,0.3686130300959984,3.0,1.0,0.0,0.0,84.0,41.0,38.0,36.0,32.0,32.0,29.0,29.0,28.0,28.0
CPT000000097955_IMBRO_A,248760.0,590243.0,0,0.0,0.0,0.0,0.0,0.0,10.0,0.0,0.0,0.0,0.0,0.0,0.0,0.0,0.0,0.0
CPT000000097956_IMBRO_A,252053.0,591883.0,0,0.0,0.0,0.0,0.0,0.0,12.0,0.0,0.0,0.0,0.0,0.0,0.0,0.0,0.0,0.0
CPT000000097957_IMBRO_A,246549.0,588875.0,0,1.1872935497523678,4.0,4.0,1.0,0.0,83.0,50.0,45.0,39.0,38.0,36.0,34.0,31.0,29.0,27.0
CPT000000097958_IMBRO_A,244775.0,587831.0,0,0.0,0.0,0.0,0.0,0.0,21.0,1.0,1.0,1.0,0.0,0.0,0.0,0.0,0.0,0.0
CPT000000097959_IMBRO_A,249963.0,590958.0,0,0.0,1.0,0.0,0.0,0.0,21.0,2.0,1.0,1.0,1.0,1.0,1.0,1.0,1.0,1.0
CPT000000097960_IMBRO_A,252375.0,592079.0,0,0.0,0.0,0.0,0.0,0.0,13.0,2.0,2.0,1.0,1.0,1.0,1.0,1.0,1.0,1.0
CPT000000097961_IMBRO_A,250826.0,591469.0,0,0.0,28.0,20.0,0.0,0.0,54.0,51.0,50.0,49.0,48.0,48.0,48.0,47.0,47.0,47.0
CPT000000097962_IMBRO_A,246719.0,588981.0,0.0,7.410453060186491,33.0,17.0,6.0,0.0,94.0,67.0,60.0,58.0,52.0,52.0,52.0,50.0,50.0,50.0
CPT000000097963_IMBRO_A,251671.0,591765.0,0,0.0,0.0,0.0,0.0,0.0,15.0,1.0,1.0,1.0,1.0,1.0,1.0,1.0,0.0,0.0
CPT000000097964_IMBRO_A,244905.0,587919.0,0,0.0,62.0,62.0,0.0,0.0,62.0,62.0,62.0,62.0,62.0,62.0,62.0,62.0,62.0,0.0
CPT000000097965_IMBRO_A,248416.0,590039.0,0,0.0,0.0,0.0,0.0,0.0,11.0,0.0,0.0,0.0,0.0,0.0,0.0,0.0,0.0,0.0
CPT000000097966_IMBRO_A,251767.0,591794.0,0,0.0,0.0,0.0,0.0,0.0,11.0,0.0,0.0,0.0,0.0,0.0,0.0,0.0,0.0,0.0
CPT000000097967_IMBRO_A,246973.0,589141.0,0,0.6676008291263548,1.0,0.0,0.0,0.0,88.0,52.0,48.0,44.0,42.0,40.0,36.0,33.0,33.0,30.0
CPT000000097968_IMBRO_A,248502.0,590090.0,0,0.0,0.0,0.0,0.0,0.0,9.0,0.0,0.0,0.0,0.0,0.0,0.0,0.0,0.0,0.0
CPT000000097969_IMBRO_A,251862.0,591824.0,0,0.0,0.0,0.0,0.0,0.0,10.0,0.0,0.0,0.0,0.0,0.0,0.0,0.0,0.0,0.0
CPT000000097970_IMBRO_A,244440.0,587610.0,0,0.0,0.0,0.0,0.0,0.0,35.0,4.0,1.0,0.0,0.0,0.0,0.0,0.0,0.0,0.0
CPT000000097971_IMBRO_A,250393.0,591215.0,0,0.0,0.0,0.0,0.0,0.0,9.0,0.0,0.0,0.0,0.0,0.0,0.0,0.0,0.0,0.0
CPT000000097972_IMBRO_A,252610.0,592055.0,0,0.0,0.0,0.0,0.0,0.0,21.0,0.0,0.0,0.0,0.0,0.0,0.0,0.0,0.0,0.0
CPT000000097973_IMBRO_A,246634.0,588928.0,0.0,6.787234687153027,19.0,11.0,5.0,3.0,99.0,61.0,58.0,53.0,51.0,45.0,42.0,38.0,38.0,37.0
CPT000000097974_IMBRO_A,244319.0,587520.0,0,0.0,56.0,56.0,56.0,55.0,56.0,56.0,56.0,56.0,56.0,56.0,56.0,56.0,56.0,56.0
CPT000000097975_IMBRO_A,251575.0,591735.0,0,0.0,0.0,0.0,0.0,0.0,14.0,1.0,0.0,0.0,0.0,0.0,0.0,0.0,0.0,0.0
CPT000000097977_IMBRO_A,248245.0,589935.0,0.32630214251277334,0.673621121937598,3.0,0.0,0.0,0.0,100.0,35.0,27.0,21.0,19.0,17.0,17.0,14.0,14.0,14.0
CPT000000097978_IMBRO_A,252753.0,592110.0,0,0.0,0.0,0.0,0.0,0.0,30.0,5.0,4.0,4.0,4.0,1.0,0.0,0.0,0.0,0.0
CPT000000097980_IMBRO_A,250049.0,591010.0,0,0.0,0.0,0.0,0.0,0.0,25.0,1.0,1.0,0.0,0.0,0.0,0.0,0.0,0.0,0.0
CPT000000097981_IMBRO_A,244359.0,587551.0,0,0.0,0.0,0.0,0.0,0.0,19.0,1.0,0.0,0.0,0.0,0.0,0.0,0.0,0.0,0.0
CPT000000097982_IMBRO_A,246888.0,589088.0,0,0.578843583003323,2.0,2.0,0.0,0.0,85.0,46.0,37.0,34.0,31.0,29.0,29.0,29.0,28.0,27.0
CPT000000097984_IMBRO_A,248330.0,589987.0,0,0.0,0.0,0.0,0.0,0.0,35.0,2.0,1.0,1.0,1.0,1.0,1.0,0.0,0.0,0.0
CPT000000097985_IMBRO_A,245060.0,587984.0,0,0.0,46.0,46.0,0.0,0.0,46.0,46.0,46.0,46.0,46.0,46.0,46.0,46.0,46.0,46.0
CPT000000097986_IMBRO_A,247228.0,589299.0,0,0.17232087771545704,0.0,0.0,0.0,0.0,80.0,37.0,31.0,28.0,22.0,16.0,15.0,13.0,13.0,11.0
CPT000000097987_IMBRO_A,249448.0,590652.0,0,0.0,0.0,0.0,0.0,0.0,30.0,7.0,5.0,0.0,0.0,0.0,0.0,0.0,0.0,0.0
CPT000000097989_IMBRO_A,252323.0,592079.0,0,0.0,0.0,0.0,0.0,0.0,44.0,6.0,2.0,2.0,2.0,2.0,2.0,1.0,0.0,0.0
CPT000000097990_IMBRO_A,249790.0,590856.0,0,0.0,0.0,0.0,0.0,0.0,9.0,1.0,1.0,0.0,0.0,0.0,0.0,0.0,0.0,0.0
CPT000000097992_IMBRO_A,244405.0,587572.0,0,0.0,0.0,0.0,0.0,0.0,15.0,8.0,4.0,4.0,3.0,3.0,3.0,3.0,3.0,3.0
CPT000000097994_IMBRO_A,247482.0,589457.0,0.0,3.3213684936909624,11.0,0.0,0.0,0.0,94.0,65.0,58.0,52.0,50.0,46.0,40.0,37.0,36.0,35.0
CPT000000097995_IMBRO_A,249104.0,590447.0,0,0.0,0.0,0.0,0.0,0.0,11.0,0.0,0.0,0.0,0.0,0.0,0.0,0.0,0.0,0.0
CPT000000097996_IMBRO_A,246368.0,588765.0,0,0.004956107304157019,0.0,0.0,0.0,0.0,59.0,24.0,16.0,11.0,4.0,3.0,3.0,3.0,2.0,2.0
CPT000000097998_IMBRO_A,249533.0,590704.0,0,0.0,0.0,0.0,0.0,0.0,16.0,1.0,0.0,0.0,0.0,0.0,0.0,0.0,0.0,0.0
CPT000000097999_IMBRO_A,244278.0,587491.0,0,0.0,0.0,0.0,0.0,0.0,22.0,4.0,0.0,0.0,0.0,0.0,0.0,0.0,0.0,0.0
CPT000000098002_IMBRO_A,246803.0,589034.0,0,0.6380642996594774,3.0,2.0,0.0,0.0,86.0,52.0,49.0,46.0,45.0,44.0,40.0,39.0,38.0,37.0
CPT000000098004_IMBRO_A,247906.0,589722.0,0,0.0,5.0,2.0,1.0,0.0,42.0,29.0,26.0,24.0,23.0,23.0,23.0,22.0,20.0,20.0
CPT000000098006_IMBRO_A,247991.0,589776.0,0,0.0,7.0,5.0,2.0,0.0,40.0,30.0,30.0,28.0,26.0,25.0,23.0,21.0,21.0,21.0
CPT000000098008_IMBRO_A,246464.0,588822.0,0,0.27512808999454635,1.0,0.0,0.0,0.0,66.0,43.0,36.0,30.0,27.0,22.0,19.0,18.0,17.0,17.0
CPT000000098011_IMBRO_A,248160.0,589882.0,0,0.0,14.0,5.0,0.0,0.0,49.0,41.0,38.0,35.0,35.0,33.0,33.0,33.0,32.0,32.0
CPT000000098013_IMBRO_A,252296.0,591970.0,0,0.0,0.0,0.0,0.0,0.0,11.0,2.0,1.0,1.0,1.0,1.0,0.0,0.0,0.0,0.0
CPT000000098014_IMBRO_A,249018.0,590396.0,0,0.0,0.0,0.0,0.0,0.0,12.0,0.0,0.0,0.0,0.0,0.0,0.0,0.0,0.0,0.0
CPT000000098016_IMBRO_A,248846.0,590294.0,0,0.0,0.0,0.0,0.0,0.0,15.0,2.0,1.0,1.0,1.0,1.0,0.0,0.0,0.0,0.0
CPT000000098018_IMBRO_A,247058.0,589194.0,0,1.0864365262950657,2.0,0.0,0.0,0.0,89.0,47.0,43.0,39.0,38.0,38.0,38.0,38.0,37.0,34.0
CPT000000098021_IMBRO_A,248932.0,590345.0,0,0.0,0.0,0.0,0.0,0.0,15.0,0.0,0.0,0.0,0.0,0.0,0.0,0.0,0.0,0.0
CPT000000098023_IMBRO_A,251623.0,591762.0,0,0.0,0.0,0.0,0.0,0.0,34.0,4.0,4.0,4.0,3.0,1.0,1.0,1.0,1.0,0.0
CPT000000098024_IMBRO_A,247821.0,589670.0,0.0,0.5942784369001438,8.0,3.0,0.0,0.0,92.0,20.0,20.0,18.0,17.0,16.0,15.0,15.0,15.0,15.0
CPT000000098027_IMBRO_A,252563.0,592051.0,0,0.0,0.0,0.0,0.0,0.0,44.0,0.0,0.0,0.0,0.0,0.0,0.0,0.0,0.0,0.0
CPT000000098028_IMBRO_A,249190.0,590498.0,0,0.0,0.0,0.0,0.0,0.0,13.0,1.0,1.0,1.0,1.0,1.0,0.0,0.0,0.0,0.0
CPT000000098030_IMBRO_A,251712.0,591791.0,0,0.0,0.0,0.0,0.0,0.0,16.0,1.0,1.0,1.0,1.0,1.0,1.0,1.0,0.0,0.0
CPT000000098031_IMBRO_A,249619.0,590754.0,0,0.0,0.0,0.0,0.0,0.0,13.0,0.0,0.0,0.0,0.0,0.0,0.0,0.0,0.0,0.0
CPT000000098034_IMBRO_A,252192.0,591939.0,0,0.0,1.0,0.0,0.0,0.0,25.0,3.0,3.0,3.0,3.0,3.0,3.0,2.0,2.0,2.0
CPT000000098035_IMBRO_A,249706.0,590805.0,0,0.0,0.0,0.0,0.0,0.0,17.0,0.0,0.0,0.0,0.0,0.0,0.0,0.0,0.0,0.0
CPT000000098036_IMBRO_A,251524.0,591731.0,0,0.0,0.0,0.0,0.0,0.0,31.0,5.0,5.0,4.0,3.0,3.0,3.0,1.0,0.0,0.0
CPT000000098039_IMBRO_A,251005.0,591551.0,0,0.0,0.0,0.0,0.0,0.0,57.0,47.0,24.0,0.0,0.0,0.0,0.0,0.0,0.0,0.0
CPT000000098041_IMBRO_A,252645.0,592078.0,0,0.0,0.0,0.0,0.0,0.0,37.0,1.0,1.0,0.0,0.0,0.0,0.0,0.0,0.0,0.0
CPT000000098044_IMBRO_A,247142.0,589247.0,0,1.3046246853123489,1.0,1.0,1.0,0.0,86.0,52.0,47.0,42.0,39.0,39.0,36.0,36.0,36.0,35.0
CPT000000098050_IMBRO_A,251445.0,591707.0,0,0.0,0.0,0.0,0.0,0.0,25.0,3.0,3.0,3.0,2.0,2.0,2.0,2.0,2.0,2.0
CPT000000098053_IMBRO_A,247652.0,589564.0,0.0,1.1876424431444077,8.0,0.0,0.0,0.0,92.0,49.0,40.0,30.0,18.0,17.0,14.0,14.0,13.0,12.0
CPT000000098056_IMBRO_A,251048.0,591580.0,0,0.0,13.0,4.0,0.0,0.0,31.0,24.0,23.0,22.0,21.0,19.0,18.0,15.0,6.0,0.0
CPT000000098058_IMBRO_A,245640.0,588329.0,0,0.0,42.0,42.0,42.0,42.0,42.0,42.0,42.0,42.0,42.0,42.0,42.0,42.0,42.0,42.0
CPT000000098064_IMBRO_A,245469.0,588223.0,0,0.0,52.0,0.0,0.0,0.0,52.0,52.0,52.0,52.0,52.0,52.0,0.0,0.0,0.0,0.0
CPT000000098069_IMBRO_A,245696.0,588341.0,0,0.0,53.0,53.0,53.0,53.0,53.0,53.0,53.0,53.0,53.0,53.0,53.0,53.0,53.0,53.0
CPT000000098073_IMBRO_A,248277.0,589965.0,0,0.0,0.0,0.0,0.0,0.0,40.0,6.0,6.0,6.0,4.0,3.0,2.0,1.0,1.0,1.0
CPT000000098074_IMBRO_A,245555.0,588276.0,0,0.0,59.0,59.0,59.0,59.0,59.0,59.0,59.0,59.0,59.0,59.0,59.0,59.0,59.0,59.0
CPT000000098077_IMBRO_A,249743.0,590841.0,0,0.0,0.0,0.0,0.0,0.0,25.0,1.0,0.0,0.0,0.0,0.0,0.0,0.0,0.0,0.0
CPT000000098079_IMBRO_A,245523.0,588233.0,0,0.0,41.0,41.0,0.0,0.0,41.0,41.0,41.0,41.0,41.0,41.0,41.0,41.0,41.0,41.0
CPT000000098081_IMBRO_A,250867.0,591501.0,0.6339701678446482,0.613814249654553,36.0,30.0,13.0,0.0,100.0,43.0,41.0,40.0,39.0,39.0,39.0,39.0,38.0,37.0
CPT000000098083_IMBRO_A,245725.0,588382.0,0,0.0,44.0,44.0,44.0,44.0,44.0,44.0,44.0,44.0,44.0,44.0,44.0,44.0,44.0,44.0
CPT000000098084_IMBRO_A,250172.0,591097.0,0,0.0,0.0,0.0,0.0,0.0,31.0,0.0,0.0,0.0,0.0,0.0,0.0,0.0,0.0,0.0
CPT000000098086_IMBRO_A,248969.0,590377.0,0,0.0,0.0,0.0,0.0,0.0,33.0,5.0,5.0,5.0,3.0,3.0,2.0,2.0,1.0,0.0
CPT000000098088_IMBRO_A,245888.0,588485.0,0,0.0,0.0,0.0,0.0,0.0,29.0,1.0,0.0,0.0,0.0,0.0,0.0,0.0,0.0,0.0
CPT000000098090_IMBRO_A,250959.0,591545.0,0,0.0,22.0,0.0,0.0,0.0,53.0,45.0,45.0,41.0,0.0,0.0,0.0,0.0,0.0,0.0
CPT000000098092_IMBRO_A,245888.0,588485.0,0,0.0,0.0,0.0,0.0,0.0,36.0,4.0,2.0,2.0,2.0,2.0,2.0,2.0,1.0,0.0
CPT000000098095_IMBRO_A,248196.0,589914.0,0.21683952820356397,0.7613846787635368,29.0,11.0,2.0,0.0,100.0,39.0,30.0,29.0,28.0,28.0,27.0,27.0,27.0,27.0
CPT000000098096_IMBRO_A,245863.0,588445.0,0,0.0,0.0,0.0,0.0,0.0,13.0,1.0,0.0,0.0,0.0,0.0,0.0,0.0,0.0,0.0
CPT000000098099_IMBRO_A,250784.0,591458.0,0,0.0,29.0,19.0,0.0,0.0,43.0,38.0,37.0,37.0,36.0,36.0,36.0,36.0,36.0,35.0
CPT000000098101_IMBRO_A,245348.0,588136.0,0,0.0,51.0,0.0,0.0,0.0,51.0,51.0,51.0,51.0,51.0,51.0,0.0,0.0,0.0,0.0
CPT000000098103_IMBRO_A,250517.0,591299.0,0,0.0,0.0,0.0,0.0,0.0,22.0,4.0,3.0,3.0,1.0,0.0,0.0,0.0,0.0,0.0
CPT000000098105_IMBRO_A,248796.0,590281.0,0,0.0,0.0,0.0,0.0,0.0,25.0,3.0,3.0,2.0,2.0,2.0,2.0,2.0,2.0,2.0
CPT000000098107_IMBRO_A,245607.0,588285.0,0,0.0,54.0,54.0,54.0,54.0,54.0,54.0,54.0,54.0,54.0,54.0,54.0,54.0,54.0,54.0
CPT000000098109_IMBRO_A,249141.0,590477.0,0,0.0,0.0,0.0,0.0,0.0,22.0,2.0,2.0,2.0,0.0,0.0,0.0,0.0,0.0,0.0
CPT000000098111_IMBRO_A,245382.0,588177.0,0,0.0,52.0,52.0,0.0,0.0,52.0,52.0,52.0,52.0,52.0,52.0,52.0,52.0,52.0,0.0
CPT000000098114_IMBRO_A,248882.0,590334.0,0,0.0,0.0,0.0,0.0,0.0,27.0,1.0,1.0,1.0,0.0,0.0,0.0,0.0,0.0,0.0
CPT000000098117_IMBRO_A,245436.0,588183.0,0,0.0,59.0,59.0,0.0,0.0,59.0,59.0,59.0,59.0,59.0,59.0,59.0,59.0,59.0,59.0
CPT000000098118_IMBRO_A,250345.0,591200.0,0,0.0,0.0,0.0,0.0,0.0,28.0,4.0,2.0,2.0,0.0,0.0,0.0,0.0,0.0,0.0
CPT000000098121_IMBRO_A,245259.0,588089.0,0,0.0,49.0,0.0,0.0,0.0,49.0,49.0,49.0,49.0,0.0,0.0,0.0,0.0,0.0,0.0
CPT000000098122_IMBRO_A,249314.0,590583.0,0,0.0,0.0,0.0,0.0,0.0,31.0,4.0,3.0,3.0,3.0,2.0,2.0,2.0,1.0,1.0
CPT000000098125_IMBRO_A,249824.0,590899.0,0,0.0,0.0,0.0,0.0,0.0,29.0,3.0,2.0,2.0,2.0,1.0,0.0,0.0,0.0,0.0
CPT000000098127_IMBRO_A,245777.0,588392.0,0,0.0,51.0,51.0,51.0,51.0,51.0,51.0,51.0,51.0,51.0,51.0,51.0,51.0,51.0,51.0
CPT000000098128_IMBRO_A,249915.0,590943.0,0,0.0,0.0,0.0,0.0,0.0,36.0,4.0,4.0,4.0,0.0,0.0,0.0,0.0,0.0,0.0
CPT000000098129_IMBRO_A,249657.0,590789.0,0,0.0,0.0,0.0,0.0,0.0,23.0,3.0,3.0,2.0,1.0,0.0,0.0,0.0,0.0,0.0
CPT000000098130_IMBRO_A,245810.0,588436.0,0,0.0,0.0,0.0,0.0,0.0,31.0,6.0,3.0,2.0,2.0,2.0,2.0,2.0,2.0,2.0
CPT000000098131_IMBRO_A,249571.0,590739.0,0,0.0,0.0,0.0,0.0,0.0,29.0,3.0,3.0,3.0,3.0,3.0,0.0,0.0,0.0,0.0
CPT000000098132_IMBRO_A,245947.0,588497.0,0,0.0,0.0,0.0,0.0,0.0,14.0,1.0,1.0,1.0,1.0,0.0,0.0,0.0,0.0,0.0
CPT000000098133_IMBRO_A,250430.0,591249.0,0,0.0,1.0,0.0,0.0,0.0,47.0,5.0,2.0,2.0,1.0,1.0,0.0,0.0,0.0,0.0
CPT000000098134_IMBRO_A,250259.0,591148.0,0,0.0,0.0,0.0,0.0,0.0,27.0,2.0,2.0,2.0,0.0,0.0,0.0,0.0,0.0,0.0
CPT000000098135_IMBRO_A,245127.0,588020.0,0,0.0,43.0,43.0,0.0,0.0,43.0,43.0,43.0,43.0,43.0,43.0,43.0,43.0,43.0,43.0
CPT000000098136_IMBRO_A,249226.0,590531.0,0,0.0,0.0,0.0,0.0,0.0,30.0,5.0,5.0,4.0,3.0,3.0,3.0,0.0,0.0,0.0
CPT000000098137_IMBRO_A,245162.0,588060.0,0,0.0,54.0,54.0,54.0,54.0,54.0,54.0,54.0,54.0,54.0,54.0,54.0,54.0,54.0,54.0
CPT000000098138_IMBRO_A,248709.0,590230.0,0,0.0,0.0,0.0,0.0,0.0,28.0,3.0,3.0,2.0,2.0,2.0,1.0,0.0,0.0,0.0
CPT000000098139_IMBRO_A,249484.0,590687.0,0,0.0,0.0,0.0,0.0,0.0,30.0,3.0,3.0,1.0,0.0,0.0,0.0,0.0,0.0,0.0
CPT000000098140_IMBRO_A,245202.0,588081.0,0,0.0,52.0,0.0,0.0,0.0,52.0,52.0,52.0,52.0,52.0,52.0,52.0,52.0,52.0,52.0
CPT000000098141_IMBRO_A,248536.0,590123.0,0,0.0,0.0,0.0,0.0,0.0,37.0,4.0,3.0,3.0,2.0,2.0,2.0,2.0,1.0,0.0
CPT000000098142_IMBRO_A,245294.0,588129.0,0,0.0,49.0,49.0,0.0,0.0,49.0,49.0,49.0,49.0,49.0,49.0,49.0,49.0,49.0,49.0
CPT000000098143_IMBRO_A,249400.0,590634.0,0,0.0,1.0,0.0,0.0,0.0,44.0,3.0,3.0,3.0,3.0,3.0,2.0,1.0,0.0,0.0
CPT000000098144_IMBRO_A,248622.0,590179.0,0,0.0,0.0,0.0,0.0,0.0,33.0,5.0,4.0,4.0,4.0,4.0,3.0,0.0,0.0,0.0
CPT000000098145_IMBRO_A,247179.0,589282.0,0.0,2.836583296337751,11.0,0.0,0.0,0.0,98.0,60.0,49.0,45.0,34.0,27.0,26.0,23.0,19.0,19.0
CPT000000098146_IMBRO_A,248365.0,590017.0,0,0.0,0.0,0.0,0.0,0.0,26.0,3.0,2.0,2.0,2.0,2.0,1.0,1.0,1.0,1.0
CPT000000098147_IMBRO_A,247435.0,589440.0,1.8449557302100645,15.817025454774846,61.0,31.0,12.0,3.0,100.0,92.0,89.0,89.0,89.0,88.0,88.0,84.0,74.0,67.0
CPT000000098148_IMBRO_A,248452.0,590070.0,0,0.0,0.0,0.0,0.0,0.0,32.0,4.0,4.0,4.0,3.0,3.0,2.0,1.0,1.0,1.0
CPT000000098149_IMBRO_A,247009.0,589176.0,0.0,3.1412578692287987,16.0,4.0,1.0,0.0,96.0,52.0,47.0,42.0,40.0,38.0,33.0,30.0,27.0,25.0
CPT000000098150_IMBRO_A,250001.0,590995.0,0,0.0,0.0,0.0,0.0,0.0,28.0,2.0,2.0,1.0,1.0,1.0,1.0,0.0,0.0,0.0
CPT000000098151_IMBRO_A,247525.0,589495.0,3.4245637722008375,9.23346923590955,72.0,45.0,13.0,2.0,100.0,96.0,92.0,89.0,87.0,85.0,83.0,78.0,76.0,52.0
CPT000000098152_IMBRO_A,250087.0,591046.0,0,0.0,0.0,0.0,0.0,0.0,26.0,3.0,3.0,2.0,2.0,2.0,1.0,0.0,0.0,0.0
CPT000000098153_IMBRO_A,249054.0,590427.0,0,0.0,0.0,0.0,0.0,0.0,32.0,0.0,0.0,0.0,0.0,0.0,0.0,0.0,0.0,0.0
CPT000000098154_IMBRO_A,247094.0,589229.0,0.0,4.959668785623056,32.0,8.0,0.0,0.0,99.0,69.0,66.0,63.0,57.0,49.0,45.0,43.0,41.0,40.0
CPT000000098155_IMBRO_A,247941.0,589754.0,2.2073905424101596,3.1573973128552675,81.0,18.0,11.0,8.0,100.0,95.0,93.0,67.0,35.0,34.0,34.0,34.0,34.0,34.0
CPT000000098156_IMBRO_A,247263.0,589335.0,0.0,2.7841254814065075,15.0,1.0,1.0,0.0,95.0,69.0,66.0,57.0,37.0,25.0,21.0,16.0,15.0,11.0
CPT000000098157_IMBRO_A,248029.0,589810.0,0.9310673006450861,3.535533002808585,53.0,13.0,4.0,0.0,99.0,93.0,77.0,65.0,49.0,32.0,32.0,30.0,30.0,28.0
CPT000000098158_IMBRO_A,247775.0,589650.0,2.51329733802182,6.324364952665283,73.0,17.0,10.0,3.0,99.0,93.0,88.0,86.0,83.0,74.0,58.0,45.0,36.0,31.0
CPT000000098159_IMBRO_A,246757.0,589016.0,0.0,7.182129338301664,33.0,9.0,4.0,0.0,99.0,76.0,73.0,70.0,68.0,67.0,66.0,62.0,57.0,50.0
CPT000000098160_IMBRO_A,246843.0,589070.0,0.0,3.0595865519963574,6.0,3.0,0.0,0.0,89.0,46.0,41.0,38.0,34.0,33.0,29.0,24.0,22.0,19.0
CPT000000098161_IMBRO_A,246926.0,589122.0,0.0,3.732593577207606,12.0,6.0,3.0,1.0,95.0,61.0,55.0,51.0,48.0,45.0,41.0,41.0,37.0,37.0
CPT000000098162_IMBRO_A,246669.0,588960.0,0.0,7.941592549433454,27.0,10.0,6.0,4.0,99.0,83.0,77.0,70.0,68.0,65.0,62.0,59.0,56.0,53.0
CPT000000098163_IMBRO_A,247689.0,589597.0,4.373262054444727,7.723398379334433,86.0,47.0,8.0,4.0,100.0,97.0,97.0,94.0,92.0,81.0,77.0,70.0,42.0,30.0
CPT000000098164_IMBRO_A,247349.0,589387.0,0.0,2.899178160323142,24.0,8.0,0.0,0.0,93.0,64.0,60.0,55.0,52.0,48.0,45.0,43.0,40.0,37.0
CPT000000098165_IMBRO_A,247608.0,589546.0,2.079836273058488,7.469934378656534,60.0,17.0,2.0,1.0,100.0,84.0,82.0,81.0,76.0,73.0,70.0,59.0,33.0,26.0
CPT000000098166_IMBRO_A,246416.0,588804.0,0,0.32000544717026885,6.0,4.0,0.0,0.0,87.0,42.0,34.0,29.0,26.0,25.0,25.0,24.0,24.0,23.0
CPT000000098168_IMBRO_A,246587.0,588908.0,0.0,8.016104140830906,24.0,7.0,3.0,2.0,99.0,76.0,70.0,65.0,55.0,53.0,50.0,47.0,45.0,44.0
CPT000000098170_IMBRO_A,248113.0,589862.0,2.053878514791155,2.8985210104587313,74.0,14.0,8.0,1.0,100.0,98.0,90.0,45.0,33.0,29.0,28.0,24.0,23.0,22.0
CPT000000098172_IMBRO_A,247859.0,589703.0,2.351417674980878,5.492530990406808,74.0,17.0,3.0,1.0,100.0,96.0,91.0,87.0,64.0,51.0,37.0,29.0,26.0,25.0
CPT000000098173_IMBRO_A,246502.0,588856.0,0.0,3.611673114378474,14.0,9.0,3.0,0.0,93.0,64.0,55.0,51.0,49.0,48.0,44.0,42.0,40.0,38.0
CPT000000098174_IMBRO_A,240429.0,585032.0,0.0,1.1166760316634057,5.0,0.0,0.0,0.0,94.0,53.0,47.0,32.0,10.0,8.0,4.0,0.0,0.0,0.0
CPT000000098175_IMBRO_A,246852.26,589066.02,0,0.5096042467617709,3.0,3.0,0.0,0.0,81.0,43.0,39.0,36.0,34.0,33.0,30.0,27.0,23.0,23.0
CPT000000098176_IMBRO_A,246932.19,589114.32,0,0.9655518296156809,2.0,2.0,0.0,0.0,88.0,53.0,46.0,41.0,40.0,35.0,34.0,31.0,29.0,29.0
CPT000000098177_IMBRO_A,246805.11,589046.52,0,1.322803591191921,17.0,9.0,4.0,3.0,93.0,62.0,60.0,59.0,55.0,51.0,49.0,43.0,39.0,39.0
CPT000000098178_IMBRO_A,246767.3,589012.97,0.0,5.31929184250702,6.0,4.0,2.0,1.0,98.0,59.0,53.0,51.0,48.0,46.0,44.0,44.0,43.0,43.0
CPT000000098194_IMBRO_A,246888.13,589098.22,0.0,2.0463798018544357,9.0,4.0,2.0,0.0,89.0,59.0,55.0,53.0,49.0,46.0,45.0,40.0,37.0,36.0
CPT000000098195_IMBRO_A,252899.0,592145.0,0,0.0,0.0,0.0,0.0,0.0,41.0,6.0,6.0,5.0,0.0,0.0,0.0,0.0,0.0,0.0
CPT000000098196_IMBRO_A,252846.0,592144.0,0,0.0,0.0,0.0,0.0,0.0,28.0,0.0,0.0,0.0,0.0,0.0,0.0,0.0,0.0,0.0
CPT000000098199_IMBRO_A,246032.0,588550.0,0,0.0,0.0,0.0,0.0,0.0,42.0,5.0,5.0,3.0,3.0,2.0,1.0,1.0,1.0,0.0
CPT000000098200_IMBRO_A,246065.0,588595.0,0,0.0,0.0,0.0,0.0,0.0,21.0,2.0,1.0,1.0,1.0,1.0,1.0,1.0,1.0,1.0
CPT000000098201_IMBRO_A,245980.0,588541.0,0,0.0,1.0,0.0,0.0,0.0,43.0,9.0,6.0,5.0,5.0,5.0,3.0,3.0,3.0,3.0
CPT000000098204_IMBRO_A,252938.0,592175.0,0,0.0,1.0,0.0,0.0,0.0,32.0,6.0,5.0,5.0,0.0,0.0,0.0,0.0,0.0,0.0
CPT000000098207_IMBRO_A,252787.0,592113.0,0,0.0,0.0,0.0,0.0,0.0,6.0,0.0,0.0,0.0,0.0,0.0,0.0,0.0,0.0,0.0
CPT000000098209_IMBRO_A,246202.0,588656.0,0,0.0,0.0,0.0,0.0,0.0,39.0,5.0,4.0,4.0,4.0,4.0,2.0,2.0,2.0,1.0
CPT000000098210_IMBRO_A,246234.0,588700.0,0,0.0,0.0,0.0,0.0,0.0,13.0,1.0,0.0,0.0,0.0,0.0,0.0,0.0,0.0,0.0
CPT000000098211_IMBRO_A,246287.0,588709.0,0,0.0,0.0,0.0,0.0,0.0,39.0,5.0,5.0,3.0,3.0,1.0,1.0,1.0,1.0,0.0
CPT000000098212_IMBRO_A,246313.0,588757.0,0,0.0,1.0,0.0,0.0,0.0,43.0,7.0,7.0,5.0,3.0,3.0,3.0,3.0,3.0,3.0
CPT000000098214_IMBRO_A,246117.0,588604.0,0,0.0,0.0,0.0,0.0,0.0,26.0,3.0,2.0,2.0,2.0,1.0,1.0,1.0,1.0,1.0
CPT000000098215_IMBRO_A,246149.0,588646.0,0,0.0,0.0,0.0,0.0,0.0,17.0,3.0,2.0,0.0,0.0,0.0,0.0,0.0,0.0,0.0
CPT000000101001_IMBRO,252085.0,592881.0,0,0.0,56.0,0.0,0.0,0.0,57.0,56.0,56.0,56.0,56.0,0.0,0.0,0.0,0.0,0.0
CPT000000101002_IMBRO,252089.4,592804.0,0,0.0,52.0,48.0,0.0,0.0,53.0,53.0,53.0,53.0,53.0,53.0,53.0,53.0,51.0,47.0
CPT000000110515_IMBRO,241876.0,589325.0,0,0.0,0.0,0.0,0.0,0.0,33.0,3.0,2.0,1.0,1.0,1.0,1.0,1.0,1.0,1.0
CPT000000110516_IMBRO,242926.0,589515.0,0.0,1.1675690263443899,10.0,3.0,0.0,0.0,89.0,45.0,26.0,16.0,11.0,9.0,9.0,9.0,9.0,9.0
CPT000000110517_IMBRO,241852.0,589299.0,0,0.0,15.0,11.0,6.0,3.0,41.0,34.0,28.0,28.0,27.0,26.0,26.0,26.0,26.0,25.0
CPT000000110518_IMBRO,241826.0,589274.0,0.908813436707825,0.5033864002025067,47.0,42.0,37.0,30.0,100.0,53.0,52.0,50.0,50.0,50.0,50.0,50.0,50.0,50.0
CPT000000110519_IMBRO,241802.0,589318.0,0,0.0,37.0,36.0,29.0,28.0,41.0,40.0,40.0,40.0,40.0,40.0,40.0,40.0,40.0,40.0
CPT000000110520_IMBRO,242901.0,589459.0,0.13079087789193633,1.6677368527651824,11.0,1.0,1.0,0.0,99.0,76.0,37.0,29.0,18.0,16.0,15.0,12.0,9.0,9.0
CPT000000110521_IMBRO,243008.0,589438.0,0.2814045652515291,1.9451098007467478,24.0,9.0,3.0,1.0,99.0,80.0,40.0,27.0,24.0,21.0,21.0,20.0,18.0,18.0
CPT000000110522_IMBRO,241778.0,589292.0,0,0.0,44.0,44.0,40.0,36.0,46.0,46.0,46.0,46.0,46.0,46.0,46.0,46.0,46.0,46.0
CPT000000110523_IMBRO,242887.0,589471.0,0.08421696911487508,3.1699196057867107,27.0,3.0,0.0,0.0,98.0,67.0,62.0,55.0,40.0,21.0,18.0,17.0,16.0,15.0
CPT000000110524_IMBRO,241789.0,589303.0,0,0.0,49.0,48.0,48.0,43.0,53.0,52.0,51.0,51.0,51.0,51.0,51.0,51.0,51.0,51.0
CPT000000110525_IMBRO,241841.0,589288.0,0,0.0,32.0,27.0,23.0,14.0,47.0,43.0,40.0,40.0,40.0,39.0,39.0,39.0,39.0,39.0
CPT000000110526_IMBRO,242971.0,589396.0,0.0,0.761867115431539,12.0,9.0,6.0,3.0,84.0,40.0,30.0,27.0,24.0,22.0,20.0,20.0,20.0,20.0
CPT000000110527_IMBRO,242994.0,589452.0,0.0,1.4670560663707197,7.0,3.0,1.0,0.0,92.0,57.0,26.0,23.0,20.0,17.0,17.0,16.0,16.0,16.0
CPT000000110528_IMBRO,241816.0,589262.0,0,0.0,40.0,39.0,32.0,26.0,47.0,45.0,45.0,45.0,45.0,44.0,44.0,44.0,44.0,44.0
CPT000000110529_IMBRO,242954.0,589409.0,0,0.0,7.0,4.0,1.0,0.0,31.0,26.0,24.0,24.0,22.0,22.0,21.0,20.0,18.0,17.0
CPT000000110530_IMBRO,241838.0,589354.0,0,0.0,25.0,19.0,14.0,6.0,39.0,34.0,34.0,34.0,34.0,34.0,34.0,34.0,34.0,34.0
CPT000000110531_IMBRO,242956.0,589486.0,0,0.03134447114614983,7.0,6.0,0.0,0.0,62.0,27.0,26.0,25.0,24.0,22.0,21.0,21.0,21.0,20.0
CPT000000110532_IMBRO,242972.0,589473.0,0.0,0.6074159097446261,6.0,1.0,0.0,0.0,88.0,30.0,24.0,23.0,22.0,21.0,21.0,21.0,19.0,18.0
CPT000000110533_IMBRO,242942.0,589500.0,0.0,0.16615218811863675,7.0,1.0,0.0,0.0,78.0,22.0,19.0,19.0,18.0,17.0,16.0,16.0,15.0,15.0
CPT000000110534_IMBRO,241866.0,589314.0,0,0.0,0.0,0.0,0.0,0.0,37.0,5.0,5.0,4.0,3.0,3.0,2.0,2.0,2.0,2.0
CPT000000110535_IMBRO,241828.0,589343.0,0,0.0,34.0,26.0,19.0,9.0,47.0,42.0,40.0,40.0,40.0,40.0,39.0,38.0,38.0,38.0
CPT000000110536_IMBRO,241813.0,589328.0,0,0.0,36.0,36.0,36.0,30.0,45.0,44.0,43.0,43.0,43.0,43.0,43.0,43.0,43.0,43.0
CPT000000110537_IMBRO,242930.0,589431.0,0,0.0054076680855202185,4.0,3.0,1.0,1.0,56.0,16.0,14.0,11.0,10.0,10.0,10.0,9.0,9.0,9.0
CPT000000110538_IMBRO,242915.0,589445.0,0.4577189422327533,0.5854570138076337,17.0,8.0,0.0,0.0,100.0,26.0,24.0,22.0,22.0,22.0,22.0,21.0,19.0,19.0
CPT000000154588_IMBRO,244536.6,585351.9,0,0.0,51.0,51.0,51.0,51.0,51.0,51.0,51.0,51.0,51.0,51.0,51.0,51.0,51.0,51.0
CPT000000154589_IMBRO,243661.9,585095.3,0,0.0,48.0,48.0,48.0,48.0,48.0,48.0,48.0,48.0,48.0,48.0,48.0,48.0,48.0,48.0
CPT000000154590_IMBRO,245644.7,585717.2,0,0.0,1.0,1.0,0.0,0.0,22.0,5.0,3.0,3.0,3.0,3.0,3.0,3.0,3.0,3.0
CPT000000154591_IMBRO,245157.9,587785.4,2.9875038271672705,1.018250900597683,90.0,50.0,50.0,0.0,98.0,64.0,50.0,50.0,50.0,50.0,50.0,50.0,0.0,0.0
CPT000000154592_IMBRO,245170.7,586523.8,0,0.0,49.0,49.0,49.0,49.0,49.0,49.0,49.0,49.0,49.0,49.0,49.0,49.0,49.0,49.0
CPT000000154593_IMBRO,245267.3,586023.9,0,0.0,56.0,56.0,56.0,56.0,56.0,56.0,56.0,56.0,56.0,56.0,56.0,56.0,56.0,56.0
CPT000000154594_IMBRO,245664.6,587498.7,0,0.0,0.0,0.0,0.0,0.0,40.0,6.0,5.0,4.0,2.0,2.0,2.0,1.0,0.0,0.0
CPT000000154595_IMBRO,245441.8,586960.9,0,0.0,0.0,0.0,0.0,0.0,24.0,3.0,0.0,0.0,0.0,0.0,0.0,0.0,0.0,0.0
CPT000000154596_IMBRO,244823.0,585814.4,0,0.0,2.0,0.0,0.0,0.0,32.0,7.0,5.0,4.0,4.0,4.0,4.0,3.0,3.0,3.0
CPT000000154597_IMBRO,244107.5,584872.0,0,0.0,50.0,50.0,50.0,50.0,50.0,50.0,50.0,50.0,50.0,50.0,50.0,50.0,50.0,50.0
CPT000000154598_IMBRO,250186.5,589970.0,0,0.0,0.0,0.0,0.0,0.0,37.0,3.0,3.0,3.0,2.0,2.0,2.0,1.0,1.0,1.0
CPT000000154599_IMBRO,243228.7,585524.4,0,0.0,0.0,0.0,0.0,0.0,21.0,1.0,1.0,0.0,0.0,0.0,0.0,0.0,0.0,0.0
CPT000000154600_IMBRO,246366.4,584962.8,0,0.0,1.0,0.0,0.0,0.0,16.0,4.0,4.0,4.0,3.0,2.0,2.0,2.0,2.0,2.0
CPT000000154601_IMBRO,245902.8,585251.4,0,0.0,0.0,0.0,0.0,0.0,28.0,3.0,3.0,3.0,2.0,2.0,2.0,1.0,1.0,0.0
CPT000000154602_IMBRO,249961.8,590618.9,0,0.0,0.0,0.0,0.0,0.0,33.0,3.0,1.0,0.0,0.0,0.0,0.0,0.0,0.0,0.0
CPT000000154603_IMBRO,242884.3,585967.7,0,0.0,0.0,0.0,0.0,0.0,32.0,2.0,2.0,2.0,1.0,0.0,0.0,0.0,0.0,0.0
CPT000000157947_IMBRO,252342.201,587582.098,2.2924338550867507,4.2184794752820185,71.0,18.0,0.0,0.0,100.0,88.0,88.0,79.0,65.0,27.0,15.0,11.0,11.0,11.0
CPT000000157948_IMBRO,252604.005,587196.503,0.3696348901879232,0.5551127366975038,9.0,0.0,0.0,0.0,100.0,25.0,21.0,19.0,18.0,17.0,15.0,15.0,14.0,14.0
CPT000000157949_IMBRO,252441.677,587809.648,2.3457405154671047,19.53313853410834,65.0,44.0,16.0,3.0,100.0,94.0,94.0,93.0,87.0,86.0,82.0,80.0,80.0,76.0
CPT000000157950_IMBRO,252271.27,587695.048,3.6857963631218196,6.9570407471017575,70.0,46.0,19.0,6.0,100.0,93.0,87.0,84.0,79.0,71.0,70.0,60.0,47.0,38.0
CPT000000164101_IMBRO,243640.0,592102.3,0.0,8.557290142924884,45.0,19.0,7.0,1.0,97.0,77.0,74.0,71.0,70.0,66.0,64.0,62.0,58.0,56.0
CPT000000164102_IMBRO,242436.6,591155.8,0.0,2.866706327575294,8.0,5.0,0.0,0.0,95.0,56.0,52.0,45.0,44.0,42.0,42.0,42.0,41.0,40.0
CPT000000164103_IMBRO,242426.8,591165.2,0.0,2.97962453038037,15.0,5.0,0.0,0.0,94.0,61.0,55.0,51.0,46.0,46.0,46.0,45.0,43.0,39.0
CPT000000164776_IMBRO,252887.44,591505.55,0,0.0,40.0,23.0,0.0,0.0,51.0,47.0,45.0,45.0,45.0,45.0,42.0,0.0,0.0,0.0
CPT000000164777_IMBRO,252783.99,591620.78,0,0.0,0.0,0.0,0.0,0.0,34.0,1.0,0.0,0.0,0.0,0.0,0.0,0.0,0.0,0.0
