CPT ID,X,Y,PGA,LPI_50,S_50
CPT000000000599_IMBRO_A,246477.0,575673.0,0.14920530483374297,0.0,0.006972070848014267
CPT000000001102_IMBRO_A,231687.0,590365.0,0.1,0.0,0.0104700053860263
CPT000000001133_IMBRO_A,236234.0,560661.0,0.1,0.0,0.0
CPT000000002912_IMBRO_A,212604.44,585869.25,0.1,0.0,0.0008671876991006
CPT000000002913_IMBRO_A,212452.6,585703.69,0.1,0.0,0.0128534045698491
CPT000000003339_IMBRO_A,258642.69,577033.32,0.12113089862603177,0.0,0.00935661013303915
CPT000000004167_IMBRO_A,205568.0,585804.21,0.1,0.0,0.0
CPT000000004168_IMBRO_A,205569.0,585795.69,0.1,0.0,0.0
CPT000000004169_IMBRO_A,205606.0,585803.78,0.1,0.0,0.0
CPT000000004172_IMBRO_A,205606.0,585795.52,0.1,0.0,0.0
CPT000000004649_IMBRO_A,253504.0,576002.0,0.15236478415641969,0.0,0.0
CPT000000004650_IMBRO_A,253499.0,576040.0,0.1529761604943228,0.0,0.0
CPT000000004651_IMBRO_A,265865.0,574662.0,0.1,0.0,0.0
CPT000000006917_IMBRO_A,201325.0,585283.0,0.1,0.0,0.0003670206426619
CPT000000006918_IMBRO_A,201968.0,585386.0,0.1,0.0,0.0005562010607612
CPT000000006919_IMBRO_A,203237.0,585565.0,0.1,0.0,0.0010192325166861
CPT000000006922_IMBRO_A,199199.0,584967.0,0.1,0.0,0.0008863297494685
CPT000000006988_IMBRO_A,246459.71,575732.79,0.15022121465738117,0.0,0.010195579471173484
CPT000000006989_IMBRO_A,246463.51,575771.33,0.15088706741957905,0.0,0.004529716599300717
CPT000000006990_IMBRO_A,246456.07,575744.49,0.1504053412158988,0.0,0.041419490591331896
CPT000000006991_IMBRO_A,246462.61,575685.73,0.14943110048482855,0.0,0.008693132304245418
CPT000000006992_IMBRO_A,246473.76,575694.54,0.14958650375470942,0.0,0.014898663423564924
CPT000000006993_IMBRO_A,246468.08,575734.6,0.15027525218485138,0.0,0.033682018508032166
CPT000000006994_IMBRO_A,233227.91,584174.17,0.1,0.0,0.0145554469034724
CPT000000006995_IMBRO_A,233232.67,584145.79,0.1,0.0,0.0062553638651476
CPT000000006996_IMBRO_A,233290.02,583778.42,0.1,0.0,0.0
CPT000000008518_IMBRO_A,234848.0,591431.0,0.3,2.254806073331588,12.837164663246122
CPT000000008519_IMBRO_A,234848.0,591410.0,0.3,1.1069544608312492,4.6941816808441965
CPT000000008609_IMBRO_A,265780.0,574139.0,0.1,0.0,0.0
CPT000000012434_IMBRO_A,266121.0,574691.0,0.1,0.0,0.0
CPT000000016390_IMBRO_A,253493.0,576069.0,0.1534546770740131,0.0,0.0
CPT000000016515_IMBRO_A,237568.0,579397.0,0.1294663042863081,0.045238478943613276,1.0285783801654385
CPT000000018404_IMBRO_A,233066.0,584705.0,0.1,0.0,0.0029765854725339
CPT000000018405_IMBRO_A,233066.0,584676.0,0.1,0.0,0.0576440776047663
CPT000000018406_IMBRO_A,233066.0,584676.0,0.1,0.0,0.0148592903331929
CPT000000018721_IMBRO_A,197754.7,584845.31,0.1,0.0,0.0
CPT000000018759_IMBRO_A,197377.41,584139.54,0.1,0.0,0.0038829327173054
CPT000000019829_IMBRO_A,254247.0,576152.0,0.15002063502949103,0.0,3.579963198420607e-05
CPT000000020166_IMBRO_A,262962.0,575750.0,0.1,0.0,0.0
CPT000000022116_IMBRO_A,237637.0,579352.0,0.12989267839315263,0.0026703574208326547,0.425441155946467
CPT000000023469_IMBRO_A,231776.0,588377.0,0.1,0.0,0.1076002335758946
CPT000000030422_IMBRO_A,260675.0,577446.0,0.1123414849831547,0.0,0.0002635207019143387
CPT000000036238_IMBRO_A,234505.0,559154.0,0.1,0.0,0.0
CPT000000036529_IMBRO_A,244013.58,603818.33,0.1808523944366079,0.0,0.8860363377877168
CPT000000038938_IMBRO_A,248951.0,575781.0,0.15523274190953806,0.0,0.02838492409362335
CPT000000039420_IMBRO_A,234768.0,559102.0,0.1,0.0,0.0
CPT000000039557_IMBRO_A,252102.0,576116.0,0.16112133252096106,0.0,0.003855283564035093
CPT000000041238_IMBRO_A,262118.0,575806.0,0.1,0.0,0.0
CPT000000041239_IMBRO_A,262139.0,575786.0,0.1,0.0,0.0
CPT000000041240_IMBRO_A,262522.0,575333.0,0.1,0.0,0.0
CPT000000041241_IMBRO_A,262702.0,574976.0,0.1,0.0,0.0
CPT000000041242_IMBRO_A,262535.0,575308.0,0.1,0.0,0.0
CPT000000041243_IMBRO_A,262550.0,575281.0,0.1,0.0,0.0
CPT000000041244_IMBRO_A,262590.0,575196.0,0.1,0.0,0.0
CPT000000041245_IMBRO_A,262610.0,575155.0,0.1,0.0,0.0
CPT000000041246_IMBRO_A,262631.0,575114.0,0.1,0.0,0.0
CPT000000041247_IMBRO_A,262653.0,575069.0,0.1,0.0,0.0035344754939891
CPT000000041248_IMBRO_A,262677.0,575023.0,0.1,0.0,0.0
CPT000000041250_IMBRO_A,263487.0,574277.0,0.1,0.0,0.000543299135243
CPT000000041251_IMBRO_A,263491.0,574291.0,0.1,0.0,0.000333461619275
CPT000000041252_IMBRO_A,262571.0,575238.0,0.1,0.0,0.0
CPT000000041818_IMBRO_A,241337.0,577751.0,0.15987541163290697,0.0,0.3020495161403781
CPT000000041951_IMBRO_A,262652.0,576599.0,0.1,0.0,0.002774147107903
CPT000000041952_IMBRO_A,262631.0,576518.0,0.1,0.0,0.0
CPT000000042714_IMBRO_A,265549.0,574005.0,0.1,0.0,0.0
CPT000000042715_IMBRO_A,265559.0,574009.0,0.1,0.0,0.0
CPT000000042879_IMBRO_A,255113.0,576070.0,0.1416612864541451,0.0,0.00032377948185186023
CPT000000042898_IMBRO_A,255858.0,576373.0,0.1386904947733602,0.0,0.006513156990499204
CPT000000044951_IMBRO_A,234670.0,591390.0,0.3,0.8870433669994017,3.5130192236004856
CPT000000044953_IMBRO_A,232360.0,590850.0,0.1,0.0,0.0523238080673242
CPT000000044954_IMBRO_A,231870.0,590420.0,0.1,0.0,0.0119954658978631
CPT000000044955_IMBRO_A,230870.0,590410.0,0.1,0.0,0.005328342017357
CPT000000044956_IMBRO_A,232500.0,589030.0,0.3,5.935809259417473,22.493621568574437
CPT000000044969_IMBRO_A,237560.0,592630.0,0.1,0.0,0.0275446423903429
CPT000000044970_IMBRO_A,236140.0,592630.0,0.1,0.0,0.0156864619152743
CPT000000044976_IMBRO_A,231550.0,599150.0,0.3,2.2278823817206157,9.620699515404166
CPT000000045009_IMBRO_A,232020.0,588100.0,0.1,0.0,0.028793788872455
CPT000000046258_IMBRO_A,266110.0,574558.0,0.1,0.0,0.0
CPT000000046262_IMBRO_A,237529.0,579477.0,0.12976668057293989,0.032215915532431104,0.9262063019816535
CPT000000048252_IMBRO_A,245890.0,603660.0,0.16113650845470942,0.0,0.5973280439057691
CPT000000048274_IMBRO_A,245360.0,604980.0,0.2459888365125629,0.18363557176878348,8.262854658412017
CPT000000048279_IMBRO_A,247470.0,606520.0,0.11524327440937644,0.0,0.04365487404172763
CPT000000048288_IMBRO_A,245700.0,604940.0,0.1,0.0,0.0
CPT000000048304_IMBRO_A,242650.0,603360.0,0.1910820351777486,0.0,0.7174188474512342
CPT000000048305_IMBRO_A,241802.0,603550.0,0.18491570600010984,0.0,1.4158463497317908
CPT000000048307_IMBRO_A,245340.0,604360.0,0.19366571840772245,0.02480516822277467,3.4582402150355254
CPT000000048308_IMBRO_A,243030.0,604300.0,0.1717948788376979,0.0,0.47507102429907777
CPT000000048310_IMBRO_A,241250.0,603940.0,0.1722024936107055,0.0,1.0577718662548805
CPT000000048315_IMBRO_A,246900.0,605520.0,0.13018288437966674,0.0,0.19235501938637758
CPT000000048326_IMBRO_A,247280.0,607300.0,0.11125550656499174,0.0,0.01076048835584372
CPT000000048351_IMBRO_A,231600.0,600450.0,0.1,0.0,0.0
CPT000000048360_IMBRO_A,233700.0,600450.0,0.12842675045810573,0.0,0.015069484667870317
CPT000000048366_IMBRO_A,234370.0,601330.0,0.1,0.0,0.0253584220725727
CPT000000048367_IMBRO_A,239200.0,602380.0,0.1761797000340603,0.0,0.6815350861955287
CPT000000048368_IMBRO_A,234250.0,602250.0,0.1,0.0,0.001163072730503
CPT000000048369_IMBRO_A,239100.0,603400.0,0.1622668097083766,0.0019704889445948774,1.1451081847857605
CPT000000048370_IMBRO_A,237870.0,603120.0,0.1506098555631201,0.0,0.07740482091897934
CPT000000048372_IMBRO_A,235350.0,602550.0,0.14095197746026622,0.0,0.022810909963011442
CPT000000048414_IMBRO_A,230800.0,599500.0,0.1,0.0,0.0093214377006974
CPT000000048471_IMBRO_A,250800.0,594800.0,0.2229783182770515,0.07133891899429697,1.7366730175661056
CPT000000048489_IMBRO_A,240140.0,593310.0,0.3,1.6354471054779225,12.172283175519093
CPT000000048490_IMBRO_A,249850.0,594420.0,0.24447647875631345,0.05569672182515509,0.9484348146767267
CPT000000048493_IMBRO_A,246500.0,594680.0,0.2875678706863917,2.595395933268298,15.631636091078667
CPT000000048494_IMBRO_A,244680.0,594940.0,0.28256818724070915,1.9387063611750466,16.0523656139813
CPT000000048495_IMBRO_A,243900.0,594620.0,0.2716928387178313,0.5465913308348676,6.904738508339376
CPT000000048497_IMBRO_A,247970.0,595060.0,0.27443420323550444,0.0023540483838040273,0.13026839878258611
CPT000000048501_IMBRO_A,246320.0,595400.0,0.2926837162108058,2.111958340842141,19.334387896923197
CPT000000048502_IMBRO_A,245450.0,595520.0,0.2918399733920054,0.4622532159892589,5.165156924042344
CPT000000048503_IMBRO_A,249070.0,594540.0,0.25824221282672133,0.7028418569961985,5.966327486098824
CPT000000048554_IMBRO_A,260683.0,577440.0,0.11226297475666083,0.0,4.036056052768559e-05
CPT000000048556_IMBRO_A,262934.0,575765.0,0.1,0.0,0.0
CPT000000048559_IMBRO_A,253507.0,576056.0,0.1531782317475335,0.0,0.0
CPT000000048560_IMBRO_A,254178.0,576059.0,0.14918137145553725,0.0,0.028533783279682964
CPT000000048561_IMBRO_A,255141.0,576021.0,0.1407759785904809,0.0,0.0004059672144422607
CPT000000048562_IMBRO_A,252099.0,576107.0,0.16098584144940298,0.0,0.01988330155590519
CPT000000048563_IMBRO_A,255854.0,576289.0,0.13771455314318165,0.0,0.1629574737754459
CPT000000048580_IMBRO_A,237566.0,579450.0,0.1299740536876478,0.0,0.39786059075716784
CPT000000048818_IMBRO_A,233108.0,584561.0,0.1,0.0,0.0
CPT000000048819_IMBRO_A,233111.0,584559.0,0.1,0.0,0.0
CPT000000048820_IMBRO_A,233057.0,584709.0,0.1,0.0,0.0027279899733343
CPT000000048821_IMBRO_A,233061.0,584707.0,0.1,0.0,0.0004013254125526
CPT000000049561_IMBRO_A,241453.0,603376.0,0.18555059155761428,0.0,1.1198133923525793
CPT000000052020_IMBRO_A,221974.0,585664.0,0.1,0.0,0.0
CPT000000052026_IMBRO_A,231752.0,588371.0,0.1,0.0,0.0502445816168945
CPT000000052027_IMBRO_A,231714.0,590341.0,0.1,0.0,0.010478160066631
CPT000000052039_IMBRO_A,206456.0,585797.0,0.1,0.0,0.0030906686917435
CPT000000052044_IMBRO_A,199973.0,585095.0,0.1,0.0,0.0006297291755374
CPT000000052073_IMBRO_A,234532.0,559149.0,0.1,0.0,0.0
CPT000000052074_IMBRO_A,235651.0,557513.0,0.1,0.0,0.0
CPT000000052075_IMBRO_A,236258.0,560686.0,0.1,0.0,0.0
CPT000000052103_IMBRO_A,241455.0,603362.0,0.1858413996603041,0.0,0.957421932609002
CPT000000052195_IMBRO_A,266097.0,574674.0,0.1,0.0,0.0
CPT000000052197_IMBRO_A,265772.0,574184.0,0.1,0.0,0.0
CPT000000052198_IMBRO_A,265861.0,574674.0,0.1,0.0,0.0
CPT000000052432_IMBRO_A,235975.27,602126.21,0.12370114811105581,0.0,0.05431838285793814
CPT000000052439_IMBRO_A,230789.81,591175.36,0.1,0.0,0.0032035537581323
CPT000000053076_IMBRO_A,235936.0,579852.0,0.10787214208631982,0.0,0.012870642941833
CPT000000053165_IMBRO_A,265772.0,574701.0,0.1,0.0,0.0
CPT000000053166_IMBRO_A,265738.0,574682.0,0.1,0.0,0.0
CPT000000053394_IMBRO_A,266157.0,574952.0,0.1,0.0,0.0
CPT000000057783_IMBRO_A,255759.32,575927.03,0.13432755835099164,0.0,0.013713567264644403
CPT000000057785_IMBRO_A,253725.87,576060.05,0.1520207597286774,0.0,0.0
CPT000000057786_IMBRO_A,255731.47,576001.44,0.13535070885682818,0.0,0.04420108335719554
CPT000000057788_IMBRO_A,253667.65,576055.0,0.15228186462961768,0.0,0.0
CPT000000057789_IMBRO_A,253661.46,576043.9,0.15214622878868272,0.0,0.0
CPT000000057790_IMBRO_A,255750.66,576004.06,0.13520920642573364,0.0,0.005706980502765309
CPT000000057791_IMBRO_A,255745.71,575923.76,0.13441667730335788,0.0,0.02155796751091616
CPT000000057810_IMBRO_A,253720.15,576052.38,0.15193606689712383,0.0,0.0
CPT000000057817_IMBRO_A,220728.21,585741.13,0.1,0.0,0.0005846713577477
CPT000000057818_IMBRO_A,220628.8,585738.52,0.1,0.0,3.496179209375729e-05
CPT000000057869_IMBRO_A,221125.35,585724.31,0.1,0.0,0.0
CPT000000057874_IMBRO_A,221174.75,585709.22,0.1,0.0,0.0002318155942075
CPT000000057875_IMBRO_A,221083.78,585748.1,0.1,0.0,0.0
CPT000000057876_IMBRO_A,220827.29,585733.09,0.1,0.0,0.0
CPT000000057877_IMBRO_A,220785.75,585738.17,0.1,0.0,0.0
CPT000000057881_IMBRO_A,220685.37,585740.97,0.1,0.0,0.0004790176933768
CPT000000058578_IMBRO_A,237183.0,561215.0,0.1,0.0,0.0
CPT000000058579_IMBRO_A,237161.0,561144.0,0.1,0.0,0.0
CPT000000058580_IMBRO_A,237186.0,561179.0,0.1,0.0,0.0
CPT000000058809_IMBRO_A,249885.0,576081.0,0.16170422848652144,0.0,0.021935094076569975
CPT000000058810_IMBRO_A,249904.0,576068.0,0.1614902569325069,0.0,0.06586773607783249
CPT000000060846_IMBRO_A,255881.0,575930.0,0.13326810239897346,0.0,0.00015995508862700044
CPT000000060847_IMBRO_A,255868.0,576141.0,0.13579856363834067,0.0,0.03783197877373031
CPT000000060848_IMBRO_A,255865.0,576187.0,0.13638091747507242,0.0,0.011860156445361085
CPT000000060849_IMBRO_A,255859.0,576237.0,0.13703997060460452,0.0,0.052008126850299534
CPT000000060850_IMBRO_A,255835.0,576427.0,0.13956330693392863,0.0,0.08044773245567141
CPT000000060957_IMBRO_A,255851.0,576309.0,0.13798437928834428,0.0,0.014642717788130429
CPT000000060958_IMBRO_A,255853.0,576288.0,0.1377119087301454,0.0,0.2080109040196698
CPT000000060959_IMBRO_A,255842.0,576374.0,0.13885527579684528,0.0,0.00247159463974455
CPT000000060960_IMBRO_A,255842.0,576298.0,0.13793651101538373,0.0,0.14336364345740338
CPT000000060961_IMBRO_A,255855.0,576300.0,0.13783790927174822,0.0,0.0748571587794706
CPT000000060962_IMBRO_A,255845.0,576279.0,0.13767857116766988,0.0,0.1388261995207332
CPT000000060963_IMBRO_A,255857.0,576279.0,0.13756557655827614,0.0,0.14239760417591327
CPT000000069405_IMBRO_A,237086.89,579796.6,0.12662909852799673,0.0,0.08952144057110414
CPT000000069406_IMBRO_A,237111.03,579786.46,0.1268854166386288,0.0,0.08216524709222243
CPT000000069407_IMBRO_A,237131.01,579777.94,0.12709571274692666,0.0,0.12192391425982464
CPT000000070587_IMBRO_A,235832.0,591814.0,0.1,0.0,0.0193357146554953
CPT000000070588_IMBRO_A,235850.0,591831.0,0.1,0.0,0.0002771172621197
CPT000000071029_IMBRO_A,237151.93,579769.1,0.12731600107954177,0.0,0.09125618853040737
CPT000000071030_IMBRO_A,236922.99,579864.73,0.12475559853489751,0.0,0.03403408375041517
CPT000000071031_IMBRO_A,237178.69,579758.49,0.12760336414944717,0.0,0.04694144519591387
CPT000000071033_IMBRO_A,236949.96,579853.85,0.12511444768072932,0.0,0.1492743061740925
CPT000000071037_IMBRO_A,236969.66,579846.19,0.12537495851840813,0.0,0.18634053434179432
CPT000000071038_IMBRO_A,237016.47,579826.79,0.12588189593291157,0.0,0.09647483781180878
CPT000000071039_IMBRO_A,237042.81,579814.94,0.1261571780170558,0.0,0.1010366379115762
CPT000000071040_IMBRO_A,237063.35,579806.35,0.12637703651889567,0.0,0.0319808404872874
CPT000000071041_IMBRO_A,236853.37,579892.13,0.12381775725950261,0.0,0.07486975469214965
CPT000000071042_IMBRO_A,236874.09,579884.3,0.12410054418105157,0.0,0.11260530368279689
CPT000000071043_IMBRO_A,237205.29,579752.05,0.12792673852864356,0.0,0.02823491994708399
CPT000000071087_IMBRO_A,236828.26,579902.42,0.12348116245069084,0.0,0.13998075801718682
CPT000000071088_IMBRO_A,236899.1,579874.28,0.1244359610772679,0.0,0.0508769580387101
CPT000000073787_IMBRO_A,253893.0,576056.0,0.15098593635980387,0.0002416770887809154,0.1706353529892105
CPT000000073788_IMBRO_A,253892.0,576099.0,0.15165331506136703,0.07444725725015533,1.6080243300134838
CPT000000073789_IMBRO_A,253992.0,576112.0,0.15127153670338805,0.04316092471449354,1.0272678832887259
CPT000000073790_IMBRO_A,254093.0,576126.0,0.15089938287126536,0.0,0.014695730081635175
CPT000000073791_IMBRO_A,254192.0,576138.0,0.1502660378957475,0.0,0.0005642466971454126
CPT000000073792_IMBRO_A,254227.0,576094.0,0.1493119703512074,0.0,5.686497286868977e-05
CPT000000073793_IMBRO_A,254391.0,576164.0,0.14899876797572614,0.0,0.001117919756709184
CPT000000073794_IMBRO_A,254490.0,576177.0,0.1483605328315542,0.0,0.0007535323444330356
CPT000000073795_IMBRO_A,254587.0,576190.0,0.1477332847794545,0.0,0.00018082041064862767
CPT000000073797_IMBRO_A,254642.0,576144.0,0.14661998413840582,0.0,0.0
CPT000000073798_IMBRO_A,254687.0,576202.0,0.14706096311757094,0.0,0.0
CPT000000073799_IMBRO_A,254745.0,576167.0,0.14608465587307679,0.0,0.0
CPT000000073801_IMBRO_A,254883.0,576235.0,0.14585639302985226,0.0,0.0
CPT000000073802_IMBRO_A,254943.0,576192.0,0.14476669494875055,0.0,0.0
CPT000000073804_IMBRO_A,254983.0,576248.0,0.14516788489607815,0.0,0.02486738672768034
CPT000000073805_IMBRO_A,255082.0,576262.0,0.1444692506892228,0.0,0.018629787896880957
CPT000000073806_IMBRO_A,255171.0,576214.0,0.14304457966411868,0.0,0.0022183151700230705
CPT000000073807_IMBRO_A,255189.0,576268.0,0.14358982103745102,0.0,4.126375322101121e-06
CPT000000073808_IMBRO_A,253291.0,576015.0,0.153731740937337,0.0,0.0
CPT000000073809_IMBRO_A,253393.0,576029.0,0.15338784695718588,0.0,0.0
CPT000000073810_IMBRO_A,253751.0,576043.0,0.15161226344853945,0.0,0.0004978667119110168
CPT000000073811_IMBRO_A,253754.0,576078.0,0.15213318624070032,0.0,0.022654843984448357
CPT000000073812_IMBRO_A,253088.0,575989.0,0.1543659756713574,0.0,0.0
CPT000000073813_IMBRO_A,253187.0,576001.0,0.15407242659274958,0.0,0.0
CPT000000073843_IMBRO_A,241392.0,577708.0,0.15981607212158128,0.0,0.11382934729183022
CPT000000073844_IMBRO_A,242526.0,577331.0,0.1637616109370732,0.0,0.1488520159753233
CPT000000073845_IMBRO_A,242719.0,577268.0,0.1648822332502241,0.0,0.8139795837173293
CPT000000073847_IMBRO_A,242913.0,577210.0,0.1658623990239267,0.0,0.6898630671380972
CPT000000073851_IMBRO_A,243007.0,577198.0,0.16585496632096447,0.0,0.4066742846182854
CPT000000073853_IMBRO_A,243102.0,577203.0,0.16596981606833475,0.0010471939064493033,0.5007337271330269
CPT000000073854_IMBRO_A,243195.0,577217.0,0.16619913276149464,0.0,0.6434757509000462
CPT000000073855_IMBRO_A,241577.0,577646.0,0.16089253773860346,0.0,0.11617916373381895
CPT000000073856_IMBRO_A,242339.0,577392.0,0.16347674918859978,0.0,0.13087433956795094
CPT000000073857_IMBRO_A,243250.0,577229.0,0.1663599299774726,0.0,0.7013988067780934
CPT000000073858_IMBRO_A,241769.0,577583.0,0.16199094368783856,0.0,0.13233429888314163
CPT000000073859_IMBRO_A,241960.0,577522.0,0.16307138414305344,0.0,0.41285291176674577
CPT000000073860_IMBRO_A,242150.0,577458.0,0.1633395622914856,0.0,0.16678553937997986
CPT000000073862_IMBRO_A,252534.0,575970.0,0.156755885583534,0.0,0.0026308226047688137
CPT000000073863_IMBRO_A,252723.0,575952.0,0.15558447519582447,0.0,0.0004902708172027662
CPT000000073864_IMBRO_A,252885.0,575962.0,0.1549542765608664,0.0,0.0
CPT000000073865_IMBRO_A,252992.0,575977.0,0.15465626217027,0.0,0.0
CPT000000073866_IMBRO_A,239713.0,578187.0,0.1448420752229339,0.0,0.09726790366627758
CPT000000073867_IMBRO_A,239963.0,578173.0,0.147691397994538,0.0,0.05249598988191342
CPT000000073868_IMBRO_A,240154.0,578118.0,0.14909986032911543,0.0,0.06536377006671798
CPT000000073869_IMBRO_A,240344.0,578053.0,0.1503855291065041,0.0,0.041527716570483195
CPT000000073870_IMBRO_A,240535.0,577990.0,0.152189318538506,0.0,0.058244705745107955
CPT000000073871_IMBRO_A,240724.0,577929.0,0.1541934928995076,0.0,0.04726646669346732
CPT000000073872_IMBRO_A,240914.0,577867.0,0.1559322526668212,0.0,0.05259719415725783
CPT000000073873_IMBRO_A,241109.0,577803.0,0.1576630619156434,0.0001819108539901305,0.27240630190071263
CPT000000073874_IMBRO_A,241236.0,577758.0,0.15873106829230096,0.0,0.060854755695702076
CPT000000074565_IMBRO_A,255901.0,575747.0,0.13129805247175255,0.0,0.003406265413508603
CPT000000074650_IMBRO_A,255894.0,575971.0,0.13355338394292576,0.0,0.018667262477689232
CPT000000074651_IMBRO_A,255843.0,576309.0,0.13806003336847378,0.0,0.00055652004109021
CPT000000074652_IMBRO_A,255835.0,576365.0,0.1388132017806221,0.0,0.003244357851448821
CPT000000074659_IMBRO_A,255773.0,576541.0,0.14132232930823463,0.0,0.03288670310552452
CPT000000074660_IMBRO_A,255830.0,576490.0,0.14024944751821936,0.0,0.002739378874478948
CPT000000079294_IMBRO_A,236354.0,579117.0,0.10928248967043337,0.0,0.01988095728649505
CPT000000079295_IMBRO_A,236418.0,579134.0,0.11040607755237183,0.0,0.01252730372175009
CPT000000079296_IMBRO_A,236479.0,579151.0,0.1114895988336916,0.0,0.027734057027655665
CPT000000079297_IMBRO_A,236644.0,579214.0,0.11459991101038783,0.0,0.05526608384454882
CPT000000079298_IMBRO_A,236600.0,579198.0,0.11377448769755746,0.0,0.04100404453396611
CPT000000079299_IMBRO_A,236541.0,579175.0,0.11265558382231011,0.0,0.04039046294497147
CPT000000083296_IMBRO_A,255725.0,575938.0,0.1347443882643795,0.0,0.002583235838067433
CPT000000083297_IMBRO_A,255778.0,575651.0,0.1314162614900312,0.0,0.0
CPT000000083298_IMBRO_A,255770.0,575650.0,0.1314751082120551,0.0,0.002220597879432117
CPT000000087661_IMBRO,255659.7,576212.8,0.13860679450582708,0.0,0.00031392065418473685
CPT000000087662_IMBRO,255376.8,576289.5,0.14218098324210257,0.0,0.0
CPT000000087663_IMBRO,255672.2,576182.3,0.13811449640993637,0.0,0.01075914543740723
CPT000000087664_IMBRO,255454.9,576299.9,0.14160957981732,0.0,0.0
CPT000000087665_IMBRO,255336.8,576285.0,0.14248318696614953,0.0,0.0002232689548219852
CPT000000087666_IMBRO,255690.9,576088.4,0.13678652451225246,0.0,0.02274501740283446
CPT000000087667_IMBRO,255412.1,576294.0,0.14192050375653542,0.0,0.0
CPT000000089898_IMBRO,231880.7,589813.0,0.1,0.0,0.0029827217726585
CPT000000089899_IMBRO,231875.9,589863.9,0.1,0.0,0.0006584778073016
CPT000000091446_IMBRO,236820.18,578277.18,0.10812222368644181,0.0,0.02641009744450912
CPT000000091447_IMBRO,236832.18,578254.05,0.10795571270638496,0.0,0.020188564836093822
CPT000000091448_IMBRO,236851.32,578184.32,0.10722631788366327,0.0,0.009058553972925595
CPT000000091449_IMBRO,236803.65,578116.17,0.10568536045688484,0.0,0.006015125657993864
CPT000000091450_IMBRO,236638.98,578004.83,0.10239896949726414,0.0,0.0019390939898948454
CPT000000091451_IMBRO,236845.14,578144.47,0.10659198942520681,0.0,0.0049867672374395485
CPT000000091452_IMBRO,236839.68,578210.0,0.10743788377850991,0.0,0.004531935514420406
CPT000000091453_IMBRO,236844.6,577806.4,0.10408493160757823,0.0,0.004792568202033119
CPT000000091454_IMBRO,236772.88,577824.24,0.10329316464911,0.0,0.00884211520294518
CPT000000091455_IMBRO,236735.84,577717.0,0.10226679389599325,0.0,0.001009729539864994
CPT000000091456_IMBRO,236750.06,577685.57,0.10220185763567911,0.0,0.0027173736591489285
CPT000000091457_IMBRO,236800.52,577682.16,0.1027731669859052,0.0,0.0003714921993661259
CPT000000091458_IMBRO,236790.64,577794.63,0.1033900778250967,0.0,0.003652209266748542
CPT000000091459_IMBRO,236830.4,577837.82,0.1040376825405481,0.0,0.009333258986485897
CPT000000091460_IMBRO,236610.81,578043.17,0.10235488544871829,0.0,0.010999229513391193
CPT000000092761_IMBRO,233216.9,584150.3,0.1,0.0,0.0260343217636286
CPT000000092762_IMBRO,233209.0,584177.2,0.1,0.0,0.0142398532463119
CPT000000092763_IMBRO,233222.3,584128.5,0.1,0.0,0.0
CPT000000092764_IMBRO,233185.2,584264.7,0.1,0.0,0.0
CPT000000092765_IMBRO,233193.7,584234.4,0.1,0.0,0.0
CPT000000092766_IMBRO,233199.5,584216.3,0.1,0.0,0.0
CPT000000092767_IMBRO,233157.3,584367.5,0.1,0.0,0.0
CPT000000092768_IMBRO,233172.7,584314.4,0.1,0.0,0.0
CPT000000092769_IMBRO,233240.5,584047.9,0.1,0.0,0.0
CPT000000092770_IMBRO,233246.4,583999.5,0.1,0.0,0.0
CPT000000092771_IMBRO,233229.9,584102.5,0.1,0.0,0.0
CPT000000092772_IMBRO,233235.6,584074.7,0.1,0.0,0.0
CPT000000092773_IMBRO,233146.3,584417.9,0.1,0.0,0.0
CPT000000094783_IMBRO_A,236730.0,577754.0,0.10247123911001202,0.0,0.006623424213894212
CPT000000094784_IMBRO_A,236791.0,577675.0,0.10260647278945151,0.0,0.0011353304649107082
CPT000000094785_IMBRO_A,236755.0,577776.0,0.10288825388304614,0.0,0.006731296933323494
CPT000000094786_IMBRO_A,236709.0,577746.0,0.10216031466958267,0.0,0.009613471625240448
CPT000000094787_IMBRO_A,236694.0,577780.0,0.10217060098710536,0.0,0.0034635996690116576
CPT000000094788_IMBRO_A,236740.0,577799.0,0.10279856860635081,0.0,0.0058338244828080085
CPT000000094789_IMBRO_A,236715.0,577757.0,0.10231327599431883,0.0,0.007682431435424636
CPT000000094790_IMBRO_A,236845.0,577777.0,0.10397431993305073,0.0,0.0020591602761063383
CPT000000094791_IMBRO_A,236715.0,577789.0,0.10245860253257816,0.0,0.00047926939990371837
CPT000000094792_IMBRO_A,236768.0,577666.0,0.10226738460047231,0.0,2.1231692458589872e-05
CPT000000094793_IMBRO_A,236858.0,577774.0,0.10411885566173018,0.0,0.0029448907934117724
CPT000000094794_IMBRO_A,236723.0,577798.0,0.10259028055638757,0.0,0.004592670902539434
CPT000000094795_IMBRO_A,236702.0,577789.0,0.102302319801257,0.0,0.005548213354396894
CPT000000094796_IMBRO_A,236785.0,577664.0,0.1024526557580876,0.0,0.0005306032008736678
CPT000000094797_IMBRO_A,236763.0,577654.0,0.10211860166103724,0.0,0.00154097402615321
CPT000000094798_IMBRO_A,236811.0,577761.0,0.10349686032816983,0.0,0.000654621633283887
CPT000000094799_IMBRO_A,236751.0,577765.0,0.10279681307678426,0.0,0.0174601837926897
CPT000000094800_IMBRO_A,236819.0,577756.0,0.10355490027574965,0.0,0.003964898103556711
CPT000000094801_IMBRO_A,236826.0,577768.0,0.10371051191814687,0.0,0.0015492968484719667
CPT000000094802_IMBRO_A,236839.0,577765.0,0.10385505702391651,0.0,0.005056714287033865
CPT000000094803_IMBRO_A,236736.0,577767.0,0.10262431630801322,0.0,0.00519610033681149
CPT000000094804_IMBRO_A,236741.0,577807.0,0.10284212542954178,0.0,0.006906699049637904
CPT000000094805_IMBRO_A,236826.0,577768.0,0.10371051191814687,0.0,0.0017550764803667517
CPT000000094806_IMBRO_A,236839.0,577765.0,0.10385505702391651,0.0,0.005921701028673514
CPT000000094807_IMBRO_A,236768.0,577666.0,0.10226738460047231,0.0,2.3040641824518232e-05
CPT000000094808_IMBRO_A,236751.0,577765.0,0.10279681307678426,0.0,0.015315144925795079
CPT000000094809_IMBRO_A,236858.0,577774.0,0.10411885566173018,0.0,0.0030036529148294803
CPT000000094810_IMBRO_A,236819.0,577756.0,0.10355490027574965,0.0,0.004371344524611577
CPT000000094811_IMBRO_A,236811.0,577761.0,0.10349686032816983,0.0,0.0005303172320618295
CPT000000094812_IMBRO_A,236730.0,577754.0,0.10247123911001202,0.0,0.007635021703764867
CPT000000094813_IMBRO_A,236736.0,577767.0,0.10262431630801322,0.0,0.005425909516009611
CPT000000094814_IMBRO_A,236715.0,577757.0,0.10231327599431883,0.0,0.007516439686685314
CPT000000094815_IMBRO_A,236741.0,577807.0,0.10284212542954178,0.0,0.0061234555451672515
CPT000000094816_IMBRO_A,236785.0,577664.0,0.1024526557580876,0.0,0.0006091439642975541
CPT000000094817_IMBRO_A,236755.0,577776.0,0.10288825388304614,0.0,0.008215633665652514
CPT000000094818_IMBRO_A,236709.0,577746.0,0.10216031466958267,0.0,0.008996509654478064
CPT000000094819_IMBRO_A,236791.0,577675.0,0.10260647278945151,0.0,0.001561982292585421
CPT000000094820_IMBRO_A,236740.0,577799.0,0.10279856860635081,0.0,0.00602047477206438
CPT000000094821_IMBRO_A,236694.0,577780.0,0.10217060098710536,0.0,0.0034165839217743183
CPT000000094822_IMBRO_A,236845.0,577777.0,0.10397431993305073,0.0,0.00201155874898328
CPT000000094823_IMBRO_A,236715.0,577789.0,0.10245860253257816,0.0,0.0005305149520942243
CPT000000094824_IMBRO_A,236723.0,577798.0,0.10259028055638757,0.0,0.005596117475897563
CPT000000094825_IMBRO_A,236763.0,577654.0,0.10211860166103724,0.0,0.0010503767572541472
CPT000000094826_IMBRO_A,236702.0,577789.0,0.102302319801257,0.0,0.005291561875035975
CPT000000094921_IMBRO,236471.7,559886.9,0.1,0.0,0.0
CPT000000094922_IMBRO,236456.2,559878.3,0.1,0.0,0.0
CPT000000094923_IMBRO,236465.7,559878.5,0.1,0.0,0.0
CPT000000094924_IMBRO,236462.2,559886.8,0.1,0.0,0.0
CPT000000095268_IMBRO_A,236913.47,578043.18,0.10600041171165299,0.0,0.03252172016404177
CPT000000095273_IMBRO_A,236713.76,577993.06,0.10324898506879768,0.0,0.0016748393281731959
CPT000000095276_IMBRO_A,236864.22,578054.42,0.10556501945273393,0.0,0.017138333317037263
CPT000000095279_IMBRO_A,236800.24,578026.32,0.10441667354782776,0.0,0.0024768137706670684
CPT000000095284_IMBRO_A,236779.69,578030.28,0.10421219318253679,0.0,0.0224261498303608
CPT000000095290_IMBRO_A,236824.5,578048.36,0.10500074029795903,0.0,0.01460770044904983
CPT000000095291_IMBRO_A,236911.94,578022.05,0.10573864135745795,0.0,0.04591340976729586
CPT000000095294_IMBRO_A,236697.98,577971.12,0.10297314838498646,0.0,0.005170687719793168
CPT000000095295_IMBRO_A,236671.26,577973.77,0.1026631631782204,0.0,0.005130880034255684
CPT000000095303_IMBRO_A,236872.97,578021.29,0.1052685928827178,0.0,0.05042333405933773
CPT000000095305_IMBRO_A,236759.59,577891.96,0.10340022969202547,0.0,0.01704089379454807
CPT000000095307_IMBRO_A,236830.05,578004.28,0.10468735953204761,0.0,0.023916274302081014
CPT000000095314_IMBRO_A,236880.32,577975.6,0.10517756711978507,0.0,0.02740614188340087
CPT000000095321_IMBRO_A,236891.77,577991.84,0.10537851893724627,0.0,0.018414610861452567
CPT000000095324_IMBRO_A,236715.89,577870.68,0.10279161149525451,0.0,0.009368383015916198
CPT000000095325_IMBRO_A,236848.42,578000.4,0.10489235086323066,0.0,0.03378210183766877
CPT000000095327_IMBRO_A,236936.95,577959.37,0.10579322432882304,0.0,0.008093810306712815
CPT000000095329_IMBRO_A,236741.83,577873.66,0.10311487153082763,0.0,0.0022086970922078984
CPT000000095331_IMBRO_A,236939.76,577978.49,0.10590170925821084,0.0,0.03152336232045242
CPT000000095335_IMBRO_A,236626.05,578086.8,0.10311091601394959,0.0,0.008928235641885699
CPT000000095337_IMBRO_A,236652.48,578178.67,0.1046484905007411,0.0,0.007616145569861153
CPT000000095340_IMBRO_A,236629.45,578183.39,0.10442106993746514,0.0,0.014337248609112088
CPT000000095348_IMBRO_A,236613.9,578164.95,0.10398428392556062,0.0,0.013822434378780547
CPT000000095349_IMBRO_A,236590.6,578162.45,0.10366024823077118,0.0,0.013688233231323664
CPT000000095350_IMBRO_A,236585.95,578032.09,0.10191179075753284,0.0,0.007803673540740009
CPT000000095353_IMBRO_A,236679.59,578122.18,0.10423630839033231,0.0,0.01788398623829894
CPT000000095356_IMBRO_A,236600.43,577998.91,0.10191336425054237,0.0,0.003668893172306076
CPT000000095360_IMBRO_A,236638.25,578107.17,0.10352814497542605,0.0,0.004167101813534811
CPT000000095363_IMBRO_A,236661.74,578106.5,0.10380798191428789,0.0,0.021589221321577753
CPT000000095367_IMBRO_A,236804.06,578175.44,0.10650877185588606,0.0,0.008281012229994975
CPT000000095374_IMBRO_A,236836.46,578217.37,0.10749970991125235,0.0,0.062221887465824396
CPT000000095376_IMBRO_A,236739.28,578178.2,0.10573291859845876,0.0,0.030158842780194192
CPT000000095377_IMBRO_A,236765.62,578190.32,0.1062294293009727,0.0,0.022700741587680845
CPT000000095380_IMBRO_A,236776.93,578207.29,0.10660460283739981,0.0,0.009088708576092211
CPT000000095381_IMBRO_A,236829.92,578236.86,0.1076875941218422,0.0,0.008342897085364247
CPT000000095382_IMBRO_A,236823.32,578171.6,0.10669726396159993,0.0,0.0221634860208856
CPT000000095386_IMBRO_A,236797.13,578207.75,0.10686702030532841,0.0,0.009228108870238208
CPT000000095391_IMBRO_A,236719.65,578181.55,0.10553143179344035,0.0,0.03100829293025927
CPT000000095395_IMBRO_A,236705.36,578165.99,0.10514277212355208,0.0,0.05329404075727087
CPT000000095398_IMBRO_A,236836.99,578100.39,0.10587642360147545,0.0,0.005139335736164603
CPT000000095399_IMBRO_A,236828.23,578089.18,0.10561315753076486,0.0,0.03144867178364415
CPT000000095402_IMBRO_A,236872.34,578154.17,0.10706670483405778,0.0,0.019692511295631685
CPT000000095403_IMBRO_A,236871.86,578137.21,0.10682211385579424,0.0,0.03272978221097844
CPT000000095407_IMBRO_A,236855.22,578146.17,0.10674114172604605,0.0,0.043053297569685345
CPT000000095411_IMBRO_A,236811.66,578090.26,0.10542558500794375,0.0,0.010618479956431313
CPT000000095415_IMBRO_A,236790.5,578159.41,0.10611804173271316,0.0,0.019897626023359292
CPT000000095541_IMBRO,263582.6,574349.6,0.1,0.0,0.000418518800272
CPT000000095542_IMBRO,263555.3,574303.3,0.1,0.0,0.0007502799159784
CPT000000095543_IMBRO,263574.7,574345.0,0.1,0.0,0.0003640226670047
CPT000000095544_IMBRO,263559.9,574298.1,0.1,0.0,0.0
CPT000000098408_IMBRO_A,236434.41,577839.26,0.1,0.0,0.0
CPT000000101361_IMBRO,254164.0,576083.8,0.14967266769324764,0.0,0.08301014545906635
CPT000000106376_IMBRO,236906.1,562749.6,0.1,0.0,0.0
CPT000000106381_IMBRO,236875.9,562470.2,0.1,0.0,0.0
CPT000000106382_IMBRO,236836.9,562060.8,0.1,0.0,0.0
CPT000000111889_IMBRO_A,236447.83,577817.96,0.1,0.0,0.0
CPT000000111890_IMBRO_A,236421.6,577770.62,0.1,0.0,0.0
CPT000000111891_IMBRO_A,236392.45,577815.94,0.1,0.0,0.0
CPT000000111892_IMBRO_A,236407.64,577793.79,0.1,0.0,0.0
CPT000000111893_IMBRO_A,236408.65,577833.14,0.1,0.0,0.0
CPT000000111894_IMBRO_A,236421.13,577817.28,0.1,0.0,0.0
CPT000000111895_IMBRO_A,236433.87,577795.84,0.1,0.0,0.0
CPT000000111896_IMBRO_A,236456.38,577797.12,0.1,0.0,0.0
CPT000000114971_IMBRO,265685.0,575748.1,0.1,0.0,0.0
CPT000000117636_IMBRO_A,255256.33,575848.39,0.1379061682311598,0.0,0.037367946034501
CPT000000117678_IMBRO_A,255426.43,575765.89,0.13561785143841876,0.0,0.010402106336000016
CPT000000117681_IMBRO_A,255499.28,575824.2,0.13559569795356152,0.0,0.041431179020314325
CPT000000117683_IMBRO_A,255569.42,575884.72,0.13559477003038234,0.0,0.07801125666624509
CPT000000117686_IMBRO_A,255341.79,575807.76,0.13676332410250241,0.0,0.11946762708681007
CPT000000117694_IMBRO_A,255417.29,575656.61,0.13456299861640095,0.0,0.08877444444074219
CPT000000117708_IMBRO_A,255290.71,575541.5,0.13416332874628684,0.0,0.00019321390828409154
CPT000000117709_IMBRO_A,255461.3,575711.9,0.13476726194169553,0.0,0.03815404143570861
CPT000000117713_IMBRO_A,255361.9,575700.6,0.13548167703716707,0.0,0.007985720654846165
CPT000000117724_IMBRO_A,255511.0,575717.6,0.13439684585075337,0.0,0.017128678957930982
CPT000000117730_IMBRO_A,255598.3,575727.2,0.13373638844045344,0.0,0.4695411153156147
CPT000000117733_IMBRO_A,255264.44,575762.73,0.13694452543797453,0.0,0.0062143931608083436
CPT000000117736_IMBRO_A,255560.6,575723.3,0.13402437112440738,0.0,0.07295565054461062
CPT000000117737_IMBRO_A,255594.5,575626.7,0.13274714398864457,0.0,0.1702869256221641
CPT000000117742_IMBRO_A,255422.93,575606.91,0.13395294366868093,0.0,0.0077431120729597935
CPT000000117746_IMBRO_A,255306.44,575734.72,0.13630054919572973,0.0,0.1167842495348265
CPT000000117751_IMBRO_A,255267.6,575739.3,0.13667371740225356,0.0,0.03063722610530205
CPT000000117752_IMBRO_A,255323.61,575595.48,0.1346225932504075,0.0,0.0051176516124955985
CPT000000117756_IMBRO_A,255357.3,575742.3,0.13595313256584649,0.0,0.047990278035514256
CPT000000117757_IMBRO_A,255279.78,575640.83,0.13554553062150515,0.0,0.07513133735389589
CPT000000117767_IMBRO_A,255522.35,575618.26,0.13326436063899275,0.0,9.717609306756634e-05
CPT000000117771_IMBRO_A,255590.68,575772.13,0.13425989203397298,0.0,0.08693063772688811
CPT000000117773_IMBRO_A,255284.74,575591.07,0.13488438810627068,0.0,0.1727971851228674
CPT000000117777_IMBRO_A,255600.3,575677.6,0.13321482689271377,0.0,0.28010284509417904
CPT000000117778_IMBRO_A,255373.25,575601.22,0.1342887915697291,0.0,0.008825992315868418
CPT000000117783_IMBRO_A,255317.93,575645.22,0.1352732763383702,0.0,0.2120778160337471
CPT000000117788_IMBRO_A,255367.62,575650.92,0.1349182413695485,0.0,0.002554007941195161
CPT000000117789_IMBRO_A,255402.14,575699.61,0.13513493054907158,0.0,0.0449179634663863
CPT000000117795_IMBRO_A,255566.3,575673.7,0.13346854662322746,0.0,0.1372107034854138
CPT000000117799_IMBRO_A,255466.94,575662.29,0.13420754895531115,0.0,0.056792284104802235
CPT000000117800_IMBRO_A,255558.4,575743.1,0.13424579379650908,0.0,0.3687930892109766
CPT000000117803_IMBRO_A,255472.59,575612.61,0.13361537521664157,0.0,0.0
CPT000000117804_IMBRO_A,255411.6,575706.3,0.13512512172963034,0.0,0.019538285575856858
CPT000000117807_IMBRO_A,255378.93,575551.54,0.13357660065987914,0.0,0.011153881682050795
CPT000000117808_IMBRO_A,255516.6,575667.96,0.13383842426883144,0.0,0.0010148647942406195
CPT000000117813_IMBRO_A,255556.7,575622.34,0.13302372240440696,0.0,0.21028808623309284
CPT000000117816_IMBRO_A,255329.39,575545.81,0.13390523911590765,0.0,0.0067232818748905665
CPT000000117820_IMBRO_A,255469.6,575654.64,0.13410603531545393,0.0,0.003615198073297122
CPT000000117823_IMBRO_A,255318.0,575649.62,0.1353184628083334,0.0,0.0792424076697981
CPT000000117826_IMBRO_A,255407.2,575738.0,0.13549032536279182,0.0,0.014417212642607388
CPT000000117829_IMBRO_A,255507.9,575741.5,0.13466947452018324,0.0,0.0030324474747230553
CPT000000117831_IMBRO_A,255403.65,575624.12,0.1343401316410306,0.0,0.0
CPT000000117835_IMBRO_A,255272.8,575690.3,0.136119367871619,0.0,0.0352536617449355
CPT000000117836_IMBRO_A,255312.2,575694.9,0.1358379612336364,0.0,0.01005306929683024
CPT000000117837_IMBRO_A,255458.5,575740.0,0.1350811051971353,0.0,0.02559176160568637
CPT000000119262_IMBRO,236624.9,561535.6,0.1,0.0,0.0042059710193861
CPT000000119263_IMBRO,236565.8,561397.8,0.1,0.0,0.0
CPT000000119268_IMBRO,236748.2,561822.8,0.1,0.0,3.584392872276288e-05
CPT000000119269_IMBRO,236684.7,561673.7,0.1,0.0,0.0064055621367589
CPT000000122691_IMBRO,265740.9,575746.9,0.1,0.0,0.0003435066616753
CPT000000122695_IMBRO,265762.7,575816.7,0.1,0.0,0.0002719233773914
CPT000000122696_IMBRO,265750.6,575774.6,0.1,0.0,0.0
CPT000000122697_IMBRO,265757.4,575796.1,0.1,0.0,0.0
CPT000000127627_IMBRO,222255.9,585785.2,0.1,0.0,0.0
CPT000000127629_IMBRO,222217.2,585769.1,0.1,0.0,0.0
CPT000000127630_IMBRO,222236.6,585777.2,0.1,0.0,0.0
CPT000000127631_IMBRO,222197.5,585760.9,0.1,0.0,0.0
CPT000000127633_IMBRO,222140.0,585736.1,0.1,0.0,0.0
CPT000000127635_IMBRO,222077.9,585711.4,0.1,0.0,0.0
CPT000000127636_IMBRO,222120.1,585728.9,0.1,0.0,0.0
CPT000000127637_IMBRO,222159.1,585744.0,0.1,0.0,0.0
CPT000000128973_IMBRO_A,234512.49,556755.74,0.1,0.0,0.0
CPT000000128974_IMBRO_A,234516.21,556774.93,0.1,0.0,0.0
CPT000000128975_IMBRO_A,234492.18,556803.08,0.1,0.0,0.0
CPT000000128976_IMBRO_A,234490.54,556793.42,0.1,0.0,0.0
CPT000000128977_IMBRO_A,234507.74,556805.5,0.1,0.0,0.0
CPT000000128978_IMBRO_A,234541.31,556807.5,0.1,0.0,0.0
CPT000000128979_IMBRO_A,234503.24,556783.23,0.1,0.0,0.0
CPT000000128980_IMBRO_A,234473.41,556809.73,0.1,0.0,0.0
CPT000000128981_IMBRO_A,234496.07,556798.93,0.1,0.0,0.0
CPT000000128982_IMBRO_A,234472.74,556632.69,0.1,0.0,0.0
CPT000000128983_IMBRO_A,234531.1,556791.6,0.1,0.0,0.0
CPT000000128984_IMBRO_A,234446.26,556638.68,0.1,0.0,0.0
CPT000000128985_IMBRO_A,234519.85,556792.93,0.1,0.0,0.0
CPT000000128986_IMBRO_A,234530.96,556776.44,0.1,0.0,0.0
CPT000000159997_IMBRO_A,235816.77,578477.93,0.1,0.0,0.0
CPT000000160001_IMBRO_A,235817.33,578440.22,0.1,0.0,0.0
CPT000000160006_IMBRO_A,235904.23,578515.33,0.1,0.0,0.0
CPT000000160017_IMBRO_A,235844.6,578368.0,0.1,0.0,0.0
CPT000000160018_IMBRO_A,235863.13,578373.59,0.1,0.0,0.0
CPT000000160019_IMBRO_A,235769.99,578310.03,0.1,0.0,0.0
CPT000000160020_IMBRO_A,235764.75,578348.09,0.1,0.0,0.0
CPT000000160021_IMBRO_A,235776.91,578335.22,0.1,0.0,0.0
CPT000000160022_IMBRO_A,235886.32,578390.27,0.1,0.0,0.0
CPT000000160023_IMBRO_A,235773.72,578361.03,0.1,0.0,0.0
CPT000000160024_IMBRO_A,235866.5,578390.1,0.1,0.0,0.0
CPT000000160025_IMBRO_A,235821.44,578380.17,0.1,0.0,0.0
CPT000000160026_IMBRO_A,235745.56,578327.31,0.1,0.0,0.0
CPT000000160027_IMBRO_A,235889.6,578406.91,0.1,0.0,0.0
CPT000000160028_IMBRO_A,235762.03,578325.98,0.1,0.0,0.0
CPT000000160029_IMBRO_A,235849.26,578416.34,0.1,0.0,0.0
CPT000000160030_IMBRO_A,235869.3,578416.46,0.1,0.0,0.0
CPT000000160031_IMBRO_A,235749.84,578352.35,0.1,0.0,0.0
CPT000000160032_IMBRO_A,235846.04,578399.44,0.1,0.0,0.0
CPT000000160033_IMBRO_A,235826.64,578394.91,0.1,0.0,0.0
CPT000000160034_IMBRO_A,235841.48,578350.83,0.1,0.0,0.0
CPT000000160035_IMBRO_A,235873.52,578433.22,0.1,0.0,0.0
CPT000000160059_IMBRO_A,235708.1,578391.84,0.1,0.0,0.0
CPT000000160906_IMBRO,233214.352,583636.864,0.1,0.0,0.0
CPT000000160907_IMBRO,233232.499,584093.438,0.1,0.0,0.0
CPT000000160908_IMBRO,233228.331,584085.376,0.1,0.0,0.0
CPT000000160909_IMBRO,233189.579,584250.055,0.1,0.0,0.0
CPT000000160910_IMBRO,233211.201,584194.936,0.1,0.0,0.0
CPT000000160911_IMBRO,233179.583,584339.854,0.1,0.0,0.0
CPT000000160912_IMBRO,233253.807,583956.312,0.1,0.0,0.0
CPT000000160913_IMBRO,233178.163,584245.539,0.1,0.0,0.0
CPT000000160914_IMBRO,233237.667,583859.8,0.1,0.0,0.0042142849219596
CPT000000160915_IMBRO,233236.34,584129.865,0.1,0.0,0.0
CPT000000160916_IMBRO,233241.566,583947.068,0.1,0.0,0.0
CPT000000160917_IMBRO,233256.743,583861.559,0.1,0.0,0.0
CPT000000160918_IMBRO,233227.71,584102.282,0.1,0.0,0.0
CPT000000160919_IMBRO,233248.923,583762.627,0.1,0.0,0.0
CPT000000160920_IMBRO,233152.576,584347.208,0.1,0.0,0.0
CPT000000160921_IMBRO,233200.707,584195.329,0.1,0.0,0.0
CPT000000160922_IMBRO,233183.022,584204.863,0.1,0.0,4.024037956427404e-05
CPT000000160923_IMBRO,233197.863,584211.858,0.1,0.0,0.0
CPT000000160924_IMBRO,233230.72,583755.998,0.1,0.0,2.5376623908417425e-05
CPT000000160925_IMBRO,233240.345,583691.485,0.1,0.0,0.0
CPT000000160926_IMBRO,233227.389,583691.902,0.1,0.0,0.0
CPT000000160927_IMBRO,233214.352,583636.864,0.1,0.0,0.0
CPT000000165192_IMBRO,236826.3,561873.2,0.1,0.0,0.0
CPT000000167367_IMBRO,235594.0,578609.6,0.1,0.0,0.0
CPT000000167368_IMBRO,235512.5,578565.6,0.1,0.0,0.0
CPT000000167369_IMBRO,235591.9,578608.4,0.1,0.0,0.0
CPT000000167370_IMBRO,235592.9,578609.0,0.1,0.0,0.0
CPT000000167371_IMBRO,230908.58,581030.4,0.1,0.0,0.0170980059945893
CPT000000167372_IMBRO,231124.06,581044.56,0.1,0.0,0.0243307328873109
CPT000000167375_IMBRO,231330.51,580984.11,0.1,0.0,0.0109456091931177
CPT000000167376_IMBRO,231131.04,581061.63,0.1,0.0,0.0646986145134396
CPT000000167380_IMBRO,230386.33,581110.17,0.1,0.0,0.0
CPT000000167382_IMBRO,230939.8,581022.76,0.1,0.0,0.0136512947594752
CPT000000167388_IMBRO,231144.36,581028.74,0.1,0.0,0.0763377627130746
CPT000000167390_IMBRO,231069.75,581012.9,0.1,0.0,0.0070574522682711
CPT000000167395_IMBRO,230233.37,581142.98,0.1,0.0,0.0
CPT000000167399_IMBRO,231405.8,581035.11,0.1,0.0,0.0012046005315398
CPT000000167402_IMBRO,230252.1,581144.47,0.1,0.0,0.0
CPT000000167403_IMBRO,230648.42,581086.91,0.1,0.0,0.0
CPT000000167405_IMBRO,230184.25,581132.6,0.1,0.0,6.188098296316148e-05
CPT000000167408_IMBRO,231517.33,580998.67,0.1,0.0,5.030842049113762e-05
CPT000000167414_IMBRO,230488.69,581098.47,0.1,0.0,0.0
CPT000000167417_IMBRO,231288.45,580991.74,0.1,0.0,0.0092502409371181
CPT000000167418_IMBRO,231138.72,581035.99,0.1,0.0,0.0387627482702125
CPT000000167419_IMBRO,230290.92,581133.65,0.1,0.0,0.0
CPT000000167420_IMBRO,230645.37,581063.25,0.1,0.0,0.0
CPT000000167422_IMBRO,231189.38,580998.25,0.1,0.0,0.0042149075214176
CPT000000167424_IMBRO,230850.54,581034.13,0.1,0.0,0.0
CPT000000167426_IMBRO,230297.19,581118.75,0.1,0.0,0.0
CPT000000167433_IMBRO,230488.46,581077.5,0.1,0.0,0.1288270959882621
CPT000000167436_IMBRO,231137.25,581064.78,0.1,0.0,0.0459532798126666
CPT000000167446_IMBRO,231001.76,581014.4,0.1,0.0,0.003258838155516
CPT000000167448_IMBRO,231431.71,580981.38,0.1,0.0,0.0016834389750354
CPT000000167450_IMBRO,231145.97,581042.07,0.1,0.0,0.0921180024709626
CPT000000167453_IMBRO,230780.24,581061.27,0.1,0.0,0.0
CPT000000167460_IMBRO,230849.06,581060.98,0.1,0.0,0.0
CPT000000167461_IMBRO,231131.18,580999.33,0.1,0.0,0.0055456788188749
CPT000000167472_IMBRO,231144.74,581060.33,0.1,0.0,0.0673815284076042
CPT000000167473_IMBRO,231130.02,581030.16,0.1,0.0,0.0642844771491153
CPT000000167474_IMBRO,230382.33,581092.96,0.1,0.0,0.2403019523214273
CPT000000167481_IMBRO,230299.36,581097.12,0.1,0.0,0.0776326826716146
CPT000000167484_IMBRO,236739.0,561799.5,0.1,0.0,0.0035984903142266
CPT000000167485_IMBRO,236729.4,561776.4,0.1,0.0,0.0
CPT000000167486_IMBRO,236719.6,561753.4,0.1,0.0,0.0
CPT000000168498_IMBRO,230299.007,593652.648,0.1,0.0,0.0015336631888582
CPT000000168499_IMBRO,230589.324,593490.382,0.1,0.0,0.0042546582879245
