LOCATIE gegevens
NITG-nr	X-coord	Y-coord	Coordinaat systeem	Kaartblad	Bepaling locatie	Maaiveldhoogte (m tov NAP)	Bepaling maaiveldhoogte	OLGA-nr	RIVM-nr	Aantal analyses	Meetnet	Indeling	
B06H0088	215110	575680	Rijksdriehoeksmeting	06H		1.3		06HA3088	1534	22			

KWALITEIT gegevens VLOEIBAAR
NITG-nr	Monster datum	Monster-nr	Monster apparatuur	Mengmonster	Bovenkant monster (cm tov MV)	Onderkant monster (cm tov MV)	Analyse datum	Al (mg/l)	Al (mg/m3)	Al (ug/l)	As (mg/m3)	As (ug/l)	Ba (mg/m3)	Ba (ug/l)	Ca (g/m3)	Ca (mg/l)	Cd (mg/m3)	Cd (ug/l)	Cl- (g/m3)	Cl- (mg/l)	Cr (mg/m3)	Cr (ug/l)	Cu (mg/m3)	Cu (ug/l)	DOC (g/m3)	DOC (mg/l)	EC (mS/m)	EC-5 (mS/m)	ECVELD20C (mS/m)	Fe (g/m3)	Fe (mg/l)	HCO3 (g/m3)	HCO3 (mg/l)	HCO3 (mmol/l)	HCO3-Veld (g/m3)	HCO3-Veld (mg/l)	Hg (mg/m3)	Hg (ug/l)	K (g/m3)	K (mg/l)	Mg (g/m3)	Mg (mg/l)	Mn (g/m3)	Mn (mg/l)	NH4 (gN/m3)	NH4 (mg/l)	NH4 (mgN/l)	NH4som (mg/l)	NO3 (gN/m3)	NO3 (mg/l)	NO3 (mgN/l)	NO3som (mg/l)	Na (g/m3)	Na (mg/l)	Ni (mg/m3)	Ni (ug/l)	O2 (mg/l)	Pb (mg/m3)	Pb (ug/l)	Ptot (mgP/l)	SO4 (g/m3)	SO4 (mg/l)	Sr (mg/l)	Sr (mg/m3)	Sr (ug/l)	T-5 (C)	T-PO4 (gP/m3)	T-PO4 (mg/l)	TEMP-V (C)	TOC (g/m3)	TOC (mg/l)	TOTH (mmol/l)	Zn (mg/m3)	Zn (ug/l)	pH (-)	pH-5 (-)	pH-veld (-)	stijgh_mv (m-mv)	
B06H0088	16-06-2005	L2005-06-0009		nee			16-06-2005																																																		<.5																						
B06H0088	16-06-2005	L2005-06-0009		nee			16-06-2005			<5		13		100		86.8		<.1		22		<1		<5		6.1			48.7		12		316	5.17				<.02		1.4		7.42		.358			.19	.25			<.15	<.6		14.2		<1			<1	.37		<.5			240							2.47		25			7.01		
B06H0088	16-06-2005	L2005-06-0008		nee			16-06-2005																																																		<.5																						
B06H0088	16-06-2005	L2005-06-0008		nee			16-06-2005			<5		2		16		62.4		<.1		46		<1		<5		5.2			38.8		3.3		120	1.97				<.02		1		5.2		.14			.09	.12			<.15	<.6		14.4		<1			<1	.12		41			160							1.77		<10			7.05		
B06H0088	15-06-2004	L2004-06-0011		nee			15-06-2004			<5		3		18		58.8		<.2		40		<1		<5		5			37.2		3.2		123	2.02				<.02		1.2		4.87		.127			.08	.1			<.2	<.6		12.4		<1			<1	.11		33			150							1.67		<10			7.02		
B06H0088	15-06-2004	L2004-06-0011		nee			15-06-2004																																																		1.3																						
B06H0088	15-07-2003	L2003-07-0004		nee			15-07-2003			<5		2		15		58.5		<.2				<1		<5					36.4		2.5									1		4.75		.149			.12	.16			<.2	<.6		11.7		<1			<1			29			160									<10					
B06H0088	15-07-2003	L2003-07-0004		nee			15-07-2003																										113	1.85																																													
B06H0088	15-07-2003	L2003-07-0004		nee			15-07-2003																			6.2																																																					
B06H0088	15-07-2003	L2003-07-0004		nee			15-07-2003																																																																						6.93		
B06H0088	15-07-2003	L2003-07-0004		nee			15-07-2003													43																																								.15																			
B06H0088	15-07-2003	L2003-07-0004		nee			15-07-2003																															<.02																																									
B06H0088	15-07-2003	L2003-07-0004		nee			15-07-2003																																																		<.5																						
B06H0088	07-11-2002	L2002-11-0073		nee			07-11-2002																																																		<.5																						
B06H0088	07-11-2002	L2002-11-0073		nee			07-11-2002																								4.28																																																
B06H0088	07-11-2002	L2002-11-0073		nee			07-11-2002																															<.02																																									
B06H0088	07-11-2002	L2002-11-0073		nee			07-11-2002																																																				<1						156.7									<10					
B06H0088	07-11-2002	L2002-11-0073		nee			07-11-2002			<5		2.92		15.66		54.66		<.2		41.9		<1		<5		5.26			36.9				124.41	2.04						1.02		4.52		.13			.1	.13			<.2	<.6		10.93		<1				.13		30.25															6.51		
B06H0088	01-01-2001	L2001-01-7200		nee			01-01-2001			<5		8.11		92.98769		85.80356		<.2		19.8		<1		<5		6.19	39.1				11.624		313.34	5.13672131				<.02		1.49401		7.19284		.45451			.18938889	.2435			<.12	<.5		14.52151		<1	<.5		<2	.2		<.5	.2244									2.43674814		26.32711	6.94				
B06H0088	01-01-2001	L2001-01-7199		nee			01-01-2001			<5		2.37		18.55017		57.42239		<.2		43.7		<1		<5		5.26	28.5				4.61351		126.58	2.07508197				<.02		1.09194		4.71941		.14165			.08322222	.107			<.12	<.5		11.24678		<1	<.5		<2	.12		28.95	.1516									1.62686881		3.08203	7.03				
B06H0088	09-05-2000	C2000-05-8039		nee			09-05-2000		<5		3		20		58		<0.1		44		<1		<1		4.5			37		4.4		126					<0.02		1.1		4.9		0.13		0.1				<0.20				11.3		<3			<2			28			160			0.2						<20			7.01		-0.8	
B06H0088	01-01-2000	L2000-01-7941		nee			01-01-2000			<5		3		20		58		<.1		44		<1		<1		4.5	37				4.4		126					<.02		1.1		4.9		.13			.1				<.2			11.3		<3			<2	.2		28			160									<20	7.01				
B06H0088	10-06-1999	C1999-06-8128		nee			10-06-1999		<5		<2		20		59		<0.1		46		<1		<1		5.1			38		5.0		128					<0.02		1.1		4.9		0.14		0.06				<0.10				11.2		<3			<2			27			150			0.17						<20			7.05		-0.98	
B06H0088	01-01-1999	L1999-01-0427		nee			01-01-1999			<5		<2		20		59		<.1		46		<1		<1		0	38				5		128					<.02		1.1		4.9		.14			.06				<.1			11.2		<3			<2	.17		27			150									<20	7.05				
B06H0088	09-09-1998	C1998-09-8031		nee			09-09-1998		<5		2		20		63		<0.1		54		<1		<1		5.4			40		5.3		133					<0.02		1.1		5.3		0.16		0.10				<0.10				11.7		<3			<2			26			160			0.16						<20			7.06		-0.65	
B06H0088	01-01-1998	L1998-01-0026		nee			01-01-1998			<5		2		20		63		<.1		54		<1		<1		0	40				5.3		133					<.02		1.1		5.3		.16			.1				<.1			11.7		<3			<2	.16		26			160									<20	7.06				
B06H0088	26-06-1997	C1997-06-8283		nee			26-06-1997		<3		10		70		85		<0.1		20		<1		<1					49		11		319					<0.02		1.5		7.2		0.71		0.20				<0.01				15		<3			<2			<2.0			230			0.36			5.2			<20			7.04		-1.23	
B06H0088	26-06-1997	C1997-06-8286		nee			26-06-1997		<3		3		<10		64		<0.1		55		<1		<1					40		4.1		131					<0.02		1.1		5.4		0.15		0.09				<0.01				12		<3			<2			27			170			<0.02			5.6			<20			7.07		-1.26	
B06H0088	26-06-1997	C1997-06-1431		nee			26-06-1997	<.003				3		<10		64		<.1		55		<1		<1							4.1		131					<.02		1.1		5.4		.15		.116				<.044				12		<3			<2			27						<.061	20		5.6	1.82		<20	7.07				
B06H0088	26-06-1997	C1997-06-1432		nee			26-06-1997	<.003				10		70		85		<.1		20		<1		<1							11		319					<.02		1.5		7.2		.71		.258				<.044				15		<3			<2			<2						1.105	20		5.2	2.42		<20	7.04				
B06H0088	01-01-1997	L1997-01-7535		nee			01-01-1997			<3		10		70		85		<.1		20		<1		<1			49				11		319					<.02		1.5		7.2		.71			.2				<.01			15		<3			<2	.36		<2			230									<20	7.04				
B06H0088	01-01-1997	L1997-01-7534		nee			01-01-1997			<3		3		<10		64		<.1		55		<1		<1			40				4.1		131					<.02		1.1		5.4		.15			.09				<.01			12		<3			<2	<.02		27			170									<20	7.07				
B06H0088	13-08-1996	C1996-08-8113		nee			13-08-1996																																																																								
B06H0088	13-08-1996	C1996-08-8114		nee			13-08-1996		8		3		20		66		<0.1		56		<1		<1					40.44		4.5		131			130.12				1.1		5.5		0.17		0.09				0.04				12		<3			<2			24			170		10.40	0.17			5.2			<20			7.08			
B06H0088	13-08-1996	C1996-08-1115		nee			13-08-1996	.008				3		20		66		<.1		56		<1		<1							4.5		131							1.1		5.5		.17		.116				.177				12		<3			<2			24						.522	20		5.2	1.88		<20					
B06H0088	13-08-1996	C1996-08-8103		nee			13-08-1996																																																																								
B06H0088	01-01-1996	L1996-01-7315		nee			01-01-1996			8		3		20		66		<.1		56		<1		<1			45.7				4.5		131			130.12				1.1		5.5		.17			.09				.04			12		<3			<2	.17		24			170									<20	7.08				
B06H0088	12-07-1995	C1995-07-8063		nee			12-07-1995		<3		11		85		89		<0.1		20		<1		<1					43.98		11.3		309							1.6		7.3		1.09		0.26				<0.01				16.9		<2			<2			2.5			260		11.60	0.44			6.2			<20			7.05			
B06H0088	12-07-1995	C1995-07-1053		nee			12-07-1995	<.003				11		85		89		<.1		20		<1		<1							11.3		309							1.6		7.3		1.09		.335				<.044				16.9		<2			<2			2.5						1.351	20		6.2	2.52		<20					
B06H0088	12-07-1995	C1995-07-8065		nee			12-07-1995		10		<2		26		69		<0.1		55		<1		<1					38.41		5.4		133							1.1		5.5		0.16		0.13				0.04				11.8		<2			<2			29			190		11.20	0.10			5.2			<20			7.05			
B06H0088	12-07-1995	C1995-07-8064		nee			12-07-1995																																																																								
B06H0088	12-07-1995	C1995-07-1052		nee			12-07-1995	.01				<2		26		69		<.1		55		<1		<1							5.4		133							1.1		5.5		.16		.168				.177				11.8		<2			<2			29						.307	20		5.2	1.95		<20					
B06H0088	01-01-1995	L1995-01-0036		nee			01-01-1995			<3		11		85		89		<.1		20		<1		<1			49.7				11.3		309							1.6		7.3		1.09			.26				<.01			16.9		<2			<2	.44		2.5			260									<20	7.05				
B06H0088	01-01-1995	L1995-01-0035		nee			01-01-1995			10		<2		26		69		<.1		55		<1		<1			43.4				5.4		133							1.1		5.5		.16			.13				.04			11.8		<2			<2	.1		29			190									<20	7.05				
B06H0088	13-07-1994	C1994-07-1121		nee			13-07-1994	.007				17		100		83		<.1		20		<1		<1							11		319							1.8		7.5		1.5		.452				.133				23		<2			<2			2.6						1.136	20		7	2.38		<20					
B06H0088	13-07-1994	C1994-07-8084		nee			13-07-1994		7		17		100		83		<0.1		20		<1		<1					50.6		11.0		319							1.8		7.5		1.5		0.35				0.03				23		<2			<2			2.6			270		12.40	0.37			7.0			<20			7.01			
B06H0088	13-07-1994	C1994-07-1120		nee			13-07-1994	.022				3		56		81		<.1		37		<1		<1							8.9		254							1.2		7.3		.2		.206				.31				13.2		<2			<2			2.3						1.013	20		6.6	2.32		<20					
B06H0088	13-07-1994	C1994-07-8083		nee			13-07-1994		<3		<2		29		69		<0.1		54		<1		<1					41.9		6.3		112							1.1		5.9		0.17		0.13				9.9				11.7		<2			<2			24			190		10.50	0.23			6.4			<20			7.01			
B06H0088	13-07-1994	C1994-07-1119		nee			13-07-1994	<.003				<2		29		69		<.1		54		<1		<1							6.3		112							1.1		5.9		.17		.168				43.857				11.7		<2			<2			24						.706	20		6.4	1.96		<20					
B06H0088	13-07-1994	C1994-07-8088		nee			13-07-1994		22		3		56		81		<0.1		37		<1		<1					46.4		8.9		254							1.2		7.3		0.20		0.16				0.07				13.2		<2			<2			2.3			230		12.00	0.33			6.6			<20			6.93			
B06H0088	01-01-1994	L1994-01-0059		nee			01-01-1994			<3		<2		29		69		<.1		54		<1		<1			47.3				6.3		112							1.1		5.9		.17			.13				9.9			11.7		<2			<2	.23		24			190									<20	7.01				
B06H0088	01-01-1994	L1994-01-0060		nee			01-01-1994			22		3		56		81		<.1		37		<1		<1			52.4				8.9		254							1.2		7.3		.2			.16				.07			13.2		<2			<2	.33		2.3			230									<20	6.93				
B06H0088	01-01-1994	L1994-01-0061		nee			01-01-1994			7		17		100		83		<.1		20		<1		<1			57.2				11		319							1.8		7.5		1.5			.35				.03			23		<2			<2	.37		2.6			270									<20	7.01				
