LOCATIE gegevens
NITG-nr	X-coord	Y-coord	Coordinaat systeem	Kaartblad	Bepaling locatie	Maaiveldhoogte (m tov NAP)	Bepaling maaiveldhoogte	OLGA-nr	RIVM-nr	Aantal analyses	Meetnet	Indeling	
B07C0129	228370	584804	Rijksdriehoeksmeting	07C	GPS (Global Positioning System)	0.49		07CP0129		40			

KWALITEIT gegevens VLOEIBAAR
NITG-nr	Monster datum	Monster-nr	Monster apparatuur	Mengmonster	Bovenkant monster (cm tov MV)	Onderkant monster (cm tov MV)	Analyse datum	Ca (mg/l)	Cl- (mg/l)	EC (mS/m)	EC (uS/cm)	Fe (mg/l)	HCO3 (mg/l)	K (mg/l)	KMNO4V-O (mg/l)	Mg (mg/l)	Mn (mg/l)	NH4 (mg/l)	NO2 (mg/l)	NO3 (mg/l)	Na (mg/l)	SO4 (mg/l)	T-PO4 (mg/l)	TEMP-V (C)	TOTH (mmol/l)	pH (-)	
B07C0129		C1990-06-1041		nee	7894.9995	7994.9995	07-06-1990		8923																		
B07C0129		C1988-06-1148		nee	1445.0	1545.0	09-06-1988		8310																		
B07C0129		C1990-01-1083		nee	7894.9995	7994.9995	12-01-1990		8440																		
B07C0129		C1991-07-1041		nee	7894.9995	7994.9995	03-07-1991		8701																		
B07C0129		C1988-06-1147		nee	294.0	394.0	09-06-1988		432																		
B07C0129		C1986-10-1034		nee	1445.0	1545.0	03-10-1986		8110																		
B07C0129		C1989-03-1017		nee	294.0	394.0	06-03-1989	254	635	2660.2		32.7								0				18			
B07C0129		C1985-04-1055		nee	1445.0	1545.0	16-04-1985		8560																		
B07C0129		C1985-04-1054		nee	294.0	394.0	16-04-1985		1247																		
B07C0129		C1985-04-1056		nee	7894.9995	7994.9995	16-04-1985		7970																		
B07C0129		C1988-06-1149		nee	7894.9995	7994.9995	09-06-1988		8320																		
B07C0129		C1987-09-1078		nee	7894.9995	7994.9995	16-09-1987		8320																		
B07C0129		C1986-10-1035		nee	7894.9995	7994.9995	03-10-1986		8290																		
B07C0129		C1989-03-1019		nee	7894.9995	7994.9995	06-03-1989	501	8210			22.4								.04							
B07C0129		C1991-07-1039		nee	294.0	394.0	03-07-1991		390																		
B07C0129		C1989-03-1018		nee	1445.0	1545.0	06-03-1989	373	8690			9.67								.04							
B07C0129		C1990-06-1040		nee	1445.0	1545.0	07-06-1990		9513																		
B07C0129		C1990-01-1082		nee	1445.0	1545.0	12-01-1990		7880																		
B07C0129		C1989-07-1043		nee	1445.0	1545.0	10-07-1989	381	7968			9.06								.04							
B07C0129		C1991-07-1040		nee	1445.0	1545.0	03-07-1991		8045																		
B07C0129		C1990-01-1081		nee	294.0	394.0	12-01-1990		560																		
B07C0129		C1990-06-1039		nee	294.0	394.0	07-06-1990		545																		
B07C0129	01-06-2005	T2005-00-4337		nee	1449.0	1549.0	01-06-2005		8180																		
B07C0129	01-06-2005	T2005-00-4336		nee	298.0	398.0	01-06-2005		122																		
B07C0129	01-06-2005	T2005-00-4338		nee	7899.0	7999.0	01-06-2005		8010																		
B07C0129	16-07-2003	T2003-00-0050		nee	1449.0	1549.0	16-07-2003		8180																		
B07C0129	16-07-2003	T2003-00-0051		nee	7899.0	7999.0	16-07-2003		9440																		
B07C0129	16-07-2003	T2003-00-0049		nee	298.0	398.0	16-07-2003		120																		
B07C0129	02-06-1999	T1999-00-2501		nee	1449.0	1549.0	02-06-1999		9920																		
B07C0129	02-06-1999	T1999-00-2502		nee	7899.0	7999.0	02-06-1999		9630																		
B07C0129	02-06-1999	T1999-00-2500		nee	298.0	398.0	02-06-1999		155																		
B07C0129	23-04-1997	C1997-04-1152		nee	1452.0	1552.0	23-04-1997		9300															20			
B07C0129	23-04-1997	C1997-04-1153		nee	7902.0	8002.0	23-04-1997		9240															20			
B07C0129	23-04-1997	C1997-04-1151		nee	301.0	401.0	23-04-1997		145															20			
B07C0129	06-05-1985	C1985-05-1028		nee	302.0	402.0	06-05-1985	224	960		384.36	6.7	584	17.6	180	43	2.7	3.999	.033	.222	440	153	3.531	18	7.357	7.7	
B07C0129	06-05-1985	C1985-05-1030		nee	7903.0	8003.0	06-05-1985	474	8000		2272.67	24.4	1196	88	120	432	1.2				4482	663		18	29.596	7.1	
B07C0129	06-05-1985	C1985-05-1029		nee	1453.0	1553.0	06-05-1985	536	8600		2398.35	.9	2381	128	230	480	1.2	33.927	.033	.133	4742	<2	24.806	18	33.118	7.1	
B07C0129	22-04-1985	C1985-04-1081		nee	302.0	402.0	22-04-1985	282	1188		440.92	1.79	475	20.2	210	55	1.98	3.225	.033	.222	540	224	3.377	18	9.298	7.7	
B07C0129	22-04-1985	C1985-04-1082		nee	1453.0	1553.0	22-04-1985	571	9030		2366.93	.75	2316	129.7	189	341	.93	31.218	0	.044	4430	3	29.165	18	28.273	7.2	
B07C0129	22-04-1985	C1985-04-1083		nee	7903.0	8003.0	22-04-1985	529	8420		2272.67	23.9	1058	98	207	486	.93	11.352	0	.089	4375	626	2.517	18	33.19	7.2	
