LOCATIE gegevens
NITG-nr	X-coord	Y-coord	Coordinaat systeem	Kaartblad	Bepaling locatie	Maaiveldhoogte (m tov NAP)	Bepaling maaiveldhoogte	OLGA-nr	RIVM-nr	Aantal analyses	Meetnet	Indeling	
B07D0118	236780	578400	Rijksdriehoeksmeting	07D		1.75		07DA3118		12			

KWALITEIT gegevens VLOEIBAAR
NITG-nr	Monster datum	Monster-nr	Monster apparatuur	Mengmonster	Bovenkant monster (cm tov MV)	Onderkant monster (cm tov MV)	Analyse datum	Cl- (mg/l)	TEMP-V (C)	
B07D0118		C1926-11-1004		nee	5625.0	6275.0	01-11-1926	97.2	0	
B07D0118		C1926-11-1026		nee	5625.0	6275.0	15-11-1926	100.3	0	
B07D0118		C1926-11-1051		nee	5625.0	6275.0	29-11-1926	91.1	0	
B07D0118		C1926-12-1019		nee	5625.0	6275.0	13-12-1926	88.5	0	
B07D0118		C1926-12-1038		nee	5625.0	6275.0	27-12-1926	89.5	0	
B07D0118		C1927-06-1011		nee	5625.0	6275.0	08-06-1927	89.6	0	
B07D0118		C1927-03-1030		nee	5625.0	6275.0	14-03-1927	90.4	0	
B07D0118		C1927-03-1061		nee	5625.0	6275.0	29-03-1927	158	0	
B07D0118		C1927-04-1032		nee	5625.0	6275.0	11-04-1927	94	0	
B07D0118		C1927-04-1062		nee	5625.0	6275.0	25-04-1927	118.9	0	
B07D0118		C1927-05-1016		nee	5625.0	6275.0	09-05-1927	95.8	0	
B07D0118		C1927-01-1017		nee	5625.0	6275.0	10-01-1927	104.9	0	
