LOCATIE gegevens
NITG-nr	X-coord	Y-coord	Coordinaat systeem	Kaartblad	Bepaling locatie	Maaiveldhoogte (m tov NAP)	Bepaling maaiveldhoogte	OLGA-nr	RIVM-nr	Aantal analyses	Meetnet	Indeling	
B07D0093	237180	577430	Rijksdriehoeksmeting	07D	Geschat, Top. Kaart 1:10.000	0.56		07DA3093		13			

KWALITEIT gegevens VLOEIBAAR
NITG-nr	Monster datum	Monster-nr	Monster apparatuur	Mengmonster	Bovenkant monster (cm tov MV)	Onderkant monster (cm tov MV)	Analyse datum	Cl- (mg/l)	TEMP-V (C)	
B07D0093		C1926-10-1025		nee	6806.0	7456.0	29-10-1926	33.4	0	
B07D0093		C1926-11-1019		nee	6806.0	7456.0	12-11-1926	32.9	0	
B07D0093		C1926-11-1043		nee	6806.0	7456.0	26-11-1926	35	0	
B07D0093		C1926-12-1012		nee	6806.0	7456.0	10-12-1926	35.5	0	
B07D0093		C1926-12-1031		nee	6806.0	7456.0	23-12-1926	38.6	0	
B07D0093		C1927-01-1010		nee	6806.0	7456.0	07-01-1927	33.4	0	
B07D0093		C1927-06-1040		nee	6806.0	7456.0	29-06-1927	55	0	
B07D0093		C1927-03-1052		nee	6806.0	7456.0	25-03-1927	53	0	
B07D0093		C1927-04-1021		nee	6806.0	7456.0	08-04-1927	53.3	0	
B07D0093		C1927-04-1055		nee	6806.0	7456.0	22-04-1927	37.2	0	
B07D0093		C1927-05-1009		nee	6806.0	7456.0	06-05-1927	32.7	0	
B07D0093		C1927-06-1002		nee	6806.0	7456.0	01-06-1927	54.5	0	
B07D0093		C1927-03-1022		nee	6806.0	7456.0	11-03-1927	32.7	0	
