LOCATIE gegevens
NITG-nr	X-coord	Y-coord	Coordinaat systeem	Kaartblad	Bepaling locatie	Maaiveldhoogte (m tov NAP)	Bepaling maaiveldhoogte	OLGA-nr	RIVM-nr	Aantal analyses	Meetnet	Indeling	
B07D0107	237005	577870	Rijksdriehoeksmeting	07D	Geschat, Top. Kaart 1:10.000	1.63		07DB0107		13			

KWALITEIT gegevens VLOEIBAAR
NITG-nr	Monster datum	Monster-nr	Monster apparatuur	Mengmonster	Bovenkant monster (cm tov MV)	Onderkant monster (cm tov MV)	Analyse datum	Cl- (mg/l)	TEMP-V (C)	
B07D0107		C1926-06-1001		nee	5713.0	6363.0	01-06-1926	63.2	0	
B07D0107		C1926-10-1028		nee	5713.0	6363.0	29-10-1926	54.5	0	
B07D0107		C1926-11-1022		nee	5713.0	6363.0	12-11-1926	53.5	0	
B07D0107		C1926-11-1046		nee	5713.0	6363.0	26-11-1926	58.6	0	
B07D0107		C1926-12-1015		nee	5713.0	6363.0	10-12-1926	67.9	0	
B07D0107		C1926-12-1034		nee	5713.0	6363.0	23-12-1926	74.1	0	
B07D0107		C1927-06-1043		nee	5713.0	6363.0	29-06-1927	59.5	0	
B07D0107		C1927-03-1025		nee	5713.0	6363.0	11-03-1927	64.4	0	
B07D0107		C1927-03-1055		nee	5713.0	6363.0	25-03-1927	62.4	0	
B07D0107		C1927-04-1024		nee	5713.0	6363.0	08-04-1927	66.3	0	
B07D0107		C1927-04-1057		nee	5713.0	6363.0	22-04-1927	61.4	0	
B07D0107		C1927-05-1012		nee	5713.0	6363.0	06-05-1927	62.4	0	
B07D0107		C1927-01-1013		nee	5713.0	6363.0	07-01-1927	56.6	0	
