LOCATIE gegevens
NITG-nr	X-coord	Y-coord	Coordinaat systeem	Kaartblad	Bepaling locatie	Maaiveldhoogte (m tov NAP)	Bepaling maaiveldhoogte	OLGA-nr	RIVM-nr	Aantal analyses	Meetnet	Indeling	
B07D0117	236820	578340	Rijksdriehoeksmeting	07D		1.4		07DA3117		14			

KWALITEIT gegevens VLOEIBAAR
NITG-nr	Monster datum	Monster-nr	Monster apparatuur	Mengmonster	Bovenkant monster (cm tov MV)	Onderkant monster (cm tov MV)	Analyse datum	Cl- (mg/l)	TEMP-V (C)	
B07D0117		C1926-10-1018		nee	5740.0	6290.0	25-10-1926	82.3	0	
B07D0117		C1926-11-1014		nee	5740.0	6290.0	08-11-1926	81.4	0	
B07D0117		C1926-11-1038		nee	5740.0	6290.0	22-11-1926	88.6	0	
B07D0117		C1926-12-1007		nee	5740.0	6290.0	06-12-1926	83.2	0	
B07D0117		C1926-12-1027		nee	5740.0	6290.0	20-12-1926	83.2	0	
B07D0117		C1927-01-1005		nee	5740.0	6290.0	03-01-1927	83.2	0	
B07D0117		C1927-06-1031		nee	5740.0	6290.0	22-06-1927	80.4	0	
B07D0117		C1927-03-1012		nee	5740.0	6290.0	07-03-1927	76.2	0	
B07D0117		C1927-03-1046		nee	5740.0	6290.0	21-03-1927	83.4	0	
B07D0117		C1927-04-1011		nee	5740.0	6290.0	04-04-1927	83.4	0	
B07D0117		C1927-04-1048		nee	5740.0	6290.0	19-04-1927	88.7	0	
B07D0117		C1927-05-1003		nee	5740.0	6290.0	02-05-1927	105	0	
B07D0117		C1927-05-1036		nee	5740.0	6290.0	25-05-1927	79.1	0	
B07D0117		C1927-01-1027		nee	5740.0	6290.0	17-01-1927	81.4	0	
