LOCATIE gegevens
NITG-nr	X-coord	Y-coord	Coordinaat systeem	Kaartblad	Bepaling locatie	Maaiveldhoogte (m tov NAP)	Bepaling maaiveldhoogte	OLGA-nr	RIVM-nr	Aantal analyses	Meetnet	Indeling	
B07D0084	236750	578470	Rijksdriehoeksmeting	07D		1.6		07DA3084		13			

KWALITEIT gegevens VLOEIBAAR
NITG-nr	Monster datum	Monster-nr	Monster apparatuur	Mengmonster	Bovenkant monster (cm tov MV)	Onderkant monster (cm tov MV)	Analyse datum	Cl- (mg/l)	TEMP-V (C)	
B07D0084		C1926-10-1016		nee	6260.0	7760.0	25-10-1926	86.8	0	
B07D0084		C1926-11-1012		nee	6260.0	7760.0	08-11-1926	164.6	0	
B07D0084		C1926-11-1036		nee	6260.0	7760.0	22-11-1926	86.8	0	
B07D0084		C1926-12-1005		nee	6260.0	7760.0	06-12-1926	90.4	0	
B07D0084		C1926-12-1025		nee	6260.0	7760.0	20-12-1926	101	0	
B07D0084		C1927-01-1003		nee	6260.0	7760.0	03-01-1927	97.7	0	
B07D0084		C1927-06-1029		nee	6260.0	7760.0	22-06-1927	124	0	
B07D0084		C1927-03-1010		nee	6260.0	7760.0	07-03-1927	76.5	0	
B07D0084		C1927-03-1044		nee	6260.0	7760.0	21-03-1927	120.8	0	
B07D0084		C1927-04-1046		nee	6260.0	7760.0	19-04-1927	120.6	0	
B07D0084		C1927-05-1001		nee	6260.0	7760.0	02-05-1927	88.7	0	
B07D0084		C1927-05-1034		nee	6260.0	7760.0	25-05-1927	86.1	0	
B07D0084		C1927-01-1025		nee	6260.0	7760.0	17-01-1927	57.9	0	
