LOCATIE gegevens
NITG-nr	X-coord	Y-coord	Coordinaat systeem	Kaartblad	Bepaling locatie	Maaiveldhoogte (m tov NAP)	Bepaling maaiveldhoogte	OLGA-nr	RIVM-nr	Aantal analyses	Meetnet	Indeling	
B07E0031	249841	597121	Rijksdriehoeksmeting	07E		0.15		07EP0031		36			

KWALITEIT gegevens VLOEIBAAR
NITG-nr	Monster datum	Monster-nr	Monster apparatuur	Mengmonster	Bovenkant monster (cm tov MV)	Onderkant monster (cm tov MV)	Analyse datum	111CL3EA (ug/l)	112CL3EA (ug/l)	11DCEa (ug/l)	12CL2PA (ug/l)	12DCEa (ug/l)	2,4-D (ug/l)	2,6-dichloorbenzamide BAM (ug/l)	24DNP (ug/l)	24DP (ug/l)	AMPA (ug/l)	Abamectine (ug/l)	Al (ug/l)	As (ug/l)	Atrazine (ug/l)	Ba (ug/l)	Bentazon (ug/l)	Broompropylaat (ug/l)	Buffercapaciteit pH 4.3 (mmol/l)	Bupirimaat (ug/l)	Butocarboxim (ug/l)	Butocarboxim-SO (ug/l)	C-13 (o/oo)	C-14 (o/o)	C-tot (mmol/l)	C12DCEe (ug/l)	CH4Cl2 (ug/l)	CL3MA (ug/l)	CO3-- (mg/l)	Ca (mg/l)	Ca (ug/l)	Carbendazim (ug/l)	Carbetamide (ug/l)	Cd (ug/l)	Chloridazon (ug/l)	Cl- (mg/l)	Cr (ug/l)	Cu (ug/l)	DCBN (ug/l)	DMST (ug/l)	DNOC (ug/l)	DOC (mg/l)	Diazinon (ug/l)	Dicamba (ug/l)	Difenoconazool (ug/l)	Dikegulac-Natrium (ug/l)	EC (mS/m)	EC (uS/cm)	EC-LAB25C (uS/cm)	ECVELD20C (mS/m)	Ethyl-tert-butylether (ETBE) (ug/l)	Etridiazool (ug/l)	Fe (mg/l)	Fe (ug/l)	Fluazifop-p-butyl (ug/l)	Fluroxypyr (ug/l)	GWST_mv (m-mv)	H-3 (TU)	HCO3 (mg/l)	HCO3 (mmol/l)	HCO3-lab (mg/l)	HTI (4-hydroxy-2,5,6-trichloorisoftalonitril (ug/l)	Hexythiazox (ug/l)	Hg (ug/l)	Hg kdamp AFS (ug/l)	Imazalil (ug/l)	K (mg/l)	K (ug/l)	KMNO4V-O (mg/l)	MCPA (ug/l)	MCPP (ug/l)	Methyl tert-butylether (ug/l)	Metolachloor (R/S) (ug/l)	Mg (mg/l)	Mg (ug/l)	Mn (mg/l)	Mn (ug/l)	NH4 (mg/l)	NH4 (mgN/l)	NH4-N (mgN/l)	NO2 (mg/l)	NO2 (mgN/l)	NO3 (mg/l)	NO3 (mgN/l)	NO3-N (mgN/l)	Na (mg/l)	Na (ug/l)	Ni (ug/l)	O-18 (o/oo)	O2 (mg/l)	Pb (ug/l)	Pencycuron (ug/l)	Pirimifos-methyl (ug/l)	Propiconazool (ug/l)	Ptot (mgP/l)	SO4 (mg/l)	Simazine (ug/l)	Sr (ug/l)	T-PO4 (mg/l)	T-isotopen (C)	T12CL2EE (ug/l)	T4CEe (ug/l)	T4CMa (ug/l)	TCEe (ug/l)	TEMP-ECVELD20C (C)	TEMP-V (C)	TEMP-pH_veld (C)	TIJDH (mmol/l)	TOTH (mmol/l)	Temp-lab (C)	Terbutylazin (ug/l)	Terbutylazine (ug/l)	Totaal-Fosfaat (mgP/l)	Vinczln (ug/l)	Zn (ug/l)	aldicarb (ug/l)	aldicarbsulfon (ug/l)	aldicarbsulfoxide (ug/l)	bifenox (ug/l)	bromacil (ug/l)	carbaryl (ug/l)	carbendazim (ug/l)	carbofuran (ug/l)	chloorprofam (ug/l)	chloortoluron (ug/l)	chloridazon (ug/l)	clopyralid (ug/l)	cycloxydim (ug/l)	desethylatrazine (ug/l)	dichlobenil (ug/l)	diethyltoluamide (DEET) (ug/l)	diethyltoluamide (ug/l)	dimethoaat (ug/l)	diuron (ug/l)	ethiofencarb (ug/l)	ethofumesaat (ug/l)	ethoprofos (ug/l)	fenamifos (ug/l)	fluroxypyr (ug/l)	flutolanil (ug/l)	furalaxyl (ug/l)	glyfosaat (ug/l)	imidacloprid (ug/l)	isoproturon (ug/l)	linuron (ug/l)	metalaxyl (ug/l)	metamitron (ug/l)	metazachloor (ug/l)	methabenzthiazuron (ug/l)	methiocarb (ug/l)	methiocarbsulfon (ug/l)	methomyl (ug/l)	metolachloor (ug/l)	metoxuron (ug/l)	metribuzin (ug/l)	metsulfuron-methyl (ug/l)	monuron (ug/l)	nicosulfuron (ug/l)	opgz-t (mg/l)	oxamyl (ug/l)	pH (-)	pH-lab (-)	pH-veld (-)	pencycuron (ug/l)	pirimicarb (ug/l)	prochloraz (ug/l)	procymidon (ug/l)	propachloor (ug/l)	propoxur (ug/l)	propyzamide (ug/l)	prosulfocarb (ug/l)	pyrimethanil (ug/l)	rimsulfuron (ug/l)	simazine (ug/l)	som C+T dichlooretheen (ug/l)	som chlooralifaten (ug/l)	tebuconazool (ug/l)	tolclofos-methyl (ug/l)	triadimenol (ug/l)	triclopyr (ug/l)	triflusulfuron-methyl (ug/l)	
B07E0031		C1991-06-1105		nee	6211.0	6311.0	11-06-1991																																			166																																																																																																																																																		
B07E0031		C1990-05-1357		nee	6211.0	6311.0	30-05-1990																																			174																																																																																																																																																		
B07E0031		C1980-07-1149		nee	809.0	909.0	25-07-1980																																			6300																																																																																																																																																		
B07E0031		C1990-05-1356		nee	809.0	909.0	30-05-1990																																			3470																																																																																																																																																		
B07E0031		C1989-06-1020		nee	809.0	909.0	02-06-1989																																			3837																																																																																																																																																		
B07E0031		C1991-06-1104		nee	809.0	909.0	11-06-1991																																			1556																																																																																																																																																		
B07E0031		C1986-10-1414		nee	6211.0	6311.0	30-10-1986																																			165																																																																																																																																																		
B07E0031		C1987-05-1011		nee	6211.0	6311.0	04-05-1987																													46.3						169											1099.7																																				0																							18																																																																												
B07E0031		C1988-06-1023		nee	6211.0	6311.0	02-06-1988																																			166																																																																																																																																																		
B07E0031		C1983-03-1032		nee	6211.0	6311.0	07-03-1983																													54						245											1278.8						3.88																														.1																							18																																																																												
B07E0031		C1981-07-1067		nee	6211.0	6311.0	09-07-1981																																			169																																																																																																																																																		
B07E0031		C1982-09-1006		nee	6211.0	6311.0	01-09-1982																																			164																																																																																																																																																		
B07E0031		C1985-07-1065		nee	6211.0	6311.0	03-07-1985																																			167																																																																																																																																																		
B07E0031		C1984-05-1239		nee	809.0	909.0	25-05-1984																																			5316																																																																																																																																																		
B07E0031		C1985-07-1064		nee	809.0	909.0	03-07-1985																																			4660																																																																																																																																																		
B07E0031		C1982-09-1005		nee	809.0	909.0	01-09-1982																																			4750																																																																																																																																																		
B07E0031		C1981-07-1066		nee	809.0	909.0	09-07-1981																																			6000																																																																																																																																																		
B07E0031		C1983-03-1031		nee	809.0	909.0	07-03-1983																													293						5430																	9.28																														.13																																																																																																			
B07E0031		C1988-06-1022		nee	809.0	909.0	02-06-1988																																			4278																																																																																																																																																		
B07E0031		C1987-05-1010		nee	809.0	909.0	04-05-1987																													212						4488																																															.04																																																																																																			
B07E0031		C1986-10-1413		nee	809.0	909.0	30-10-1986																																			4410																																																																																																																																																		
B07E0031		C1984-05-1240		nee	6211.0	6311.0	25-05-1984																																			169																																																																																																																																																		
B07E0031		C1978-01-1041		nee	809.0	909.0	27-01-1978																						-7.5		28.68				0	499						7400												1892.92					17.69					<1.2	2000								64.3		202.3					459		3.17		15			.01		.03			3835			-6.9							53.97			7.49	9.9						18		33.05	30.762																																																				7.1																					
B07E0031		C1979-07-1026		nee	809.0	909.0	23-07-1979																																			6500																																																																																																																																																		
B07E0031		C1978-01-1042		nee	6211.0	6311.0	27-01-1978																						-14.9	5.3	6.31				0	57.6						173												112.8					3.8					<1.6	444								4.5		45.6					13.2		.87		1.9			.01		.03			177			-6.74							37.08			.9	9.8						18		4.14	2.07																																																				7.5																					
B07E0031		C1979-07-1027		nee	6211.0	6311.0	23-07-1979																																			165																																																																																																																																																		
B07E0031		C1978-12-1005		nee	6211.0	6311.0	04-12-1978																													53						169											1078.7						3.2																																																					18																																																																												
B07E0031		C1976-06-1038		nee	6211.0	6311.0	23-06-1976																													44						180											911.2						1.4																																																					18																																																																												
B07E0031		C1980-07-1150		nee	6211.0	6311.0	25-07-1980																																			174																																																																																																																																																		
B07E0031		C1989-06-1021		nee	6211.0	6311.0	02-06-1989																																			152																																																																																																																																																		
B07E0031	01-05-2012	L2012-05-0042		nee	814.0	914.0	01-05-2012												35.5901	9.533					20.289										<6		278575			<.1		3703.127	2.608	<.15											11194.5					12404.8							1237.629			.04106				59560							175801		465.403		7					<.05			2110330	<.1			<.12				4.7479	<1														21.8					6.325																																															7.63																				
B07E0031	01-05-2012	L2012-05-0009		nee	6216.0	6316.0	01-05-2012				<.1		<.025	<.03		<.025	<.05				<.03		<.025	<.05				<.03										<.03	<.03		<.03					<.05				<.01	<.03	<.05					<.1				<.03	<.01														<.025	<.025	<.1	<.025																				<.03				<.01															<.025				<.03	<.03	<.03	<.01	<.03			<.03		<.025		<.03		<.03	<.03	<.03		<.03	<.025		<.025	<.03	<.03		<.03		<.05		<.025	<.025	<.03		<.025		<.03				<.025	<.03	<.025	<.03	<.025						<.03			<.03	<.03	<.03	<.03	<.03		<.025				<.03		<.03	<.01	<.03	
B07E0031	01-05-2012	L2012-05-0008		nee	814.0	914.0	01-05-2012				<.1		<.025	<.03		<.025	<.05		35.5901	9.533	<.03		<.025	<.05	20.289			<.03							<6		278575	<.03	<.03	<.1	<.03	3703.127	2.608	<.15		<.05				<.01	<.03	<.05			11194.5		<.1			12404.8	<.03	<.01					1237.629			.04106				59560		<.025	<.025	<.1	<.025		175801		465.403		7					<.05			2110330	<.1			<.12		<.03		4.7479	<1	<.01													21.8		<.025			6.325	<.03	<.03	<.03	<.01	<.03			<.03		<.025		<.03		<.03	<.03	<.03		<.03	<.025		<.025	<.03	<.03		<.03		<.05		<.025	<.025	<.03		<.025		<.03				<.025	<.03	<.025	<.03	<.025				7.63		<.03			<.03	<.03	<.03	<.03	<.03		<.025				<.03		<.03	<.01	<.03	
B07E0031	06-07-2010	L2010-07-0004	Slangenpomp	nee	6216.0	6316.0	06-07-2010												<5	30		95														57				<.1		170	<1	<5				10.4								104			3.5				.63		410	6.79							3.3							13.4		.11		1.8		1.38				<.5	<.1	168		<1		<.5	<1					<.5		540							11.8		11.9		1.97				.85		<10																																												837				7.6																			
B07E0031	06-07-2010	L2010-07-0004	Slangenpomp	nee	6216.0	6316.0	06-07-2010																																																																<.02																																																																																																																					
B07E0031	06-07-2010	L2010-07-0003	Slangenpomp	nee	814.0	914.0	06-07-2010												48	8		420														199				<.1		3000	6	<5				49								93.8			8.7				1.7		690	11.3							53.3							140.4		.32		8		6.3				<.5	<.1	1793		<1		<.5	<1					1		2000							11.4		11.5		10.8				10		<10																																												5890				7.2																			
B07E0031	06-07-2010	L2010-07-0003	Slangenpomp	nee	814.0	914.0	06-07-2010																																																																<.02																																																																																																																					
B07E0031	22-09-2009	L2009-09-0068	Slangenpomp	nee	814.0	914.0	22-09-2009												65	<1		360														187				<.1		3000	<1	<5				46								894			8.4						<10	<.1				<.02			58.4							146.8		.36		9.4		7.3				<.5	<.1	1790		<1		<.5	<1					.9		1900							11.6		12.4		10.7				15		<10																																												5260				7.2																			
B07E0031	22-09-2009	L2009-09-0068	Slangenpomp	nee	814.0	914.0	22-09-2009																																																																<.02																																																																																																																					
B07E0031	30-07-2008	L2008-07-0006	Slangenpomp	nee	819.0	919.0	30-07-2008												50	11		520														244				<.1		3200		6				46					983						11.6						1300	21.3				<.02			57.6							166.7			464	8		6.2			<.5	<.1		1989		5		<.5	<1				4.8	1.5		2500											12.9						<10																																														7.09																					
B07E0031	23-08-2007	L2007-08-0009	Slangenpomp	nee	819.0	919.0	23-08-2007																																			2700																																																																																																																																																		
B07E0031	23-08-2007	L2007-08-0008	Slangenpomp	nee	6221.0	6321.0	23-08-2007																																			170																																																																																																																																																		
B07E0031	03-05-2006	L2006-05-0199	Slangenpomp	nee	819.0	919.0	03-05-2006	<.1	<.1	<.5	<.5	<.5	<.05		<.05		<.2	<.01	<50	28	<.01		<.01	<.01		<.02	<.05	<.05				<.5	<1	<.1		60				<.1		170		7	<.05	<.03	<.02		<.01									<.05							430			<.01	<.02	<.02		<.01	3.7			<.05				15			100			1.4		<.01		<.05		200		5			<1	<.01	<.01	<.03		<1					<.5	<.1	<.1	<.1							<.01		<.05	<.02	400	<.05	<.05	<.05			<.05	<.02	<.05	<.02		<.02		<.05				<.01	<.01	<.01	<.05	<.01		<.05	<.05	<.01	<.01	<.2	<.05	<.01	<.01	<.02	<.02	<.01	<.01	<.05	<.05	<.05	<.01	<.01						<.05					<.01	<.2	<.01		<.05	<.01	<.01	<.01		<.01	<.5	<2.1	<.02	<.01				
B07E0031	24-08-2005	T2005-00-4366		nee	6221.0	6321.0	24-08-2005																																			168.8																																																																																																																																																		
B07E0031	24-08-2005	T2005-00-4365		nee	819.0	919.0	24-08-2005																																			2462																																																																																																																																																		
B07E0031	09-06-1999	T1999-00-2518		nee	823.0	923.0	09-06-1999																																			3740																																																																																																																																																		
B07E0031	09-06-1999	T1999-00-2519		nee	6225.0	6325.0	09-06-1999																																			179																																																																																																																																																		
B07E0031	05-06-1997	C1997-06-1112		nee	823.0	923.0	05-06-1997																																			3400																																																																						20																																																																												
B07E0031	05-06-1997	C1997-06-1113		nee	6225.0	6325.0	05-06-1997																																			175																																																																						20																																																																												
