LOCATIE gegevens
NITG-nr	X-coord	Y-coord	Coordinaat systeem	Kaartblad	Bepaling locatie	Maaiveldhoogte (m tov NAP)	Bepaling maaiveldhoogte	OLGA-nr	RIVM-nr	Aantal analyses	Meetnet	Indeling	
B07E0029	242489	594992	Rijksdriehoeksmeting	07E	GPS (Global Positioning System)	0.743		07EP0029		31			

KWALITEIT gegevens VLOEIBAAR
NITG-nr	Monster datum	Monster-nr	Monster apparatuur	Mengmonster	Bovenkant monster (cm tov MV)	Onderkant monster (cm tov MV)	Analyse datum	CO2 (mg/l)	Ca (mg/l)	Cl- (mg/l)	EC (uS/cm)	Fe (mg/l)	HCO3 (mg/l)	K (mg/l)	KMNO4V-O (mg/l)	Mg (mg/l)	Mn (mg/l)	NH4 (mg/l)	NO2 (mg/l)	NO3 (mg/l)	Na (mg/l)	SO4 (mg/l)	T-PO4 (mg/l)	TEMP-V (C)	TIJDH (mmol/l)	TOTH (mmol/l)	pH (-)	
B07E0029		C1983-03-1027		nee	1570.0	1670.0001	07-03-1983		272	5310		1.92								.31								
B07E0029		C1981-07-1062		nee	1570.0	1670.0001	09-07-1981			4800																		
B07E0029		C1990-05-1381		nee	4774.0	4874.0	31-05-1990			7250																		
B07E0029		C1989-06-1019		nee	4774.0	4874.0	02-06-1989			7150																		
B07E0029		C1991-06-1180		nee	4774.0	4874.0	17-06-1991			7379																		
B07E0029		C1987-05-1006		nee	1570.0	1670.0001	04-05-1987		242	5766										.04								
B07E0029		C1986-10-1409		nee	1570.0	1670.0001	30-10-1986			6117																		
B07E0029		C1982-09-1001		nee	1570.0	1670.0001	01-09-1982			4820																		
B07E0029		C1984-05-1236		nee	4774.0	4874.0	25-05-1984			7530																		
B07E0029		C1985-07-1061		nee	4774.0	4874.0	03-07-1985			7140																		
B07E0029		C1982-09-1002		nee	4774.0	4874.0	01-09-1982			6490																		
B07E0029		C1981-07-1063		nee	4774.0	4874.0	09-07-1981			7500																		
B07E0029		C1983-03-1028		nee	4774.0	4874.0	07-03-1983		242	6705		4.73								.18								
B07E0029		C1988-06-1019		nee	4774.0	4874.0	02-06-1988			7460																		
B07E0029		C1987-05-1007		nee	4774.0	4874.0	04-05-1987		807	7180										.4								
B07E0029		C1986-10-1410		nee	4774.0	4874.0	30-10-1986			7000																		
B07E0029		C1979-07-1025		nee	4774.0	4874.0	23-07-1979			4700																		
B07E0029		C1979-07-1024		nee	1570.0	1670.0001	23-07-1979			7300																		
B07E0029		C1990-05-1380		nee	1570.0	1670.0001	31-05-1990			5099																		
B07E0029		C1989-06-1018		nee	1570.0	1670.0001	02-06-1989			4941																		
B07E0029		C1991-06-1179		nee	1570.0	1670.0001	17-06-1991			5874																		
B07E0029		C1988-06-1018		nee	1570.0	1670.0001	02-06-1988			5670																		
B07E0029		C1984-05-1235		nee	1570.0	1670.0001	25-05-1984			5805																		
B07E0029		C1985-07-1060		nee	1570.0	1670.0001	03-07-1985			5490																		
B07E0029	31-08-2005	T2005-00-4361		nee	1582.0	1682.0	31-08-2005			5340																		
B07E0029	31-08-2005	T2005-00-4362		nee	4786.0	4886.0	31-08-2005			7210																		
B07E0029	15-09-2000	T2000-00-2720		nee	1582.0	1682.0	15-09-2000			5390																		
B07E0029	15-09-2000	T2000-00-2721		nee	4786.0	4886.0	15-09-2000			7130																		
B07E0029	05-06-1998	C1998-06-1050		nee	1576.0	1676.0	05-06-1998			7940																		
B07E0029	04-06-1998	C1998-06-1023		nee	4780.0	4880.0	04-06-1998			10000																		
B07E0029	26-06-1976	C1976-06-1050		nee	4799.0	4899.0	26-06-1976	500	1100	6850	1759.49	7.9	549	28	16.3	315	.67	12.3	.03	.18	2880	322	1.4	18	9.07	27.72	6.78	
