LOCATIE gegevens
NITG-nr	X-coord	Y-coord	Coordinaat systeem	Kaartblad	Bepaling locatie	Maaiveldhoogte (m tov NAP)	Bepaling maaiveldhoogte	OLGA-nr	RIVM-nr	Aantal analyses	Meetnet	Indeling	
B07G0024	246510	575859	Rijksdriehoeksmeting	07G		0.4		07GA3024		1			

KWALITEIT gegevens VLOEIBAAR
NITG-nr	Monster datum	Monster-nr	Monster apparatuur	Mengmonster	Bovenkant monster (cm tov MV)	Onderkant monster (cm tov MV)	Analyse datum	CO2 (mg/l)	CO3-- (mg/l)	Ca (mg/l)	Cl- (mg/l)	EC (uS/cm)	Fe (mg/l)	H2S (mg/l)	HCO3 (mg/l)	KMNO4V-G (mg/l)	KMNO4V-O (mg/l)	Mg (mg/l)	Mn (mg/l)	NH4 (mg/l)	NH4-ORG (mg/l)	NO3 (mg/l)	Na (mg/l)	NaHCO3 (mg/l)	SO4 (mg/l)	SiO2 (mg/l)	T-O2 (C)	T-PO4 (mg/l)	TEMP-V (C)	TIJDH (mmol/l)	TOTH (mmol/l)	
B07G0024	31-03-1916	C1916-03-1026		nee	4000.0	4500.0	31-03-1916	72	0	53.8	37	42.21	13.2	0	204	145	156	5.7	1.17	7	0	0	28.7	0	26.7	24	0	0	18	3.18	1.593	
