LOCATIE gegevens
NITG-nr	X-coord	Y-coord	Coordinaat systeem	Kaartblad	Bepaling locatie	Maaiveldhoogte (m tov NAP)	Bepaling maaiveldhoogte	OLGA-nr	RIVM-nr	Aantal analyses	Meetnet	Indeling	
B07H0082	259653	578841	Rijksdriehoeksmeting	07H		-0.17		07HP0082		52			

KWALITEIT gegevens VLOEIBAAR
NITG-nr	Monster datum	Monster-nr	Monster apparatuur	Mengmonster	Bovenkant monster (cm tov MV)	Onderkant monster (cm tov MV)	Analyse datum	CO2 (mg/l)	Ca (mg/l)	Cl- (mg/l)	EC (uS/cm)	Fe (mg/l)	HCO3 (mg/l)	K (mg/l)	KMNO4V-O (mg/l)	Mg (mg/l)	Mn (mg/l)	NH4 (mg/l)	NO2 (mg/l)	NO3 (mg/l)	Na (mg/l)	SO4 (mg/l)	T-PO4 (mg/l)	TEMP-V (C)	TIJDH (mmol/l)	TOTH (mmol/l)	pH (-)	
B07H0082		C1987-10-1143		nee	180.0	280.0	19-10-1987			34																		
B07H0082		C1985-06-1230		nee	180.0	280.0	20-06-1985			13																		
B07H0082		C1980-07-1154		nee	3380.0	3480.0	25-07-1980			85																		
B07H0082		C1990-05-1296		nee	3380.0	3480.0	22-05-1990			104																		
B07H0082		C1989-05-1539		nee	3380.0	3480.0	31-05-1989			97																		
B07H0082		C1991-06-1047		nee	3380.0	3480.0	06-06-1991			78																		
B07H0082		C1979-08-1038		nee	3380.0	3480.0	10-08-1979			74																		
B07H0082		C1988-05-1615		nee	180.0	280.0	30-05-1988			10																		
B07H0082		C1991-06-1046		nee	180.0	280.0	06-06-1991			40																		
B07H0082		C1989-05-1538		nee	180.0	280.0	31-05-1989			15																		
B07H0082		C1990-05-1295		nee	180.0	280.0	22-05-1990			10																		
B07H0082		C1980-07-1153		nee	180.0	280.0	25-07-1980			56																		
B07H0082		C1979-08-1037		nee	180.0	280.0	10-08-1979			71																		
B07H0082		C1986-10-1375		nee	7080.0005	7180.0005	24-10-1986			107																		
B07H0082		C1985-11-1006		nee	7080.0005	7180.0005	04-11-1985		68.2	111	102.43	5.36								.03				18				
B07H0082		C1987-10-1145		nee	7080.0005	7180.0005	19-10-1987			109																		
B07H0082		C1984-05-1208		nee	3380.0	3480.0	22-05-1984			104																		
B07H0082		C1985-06-1231		nee	3380.0	3480.0	20-06-1985			102																		
B07H0082		C1982-08-1092		nee	3380.0	3480.0	25-08-1982			104																		
B07H0082		C1983-02-1009		nee	3380.0	3480.0	07-02-1983		103	102	56.87	14.2								.17				18				
B07H0082		C1988-05-1616		nee	3380.0	3480.0	30-05-1988			87																		
B07H0082		C1988-06-1041		nee	3380.0	3480.0	06-06-1988		114.5	90	82.21	13.42								.03				18				
B07H0082		C1987-10-1144		nee	3380.0	3480.0	19-10-1987			116																		
B07H0082		C1985-11-1005		nee	3380.0	3480.0	04-11-1985		79.9	99	85.25	13.57								.03				18				
B07H0082		C1986-10-1374		nee	3380.0	3480.0	24-10-1986			115																		
B07H0082		C1979-08-1039		nee	7080.0005	7180.0005	10-08-1979			120																		
B07H0082		C1986-10-1373		nee	180.0	280.0	24-10-1986			26																		
B07H0082		C1980-07-1155		nee	7080.0005	7180.0005	25-07-1980			115																		
B07H0082		C1990-05-1297		nee	7080.0005	7180.0005	22-05-1990			111																		
B07H0082		C1989-05-1540		nee	7080.0005	7180.0005	31-05-1989			104																		
B07H0082		C1991-06-1048		nee	7080.0005	7180.0005	06-06-1991			104																		
B07H0082		C1984-05-1209		nee	7080.0005	7180.0005	22-05-1984			109																		
B07H0082		C1985-06-1232		nee	7080.0005	7180.0005	20-06-1985			110																		
B07H0082		C1982-08-1093		nee	7080.0005	7180.0005	25-08-1982			115																		
B07H0082		C1981-06-1158		nee	7080.0005	7180.0005	25-06-1981			111																		
B07H0082		C1983-02-1010		nee	7080.0005	7180.0005	07-02-1983		87	114	101.38	6.54								.17				18				
B07H0082		C1988-05-1617		nee	7080.0005	7180.0005	30-05-1988			107																		
B07H0082		C1988-06-1042		nee	7080.0005	7180.0005	06-06-1988		102	112	102.22	4.89								.02				18				
B07H0082	03-08-2005	T2005-00-4413		nee	3397.0	3497.0	03-08-2005			117																		
B07H0082	03-08-2005	T2005-00-4414		nee	7097.0	7197.0	03-08-2005			111																		
B07H0082	03-08-2005	T2005-00-4412		nee	197.0	297.0	03-08-2005			29																		
B07H0082	04-06-2003	T2003-00-0113		nee	197.0	297.0	04-06-2003			28																		
B07H0082	04-06-2003	T2003-00-0115		nee	7097.0	7197.0	04-06-2003			110																		
B07H0082	04-06-2003	T2003-00-0114		nee	3397.0	3497.0	04-06-2003			120																		
B07H0082	20-05-1999	T1999-00-2556		nee	3402.0	3502.0	20-05-1999			131																		
B07H0082	20-05-1999	T1999-00-2557		nee	7102.0	7202.0	20-05-1999			114																		
B07H0082	20-05-1999	T1999-00-2555		nee	202.0	302.0	20-05-1999			12																		
B07H0082	24-06-1997	C1997-06-1401		nee	202.0	302.0	24-06-1997			14														20				
B07H0082	24-06-1997	C1997-06-1402		nee	3402.0	3502.0	24-06-1997			115														20				
B07H0082	24-06-1997	C1997-06-1403		nee	7102.0	7202.0	24-06-1997			110														20				
B07H0082	12-03-1976	C1976-03-1028		nee	3400.0	3500.0	12-03-1976	25	65.6	240	108.5	.46	182	8.8	50.4	13.9	.07	1.8	.23	1.2	154	148	1.2	18	2.98	2.178	7.8	
B07H0082	12-03-1976	C1976-03-1029		nee	7100.0	7200.0	12-03-1976	40	81.5	126	95.62	.72	484	6.7	19.1	16.6	.21	1.5	.05	.2	121	17.5	.9	18	5.47	2.736	7.7	
