LOCATIE gegevens
NITG-nr	X-coord	Y-coord	Coordinaat systeem	Kaartblad	Bepaling locatie	Maaiveldhoogte (m tov NAP)	Bepaling maaiveldhoogte	OLGA-nr	RIVM-nr	Aantal analyses	Meetnet	Indeling	
B12B0175	236890	573290	Rijksdriehoeksmeting	12B		1.0		12BA3175	1544	21			

KWALITEIT gegevens VLOEIBAAR
NITG-nr	Monster datum	Monster-nr	Monster apparatuur	Mengmonster	Bovenkant monster (cm tov MV)	Onderkant monster (cm tov MV)	Analyse datum	Al (mg/l)	Al (mg/m3)	Al (ug/l)	As (mg/m3)	As (ug/l)	Ba (mg/m3)	Ba (ug/l)	Buffercapaciteit pH 4.3 (mmol/l)	CO3-- (mg/l)	Ca (g/m3)	Ca (mg/l)	Ca (ug/l)	Cd (mg/m3)	Cd (ug/l)	Cl- (g/m3)	Cl- (mg/l)	Cr (mg/m3)	Cr (ug/l)	Cu (mg/m3)	Cu (ug/l)	DOC (g/m3)	DOC (mg/l)	EC (mS/m)	EC-5 (mS/m)	EC-LAB25C (uS/cm)	ECVELD20C (mS/m)	Fe (g/m3)	Fe (mg/l)	Fe (ug/l)	GWST_mv (m-mv)	HCO3 (g/m3)	HCO3 (mg/l)	HCO3 (mmol/l)	HCO3-Veld (g/m3)	HCO3-Veld (mg/l)	HCO3-lab (mg/l)	Hg (mg/m3)	Hg (ug/l)	Hg kdamp AFS (ug/l)	K (g/m3)	K (mg/l)	K (ug/l)	Mg (g/m3)	Mg (mg/l)	Mg (ug/l)	Mn (g/m3)	Mn (mg/l)	Mn (ug/l)	NH4 (gN/m3)	NH4 (mg/l)	NH4 (mgN/l)	NH4-N (mgN/l)	NH4som (mg/l)	NO3 (gN/m3)	NO3 (mg/l)	NO3 (mgN/l)	NO3-N (mgN/l)	NO3som (mg/l)	Na (g/m3)	Na (mg/l)	Na (ug/l)	Ni (mg/m3)	Ni (ug/l)	O2 (mg/l)	Pb (mg/m3)	Pb (ug/l)	Ptot (mgP/l)	SO4 (g/m3)	SO4 (mg/l)	Sr (mg/l)	Sr (mg/m3)	Sr (ug/l)	T-5 (C)	T-PO4 (gP/m3)	T-PO4 (mg/l)	TEMP-ECVELD20C (C)	TEMP-V (C)	TEMP-pH_veld (C)	TOC (g/m3)	TOC (mg/l)	TOTH (mmol/l)	Temp-lab (C)	Totaal-Fosfaat (mgP/l)	Zn (mg/m3)	Zn (ug/l)	opgz-t (mg/l)	pH (-)	pH-5 (-)	pH-lab (-)	pH-veld (-)	stijgh_mv (m-mv)	
B12B0175	18-04-2012	L2012-04-0034		nee			18-04-2012			<10		1.908			2.962	<6			48242.3		<.1		31.588		.295		<.15					390				4032.975							180.682		<.03				3573.998			5015.927			460.238			1.567					.2109					17548.1		.19			<.12	.5023452		<1													21			<2				7.4			
B12B0175	18-06-2010	L2010-06-0001	Slangenpomp	nee			18-06-2010			<5		2		51				53.7			<.1		29		<1		<5		10.9				37.3		4.2		1.7		200	3.23								3.3			5.15			.44			2		1.56				<.5	<.1			17			<1	<.5		<1			3.7			190				10.8		11.2			1.55		.51		<10	317				7.2		
B12B0175	18-06-2010	L2010-06-0001	Slangenpomp	nee			18-06-2010																																							<.02																																																					
B12B0175	29-06-2009	L2009-06-0012	Slangenpomp	nee			29-06-2009			<5		6		43				62.1			<.1		36		<1		<5		4				39		10.3				200	3.26					.07			1.4			4			.55			.13		.1				<.5	<.1			13.2			<1	<.5		<1			<.5			180				13.3		14.1			1.71		.98		32	329				7.3		
B12B0175	29-06-2009	L2009-06-0012	Slangenpomp	nee			29-06-2009																																							<.02																																																					
B12B0175	29-06-2009	L2009-06-0011	Slangenpomp	nee			29-06-2009			<5		2		40				51.1			<.1		27		<1		<5		10.4				32.8		3.9				170	2.77					<.02			3			4.9			.37			2.1		1.63				<.5	<.1			16.6			<1	<.5		<1			6.1			170				13.2		13.3			1.48		.46		<10	286				7.3		
B12B0175	29-06-2009	L2009-06-0011	Slangenpomp	nee			29-06-2009																																							<.02																																																					
B12B0175	23-06-2008	L2008-06-0014	Slangenpomp	nee			23-06-2008			<5		2		47				56.5			<.1		28				<1		10.7	42.2					4.1				210	3.39					<.02			3.5			5.45				535		1.9		1.47			<.5	<.1				17.1			<1	<.5		<1	.51		4.9			190									1.63				<10		7.14					
B12B0175	27-06-2005	L2005-06-0033		nee			27-06-2005			<5		6		53				57.7			.3		37		<1		<5		4				33.5		9				175	2.87					<.02			1.4			3.64			.59				.08		.11			<.15		<.6		13.9			<1			<1	.29		<.5			160									1.59				37					7.68		
B12B0175	27-06-2005	L2005-06-0033		nee			27-06-2005																																																																<.5																												
B12B0175	27-06-2005	L2005-06-0032		nee			27-06-2005			<5		2		48				59.4			.5		34		<1		<5		9.4				41.7		4.1				206	3.37					<.02			3.6			5.72			.51				1.42		1.8			<.15		<.6		17.8			<1			<1	.43		4.2			190									1.72				15					7.13		
B12B0175	27-06-2005	L2005-06-0032		nee			27-06-2005																																																																<.5																												
B12B0175	26-05-2004	L2004-05-7536		nee			26-05-2004																																																																<.5																												
B12B0175	26-05-2004	L2004-05-7536		nee			26-05-2004			<5		2		42				58.7			<.2		28		<1		<5		9				37.6		4.1				207	3.39					<.02			3.4			5.8			.528				1.66		2.1			<.2		<.6		18.1			<1			<1	.44		2			180									1.7				<10					7.13		
B12B0175	03-04-2003	L2003-04-0065		nee			03-04-2003																																																																																										7.18		
B12B0175	03-04-2003	L2003-04-0065		nee			03-04-2003																																																																<.5																												
B12B0175	03-04-2003	L2003-04-0065		nee			03-04-2003																																						<.02																																																						
B12B0175	03-04-2003	L2003-04-0065		nee			03-04-2003																						8.6																																																																						
B12B0175	03-04-2003	L2003-04-0065		nee			03-04-2003			7		2		46				58.2			<.2				<1		<5						39		3.9													3.2			5.6			.46				1.63		2.1			<.2		<.6		17.5			<1			<1			1			190													<10							
B12B0175	03-04-2003	L2003-04-0065		nee			03-04-2003																29																																																			.32																									
B12B0175	03-04-2003	L2003-04-0065		nee			03-04-2003																																221	3.62																																																											
B12B0175	27-08-2002	L2002-08-0028		nee			27-08-2002																																						<.02																																																						
B12B0175	27-08-2002	L2002-08-0028		nee			27-08-2002																																																																<.5																												
B12B0175	27-08-2002	L2002-08-0028		nee			27-08-2002			7.29		2.53		47.63				61.42			<.2		31.3		<1		<5		7.48				39.5						220.85	3.62								2.99			5.86			.43				1.68		2.16			<.2		<.6		17.92			<1				.39		.94																					7.29		
B12B0175	27-08-2002	L2002-08-0028		nee			27-08-2002																																																																		<1						207.1													<10							
B12B0175	27-08-2002	L2002-08-0028		nee			27-08-2002																												5.34																																																																
B12B0175	01-01-2001	L2001-01-7232		nee			01-01-2001			<5		1.545		46.07898				61.13193			<.2		28.5		<1		<5		8.84	39.4					3.79638				224.23	3.67590164					<.02			3.32465			5.8151			.46145				1.34088889		1.724			<.12		<.5		18.47134			<1	<.5		<2	.31		1.35	.185											1.76450305				<1		7.12					
B12B0175	01-01-2001	L2001-01-7233		nee			01-01-2001			<5		8.985		56.46907				55.91959			<.2		33.5		<1		<5		3.61	36.4					9.35246				190.57	3.12409836					<.02			1.24704			3.46398			.63888				.08827778		.1135			<.12		<.5		15.82477			<1	<.5		<2	.45		<.5	.1452											1.53772064				42.4643		7.26					
B12B0175	04-07-2000	C2000-07-8011		nee			04-07-2000		<5		<2		50				61			<0.1		29		<1		<1		7.8			42			5.3				226						<0.02			3.4			6			0.53			1.5					<0.20					18.5			<3			<2			2.3			190			0.2										<20				7.12			-1.2	
B12B0175	01-01-2000	L2000-01-7978		nee			01-01-2000			<5		<2		50				61			<.1		29		<1		<1		7.8	42					5.3				226						<.02			3.4			6			.53				1.5					<.2				18.5			<3			<2	.2		2.3			190													<20		7.12					
B12B0175	15-06-1999	C1999-06-8178		nee			15-06-1999		<5		<2		50				62			<0.1		30		<1		<1		7.6			41			5.7				233						<0.02			3.4			5.9			0.50			1.6					<0.10					18.5			<3			<2			<2.0			190			0.54										<20				7.19			-1.1	
B12B0175	01-01-1999	L1999-01-0459		nee			01-01-1999			<5		<2		50				62			<.1		30		<1		<1		0	41					5.7				233						<.02			3.4			5.9			.5				1.6					<.1				18.5			<3			<2	.54		<2			190													<20		7.19					
B12B0175	16-09-1998	C1998-09-8102		nee			16-09-1998		<5		2		40				58			<0.1		27		<1		<1		7.2			36			3.5				193						<0.02			3.5			5.7			0.34			0.44					0.68					17.8			<3			<2			4.8			190			0.08										<20				7.12			-0.9	
B12B0175	01-01-1998	L1998-01-0060		nee			01-01-1998			<5		2		40				58			<.1		27		<1		<1		0	36					3.5				193						<.02			3.5			5.7			.34				.44					.68				17.8			<3			<2	.08		4.8			190													<20		7.12					
B12B0175	04-06-1997	C1997-06-1083		nee			04-06-1997	<.003				7		50				56			<.1		32		<1		<1								9.4				185						<.02			1.4			3.6			.87			.129					.044					16			<3			<2			7.4						1.167		20			3.9	1.55				30		7.26					
B12B0175	04-06-1997	C1997-06-8104		nee			04-06-1997		<3		7		50				56			<0.1		32		<1		<1					36			9.4				185						<0.02			1.4			3.6			0.87			0.10					0.01					16			<3			<2			7.4			150			0.38					3.9					30				7.26			-1.58	
B12B0175	04-06-1997	C1997-06-8105		nee			04-06-1997		<3		2		30				60			<0.1		30		<1		<1					42			5.8				218						<0.02			3.2			5.8			0.48			1.5					0.01					19			<3			<2			7.8			190			0.55					6.6					<20				7.27			-1.61	
B12B0175	04-06-1997	C1997-06-1082		nee			04-06-1997	<.003				2		30				60			<.1		30		<1		<1								5.8				218						<.02			3.2			5.8			.48			1.935					.044					19			<3			<2			7.8						1.689		20			6.6	1.74				<20		7.27					
B12B0175	01-01-1997	L1997-01-7578		nee			01-01-1997			<3		7		50				56			<.1		32		<1		<1			36					9.4				185						<.02			1.4			3.6			.87				.1					.01				16			<3			<2	.38		7.4			150													<30		7.26					
B12B0175	01-01-1997	L1997-01-7577		nee			01-01-1997			<3		2		30				60			<.1		30		<1		<1			42					5.8				218						<.02			3.2			5.8			.48				1.5					.01				19			<3			<2	.55		7.8			190													<20		7.27					
B12B0175	14-08-1996	C1996-08-8128		nee			14-08-1996		5		4		40				58			<0.1		30		<1		<1					37.61			5.3				216			214.75						3.0			5.7			0.47			1.5					0.02					20			<3			<2			3.6			200		10.60	0.46					7.5					<20				7.25				
B12B0175	14-08-1996	C1996-08-8127		nee			14-08-1996																																																																																												
B12B0175	14-08-1996	C1996-08-8124		nee			14-08-1996																																																																																												
B12B0175	14-08-1996	C1996-08-1127		nee			14-08-1996	.005				4		40				58			<.1		30		<1		<1								5.3				216									3			5.7			.47			1.935					.089					20			<3			<2			3.6						1.412		20			7.5	1.68				<20							
B12B0175	01-01-1996	L1996-01-7347		nee			01-01-1996			5		4		40				58			<.1		30		<1		<1			42.5					5.3				216			214.75						3			5.7			.47				1.5					.02				20			<3			<2	.46		3.6			200													<20		7.25					
B12B0175	05-07-1995	C1995-07-8012		nee			05-07-1995		5		<2		37				57			<0.1		30		<1		<1								5.1				200									3.0			5.3			0.47			1.3					0.04					18.5			<2			<2			3.1			190			0.48					7.1					<20								
B12B0175	05-07-1995	C1995-07-1015		nee			05-07-1995	.005				<2		37				57			<.1		30		<1		<1								5.1				200									3			5.3			.47			1.677					.177					18.5			<2			<2			3.1						1.474		20			7.1	1.64				<20							
B12B0175	05-07-1995	C1995-07-8011		nee			05-07-1995		6		7		68				60			<0.1		33		<1		<1								9.0				184									1.4			3.8			1.42			0.11					0.05					14.7			<2			<2			<2.0			180			0.49					4.0					30								
B12B0175	05-07-1995	C1995-07-1016		nee			05-07-1995	.006				7		68				60			<.1		33		<1		<1								9				184									1.4			3.8			1.42			.142					.222					14.7			<2			<2			<2						1.504		20			4	1.66				30							
B12B0175	01-01-1995	L1995-01-0078		nee			01-01-1995			5		<2		37				57			<.1		30		<1		<1								5.1				200									3			5.3			.47				1.3					.04				18.5			<2			<2	.48		3.1			190													<20							
B12B0175	01-01-1995	L1995-01-0079		nee			01-01-1995			6		7		68				60			<.1		33		<1		<1								9				184									1.4			3.8			1.42				.11					.05				14.7			<2			<2	.49		<2			180													<30							
B12B0175	19-07-1994	C1994-07-1166		nee			19-07-1994	.017				4		49				61			<.1		33		<1		<1								8.7				189									1.5			4.1			1.33			.297					<.044					14.5			<2			<2			2.1						.522		20			6.2	1.69				20							
B12B0175	19-07-1994	C1994-07-1164		nee			19-07-1994	.012				<2		35				56			<.1		30		<1		<1								4.9				196									2.8			5.4			.46			1.677					.797					18.8			<2			<2			5.7						1.474		20			8.5	1.62				<20							
B12B0175	19-07-1994	C1994-07-8119		nee			19-07-1994		17		4		49				61			<0.1		33		<1		<1					37.3			8.7				189									1.5			4.1			1.33			0.23					<0.01					14.5			<2			<2			2.1			200		9.90	0.17					6.2					20				7.24				
B12B0175	19-07-1994	C1994-07-8121		nee			19-07-1994		12		<2		35				56			<0.1		30		<1		<1					37.3			4.9				196									2.8			5.4			0.46			1.3					0.18					18.8			<2			<2			5.7			190		9.50	0.48					8.5					<20				7.28				
B12B0175	19-07-1994	C1994-07-1165		nee			19-07-1994	.011				<2		30				51			<.1		34		<1		<1								7.4				183									1.5			6			.36			.323					.222					21			<2			<2			9.2						.491		20			6.8	1.52				<20							
B12B0175	19-07-1994	C1994-07-8120		nee			19-07-1994		11		<2		30				51			<0.1		34		<1		<1					36.2			7.4				183									1.5			6.0			0.36			0.25					0.05					21			<2			<2			9.2			170		13.70	0.16					6.8					<20				7.07				
B12B0175	01-01-1994	L1994-01-0129		nee			01-01-1994			11		<2		30				51			<.1		34		<1		<1			40.9					7.4				183									1.5			6			.36				.25					.05				21			<2			<2	.16		9.2			170													<20		7.07					
B12B0175	01-01-1994	L1994-01-0130		nee			01-01-1994			17		4		49				61			<.1		33		<1		<1			42.1					8.7				189									1.5			4.1			1.33				.23					<.01				14.5			<2			<2	.17		2.1			200													<20		7.24					
B12B0175	01-01-1994	L1994-01-0128		nee			01-01-1994			12		<2		35				56			<.1		30		<1		<1			42.1					4.9				196									2.8			5.4			.46				1.3					.18				18.8			<2			<2	.48		5.7			190													<20		7.28					
