LOCATIE gegevens
NITG-nr	X-coord	Y-coord	Coordinaat systeem	Kaartblad	Bepaling locatie	Maaiveldhoogte (m tov NAP)	Bepaling maaiveldhoogte	OLGA-nr	RIVM-nr	Aantal analyses	Meetnet	Indeling	
B12B0112	239890	572980	Rijksdriehoeksmeting	12B		0.85		12BP0112	1431	15			

KWALITEIT gegevens VLOEIBAAR
NITG-nr	Monster datum	Monster-nr	Monster apparatuur	Mengmonster	Bovenkant monster (cm tov MV)	Onderkant monster (cm tov MV)	Analyse datum	Al (mg/l)	Al (mg/m3)	Al (ug/l)	As (mg/m3)	As (ug/l)	Ba (mg/m3)	Ba (ug/l)	CO2 (mg/l)	Ca (g/m3)	Ca (mg/l)	Cd (mg/m3)	Cd (ug/l)	Cl- (g/m3)	Cl- (mg/l)	Cr (mg/m3)	Cr (ug/l)	Cu (mg/m3)	Cu (ug/l)	DOC (g/m3)	DOC (mg/l)	EC (mS/m)	EC (uS/cm)	EC20C (mS/m)	Fe (g/m3)	Fe (mg/l)	HCO3 (g/m3)	HCO3 (mg/l)	K (g/m3)	K (mg/l)	KLEUR (mgPt/l)	KMNO4V-O (mg/l)	Mg (g/m3)	Mg (mg/l)	Mn (g/m3)	Mn (mg/l)	NH4 (gN/m3)	NH4 (mg/l)	NH4 (mgN/l)	NO3 (gN/m3)	NO3 (mg/l)	NO3 (mgN/l)	Na (g/m3)	Na (mg/l)	Ni (mg/m3)	Ni (ug/l)	O2 (mg/l)	Pb (mg/m3)	Pb (ug/l)	Ptot (mgP/l)	SO4 (g/m3)	SO4 (mg/l)	Sr (mg/m3)	Sr (ug/l)	T-O2 (C)	T-PO4 (gP/m3)	T-PO4 (mg/l)	TEMP-V (C)	TIJDH (mmol/l)	TOTH (mmol/l)	Zn (mg/m3)	Zn (ug/l)	pH (-)	
B12B0112		C1963-10-1008		nee	9700.0	9800.0	02-10-1963								36						46.8								48.28			5.5		249.5			10	8.8				.28		.22									0								0			18	4.14	2.322			7.4	
B12B0112		C1963-10-1006		nee	5901.0	6001.0	02-10-1963								17						15.1								39.38			2.1		247.7			6	7.3				.16		.18									0								0			18	4.1	2.088			7.62	
B12B0112		C1963-10-1007		nee	7400.0	7500.0	02-10-1963								49						15								27.96			8.3		157.4			8	3.7				.33		.15									0								0			18	2.48	1.242			7.07	
B12B0112	28-09-1992	C1992-09-1381		nee	5901.0	6001.0	28-09-1992	<.013				1.46		44.63			85.01		<.04		15.17		<.78		<.64			44				2.32		291.68		1.15				5.99		.18		.09			.133			12.82		<.88			.87			.31					.368	20		2.37		<6.54	7.76	
B12B0112	28-09-1992	C1992-09-1382		nee	7400.0	7500.0	28-09-1992	<.013				1.43		27.62			36.89		<.04		17.49		1.51		1.97			24.2				8.99		125.7		1.4				3.71		.41		.09			.31			11.63		2.23			.89			4.75					.829	20		1.07		8.19	6.95	
B12B0112	28-09-1992	C1992-09-8273		nee	5901.0	6001.0	28-09-1992		<13.49		1.46		44.63			85.01		<0.04		15.17		<0.78		<0.64		0.78		44.00			2.32		291.68		1.15				5.99		0.18		0.07			0.03			12.82		<0.88			0.87			0.31		152.36			0.12					<6.54		7.76	
B12B0112	28-09-1992	C1992-09-8275		nee	7400.0	7500.0	28-09-1992		<13.49		1.43		27.62			36.89		<0.04		17.49		1.51		1.97		1.07		24.20			8.99		125.70		1.40				3.71		0.41		0.07			0.07			11.63		2.23			0.89			4.75		96.73			0.27					8.19		6.95	
B12B0112	28-09-1992	C1992-09-8274		nee	9700.0	9800.0	28-09-1992		<13.49		0.88		61.30			78.40		<0.04		37.47		<0.78		<0.64		1.73		45.20			4.52		248.96		1.42				6.58		0.17		0.10			0.02			17.20		0.88			0.50			0.82		148.86			0.33					10.46		7.50	
B12B0112	28-09-1992	C1992-09-1383		nee	9700.0	9800.0	28-09-1992	<.013				.88		61.3			78.4		<.04		37.47		<.78		<.64			45.2				4.52		248.96		1.42				6.58		.17		.129			.089			17.2		.88			.5			.82					1.013	20		2.23		10.46	7.5	
B12B0112	01-01-1992	L1992-01-0078		nee	7400.0	7500.0	01-01-1992			<13.49		1.43		27.62			36.89		<.04		17.49		1.51		1.97		1.07			24.2		8.99		125.7		1.4				3.71		.41			.07			.07		11.63		2.23			.89	.27		4.75		96.73								8.19	6.95	
B12B0112	01-01-1992	L1992-01-0079		nee	9700.0	9800.0	01-01-1992			<13.49		.88		61.3			78.4		<.04		37.47		<.78		<.64		1.73			45.2		4.52		248.96		1.42				6.58		.17			.1			.02		17.2		.88			.5	.33		.82		148.86								10.46	7.5	
B12B0112	01-01-1992	L1992-01-0077		nee	5901.0	6001.0	01-01-1992			<13.49		1.46		44.63			85.01		<.04		15.17		<.78		<.64		.78			44		2.32		291.68		1.15				5.99		.18			.07			.03		12.82		<.88			.87	.12		.31		152.36								6.54	7.76	
B12B0112	10-10-1991	C1991-10-1120		nee	7400.0	7500.0	10-10-1991	<.013				1.69		27.35			37.88		.04		16.86		<.52		1.02			24.5				9.22		126.27		1.39				3.73		.42		.052			.177			11.32		<.59			.04			4.03					.461	20		1.1		<6.54	6.75	
B12B0112	10-10-1991	C1991-10-8099		nee	9700.0	9800.0	10-10-1991		<13.49		1.10		60.43			78.75		0.03		36.57		<0.52		<0.64		1.69		45.50			4.52		248.27		1.39				6.65		0.17		0.10			0.04			17.22		0.59			0.12			0.77		148.48			0.21					8.28		7.19	
B12B0112	10-10-1991	C1991-10-1121		nee	9700.0	9800.0	10-10-1991	<.013				1.1		60.43			78.75		.03		36.57		<.52		<.64			45.5				4.52		248.27		1.39				6.65		.17		.129			.177			17.22		.59			.12			.77					.645	20		2.23		8.28	7.19	
B12B0112	10-10-1991	C1991-10-8101		nee	5901.0	6001.0	10-10-1991		<13.49		3.36		42.93			84.96		<0.02		14.52		<0.52		<0.64		0.82		42.50			2.37		290.97		1.16				5.95		0.19		0.06			0.24			12.46		<0.59			0.19			0.19		151.81			0.13					<6.54		7.49	
B12B0112	10-10-1991	C1991-10-1119		nee	5901.0	6001.0	10-10-1991	<.013				3.36		42.93			84.96		<.02		14.52		<.52		<.64			42.5				2.37		290.97		1.16				5.95		.19		.077			1.063			12.46		<.59			.19			.19					.399	20		2.36		<6.54	7.49	
B12B0112	10-10-1991	C1991-10-8100		nee	7400.0	7500.0	10-10-1991		<13.49		1.69		27.35			37.88		0.04		16.86		<0.52		1.02		1.49		24.50			9.22		126.27		1.39				3.73		0.42		0.04			0.04			11.32		<0.59			0.04			4.03		97.68			0.15					<6.54		6.75	
B12B0112	01-01-1991	L1991-01-7077		nee	7400.0	7500.0	01-01-1991			<13.49		1.69		27.35			37.88		.04		16.86		<.52		1.02		1.49			24.5		9.22		126.27		1.39				3.73		.42			.04			.04		11.32		<.59			.04	.15		4.03		97.68								6.54	6.75	
B12B0112	01-01-1991	L1991-01-7076		nee	5901.0	6001.0	01-01-1991			<13.49		3.36		42.93			84.96		<.02		14.52		<.52		<.64		.82			42.5		2.37		290.97		1.16				5.95		.19			.06			.24		12.46		<.59			.19	.13		.19		151.81								6.54	7.49	
B12B0112	01-01-1991	L1991-01-7078		nee	9700.0	9800.0	01-01-1991			<13.49		1.1		60.43			78.75		.03		36.57		<.52		<.64		1.69			45.5		4.52		248.27		1.39				6.65		.17			.1			.04		17.22		.59			.12	.21		.77		148.48								8.28	7.19	
