LOCATIE gegevens
NITG-nr	X-coord	Y-coord	Coordinaat systeem	Kaartblad	Bepaling locatie	Maaiveldhoogte (m tov NAP)	Bepaling maaiveldhoogte	OLGA-nr	RIVM-nr	Aantal analyses	Meetnet	Indeling	
B12B0177	237750	572620	Rijksdriehoeksmeting	12B		2.7		12BA3177	1542	22			

KWALITEIT gegevens VLOEIBAAR
NITG-nr	Monster datum	Monster-nr	Monster apparatuur	Mengmonster	Bovenkant monster (cm tov MV)	Onderkant monster (cm tov MV)	Analyse datum	Al (mg/l)	Al (mg/m3)	Al (ug/l)	As (mg/m3)	As (ug/l)	Ba (mg/m3)	Ba (ug/l)	Ca (g/m3)	Ca (mg/l)	Cd (mg/m3)	Cd (ug/l)	Cl- (g/m3)	Cl- (mg/l)	Cr (mg/m3)	Cr (ug/l)	Cu (mg/m3)	Cu (ug/l)	DOC (g/m3)	DOC (mg/l)	EC (mS/m)	EC-5 (mS/m)	ECVELD20C (mS/m)	Fe (g/m3)	Fe (mg/l)	HCO3 (g/m3)	HCO3 (mg/l)	HCO3 (mmol/l)	HCO3-Veld (g/m3)	HCO3-Veld (mg/l)	Hg (mg/m3)	Hg (ug/l)	K (g/m3)	K (mg/l)	Mg (g/m3)	Mg (mg/l)	Mn (g/m3)	Mn (mg/l)	NH4 (gN/m3)	NH4 (mg/l)	NH4 (mgN/l)	NH4som (mg/l)	NO3 (gN/m3)	NO3 (mg/l)	NO3 (mgN/l)	NO3som (mg/l)	Na (g/m3)	Na (mg/l)	Ni (mg/m3)	Ni (ug/l)	O2 (mg/l)	Pb (mg/m3)	Pb (ug/l)	Ptot (mgP/l)	SO4 (g/m3)	SO4 (mg/l)	Sr (mg/l)	Sr (mg/m3)	Sr (ug/l)	T-5 (C)	T-PO4 (gP/m3)	T-PO4 (mg/l)	TEMP-V (C)	TOC (g/m3)	TOC (mg/l)	TOTH (mmol/l)	Zn (mg/m3)	Zn (ug/l)	pH (-)	pH-5 (-)	pH-veld (-)	stijgh_mv (m-mv)	
B12B0177	20-06-2005	L2005-06-0036		nee			20-06-2005			620		<1		59		10.3		<.1		23		4		<5		36			18.8		7.9		31	.506				<.02		3.4		5.23		.118			1.01	1.3			<.15	<.6		14.2		6			<1	.08		27			79							.47		<10			5.31		
B12B0177	20-06-2005	L2005-06-0036		nee			20-06-2005																																																		<.5																						
B12B0177	20-06-2005	L2005-06-0037		nee			20-06-2005			9		<1		150		27.7		<.1		54		<1		<5		2.7			52.1		25.8		30	.485				<.02		16.8		17.2		.499			.09	.12			<.15	<.6		32.1		<1			<1	.05		180			240							1.4		<10			5.8		
B12B0177	20-06-2005	L2005-06-0037		nee			20-06-2005																																																		<.5																						
B12B0177	26-05-2004	L2004-05-7538		nee			26-05-2004																																																		<.5																						
B12B0177	26-05-2004	L2004-05-7538		nee			26-05-2004			660		1		60		10.8		<.2		24		4		<5		33			93.2		7.6		32	.524				<.02		3.1		5.37		.114			1.1	1.4			<.2	<.6		14.7		6			<1	.14		30			81							.49		<10			5.31		
B12B0177	03-04-2003	L2003-04-0067		nee			03-04-2003			630		1		62		11.3		<.2				5		<5					19.5		7.2									3.1		5.3		.117			1.13	1.5			<.2	<.6		14.1		6			<1			30			85									<10					
B12B0177	03-04-2003	L2003-04-0067		nee			03-04-2003																																																		<.5																						
B12B0177	03-04-2003	L2003-04-0067		nee			03-04-2003																																																																						5.15		
B12B0177	03-04-2003	L2003-04-0067		nee			03-04-2003																															<.02																																									
B12B0177	03-04-2003	L2003-04-0067		nee			03-04-2003																			37																																																					
B12B0177	03-04-2003	L2003-04-0067		nee			03-04-2003													25																																								.08																			
B12B0177	03-04-2003	L2003-04-0067		nee			03-04-2003																										32	.525																																													
B12B0177	15-08-2002	L2002-08-0030		nee			15-08-2002			605		<1		54.09		9.79		<.2		22.9		10.92		<5		35.53			17.9				29.79	.49						3.04		4.78		.11			1	1.28			<.2	<.6		14.34		5.07				.09		29.06															5.43		
B12B0177	15-08-2002	L2002-08-0030		nee			15-08-2002																																																				<1						75.5									<10					
B12B0177	15-08-2002	L2002-08-0030		nee			15-08-2002																																																		<.5																						
B12B0177	15-08-2002	L2002-08-0030		nee			15-08-2002																								7.22																																																
B12B0177	15-08-2002	L2002-08-0030		nee			15-08-2002																															<.02																																									
B12B0177	01-01-2001	L2001-01-7236		nee			01-01-2001			588.9226		<.5		55.9559		10.52366		.43251		22.1		3.64472		<5		26.75	19.5				7.66377		33.68	.55213115				<.02		3.14481		5.17229		.11529			1.08461111	1.3945			<.12	<.5		15.16058		4.27362	<.5		<2	.09		32.81	.0768									.47537402		1.93228	5.32				
B12B0177	01-01-2001	L2001-01-7237		nee			01-01-2001			<5		.51		170.0482		27.89131		<.2		55.7		<1		<5		2.4	54.2				26.7222		22.62	.37081967				<.02		16.35352		17.3977		.50385			.091	.117			<.12	<.5		31.82817		<1	<.5		<2	.05		173.28	.2483									1.41169842		<1	5.78				
B12B0177	04-07-2000	C2000-07-8012		nee			04-07-2000		620		<2		60		10.2		<0.1		22		2		<1		30			20		7.8		30					<0.02		2.9		5.2		0.11		0.94				<0.20				14		9			<2			32			78			0.1						<20			5.5		-4.1	
B12B0177	01-01-2000	L2000-01-7980		nee			01-01-2000			620		<2		60		10.2		<.1		22		2		<1		30	20				7.8		30					<.02		2.9		5.2		.11			.94				<.2			14		9			<2	.1		32			78									<20	5.5				
B12B0177	23-09-1999	C1999-09-8045		nee			23-09-1999		670		<2		60		10.3		<0.1		20		2		<1		27			19		7.8		31					<0.02		3.5		5.2		0.12		1.1				<0.20				13.8		7			<2			32			78			0.10						<20			5.4		-4.14	
B12B0177	01-01-1999	L1999-01-0461		nee			01-01-1999			670		<2		60		10.3		<.1		20		2		<1		0	19				7.8		31					<.02		3.5		5.2		.12			1.1				<.2			13.8		7			<2	.1		32			78									<20	5.4				
B12B0177	16-09-1998	C1998-09-8104		nee			16-09-1998		650		<2		60		10.1		<0.1		21		3		<1		46			19		7.4		43					0.09		3.1		5.1		0.11		0.93				<0.10				14.5		8			<2			30			78			0.08						<20			5.5		-4.02	
B12B0177	01-01-1998	L1998-01-0062		nee			01-01-1998			650		<2		60		10.1		<.1		21		3		<1		0	19				7.4		43					.09		3.1		5.1		.11			.93				<.1			14.5		8			<2	.08		30			78									<20	5.5				
B12B0177	28-05-1997	C1997-05-8135		nee			28-05-1997		4		<2		110		26		<0.1		54		1		<1					48		23		24					<0.02		14		16		0.42		0.10				0.01				31		<3			<2			134			210			0.04			3.4			<20			5.7		-4.57	
B12B0177	28-05-1997	C1997-05-8136		nee			28-05-1997		680		<2		<10		11		<0.1		21		5		<1					19		7.2		31					0.08		3.1		5.3		0.08		0.89				0.01				14		10			<2			35			55			0.09			19.5			<20			5.2		-4.54	
B12B0177	28-05-1997	C1997-05-1246		nee			28-05-1997	.004				<2		110		26		<.1		54		1		<1							23		24					<.02		14		16		.42		.129				.044				31		<3			<2			134						.123	20		3.4	1.31		<20	5.7				
B12B0177	28-05-1997	C1997-05-1245		nee			28-05-1997	.68				<2		<10		11		<.1		21		5		<1							7.2		31					.08		3.1		5.3		.08		1.148				.044				14		10			<2			35						.276	20		19.5	.49		<20	5.2				
B12B0177	01-01-1997	L1997-01-7581		nee			01-01-1997			680		<2		<10		11		<.1		21		5		<1			19				7.2		31					.08		3.1		5.3		.08			.89				.01			14		10			<2	.09		35			55									<20	5.2				
B12B0177	01-01-1997	L1997-01-7582		nee			01-01-1997			4		<2		110		26		<.1		54		1		<1			48				23		24					<.02		14		16		.42			.1				.01			31		<3			<2	.04		134			210									<20	5.7				
B12B0177	14-08-1996	C1996-08-1129		nee			14-08-1996	1.7				<2		50		12		<.1		19		4		1							6		24							3.2		5.3		.1		.968				.177				13		10			<2			38						.675	20		40	.52		<20					
B12B0177	14-08-1996	C1996-08-8133		nee			14-08-1996		1700		<2		50		12		<0.1		19		4		1					17.35		6.0		24			16.66				3.2		5.3		0.10		0.75				0.04				13		10			<2			38			87		10.10	0.22			40			<20			5.16			
B12B0177	14-08-1996	C1996-08-8131		nee			14-08-1996																																																																								
B12B0177	14-08-1996	C1996-08-8132		nee			14-08-1996																																																																								
B12B0177	01-01-1996	L1996-01-7349		nee			01-01-1996			1700		<2		50		12		<.1		19		4		1			19.6				6		24			16.66				3.2		5.3		.1			.75				.04			13		10			<2	.22		38			87									<20	5.16				
B12B0177	04-07-1995	C1995-07-1004		nee			04-07-1995	.29				<2		86		11.5		<.1		40		3		3							7.8		18							5.8		8		.25		.155				1.329				16.8		17			28			100						.399	20		19.5	.62		30					
B12B0177	04-07-1995	C1995-07-8005		nee			04-07-1995		290		<2		86		11.5		<0.1		40		3		3					42.30		7.8		18							5.8		8.0		0.25		0.12				0.30				16.8		17			28			100			120		10.00	0.13			19.5			30			5.67			
B12B0177	04-07-1995	C1995-07-8008		nee			04-07-1995																																																																								
B12B0177	04-07-1995	C1995-07-8007		nee			04-07-1995		780		<2		53		11.0		<0.1		22		3		1					18.32		8.0		28							3.2		5.7		0.12		0.87				0.06				13.4		7			<2			46			89		9.70	0.19			34			<20			5.24			
B12B0177	04-07-1995	C1995-07-1003		nee			04-07-1995	.78				<2		53		11		<.1		22		3		1							8		28							3.2		5.7		.12		1.122				.266				13.4		7			<2			46						.583	20		34	.5		<20					
B12B0177	01-01-1995	L1995-01-0083		nee			01-01-1995			290		<2		86		11.5		<.1		40		3		3			47.8				7.8		18							5.8		8		.25			.12				.3			16.8		17			28	.13		100			120									30	5.67				
B12B0177	01-01-1995	L1995-01-0082		nee			01-01-1995			780		<2		53		11		<.1		22		3		1			20.7				8		28							3.2		5.7		.12			.87				.06			13.4		7			<2	.19		46			89									<20	5.24				
B12B0177	19-07-1994	C1994-07-1168		nee			19-07-1994	.06				<2		49		12.5		<.1		31		3		<1							14		44							3.3		7.1		.27		.232				.487				22		18			<2			50						.399	20		18.3	.6		<20					
B12B0177	19-07-1994	C1994-07-8122		nee			19-07-1994		14		<2		130		22		<0.1		53		<1		<1					42		20		25							12.4		13.3		0.39		0.14				0.03				29		<2			3			108			200		9.80	0.12			3.8			<20			5.82			
B12B0177	19-07-1994	C1994-07-8124		nee			19-07-1994		660		<2		47		9.5		<0.1		21		4		<1					18.0		9.8		28							3.1		5.7		0.13		0.83				0.04				12.2		13			<2			36			84		9.70	0.21			38			<20			5.30			
B12B0177	19-07-1994	C1994-07-1169		nee			19-07-1994	.014				<2		130		22		<.1		53		<1		<1							20		25							12.4		13.3		.39		.181				.133				29		<2			3			108						.368	20		3.8	1.1		<20					
B12B0177	19-07-1994	C1994-07-1167		nee			19-07-1994	.66				<2		47		9.5		<.1		21		4		<1							9.8		28							3.1		5.7		.13		1.071				.177				12.2		13			<2			36						.645	20		38	.47		<20					
B12B0177	19-07-1994	C1994-07-8123		nee			19-07-1994		60		<2		49		12.5		<0.1		31		3		<1					25.8		14.0		44							3.3		7.1		0.27		0.18				0.11				22		18			<2			50			110		14.60	0.13			18.3			<20			5.00			
B12B0177	01-01-1994	L1994-01-0135		nee			01-01-1994			60		<2		49		12.5		<.1		31		3		<1			29.1				14		44							3.3		7.1		.27			.18				.11			22		18			<2	.13		50			110									<20	5				
B12B0177	01-01-1994	L1994-01-0134		nee			01-01-1994			660		<2		47		9.5		<.1		21		4		<1			20.3				9.8		28							3.1		5.7		.13			.83				.04			12.2		13			<2	.21		36			84									<20	5.3				
B12B0177	01-01-1994	L1994-01-0136		nee			01-01-1994			14		<2		130		22		<.1		53		<1		<1			48				20		25							12.4		13.3		.39			.14				.03			29		<2			3	.12		108			200									20	5.82				
