LOCATIE gegevens
NITG-nr	X-coord	Y-coord	Coordinaat systeem	Kaartblad	Bepaling locatie	Maaiveldhoogte (m tov NAP)	Bepaling maaiveldhoogte	OLGA-nr	RIVM-nr	Aantal analyses	Meetnet	Indeling	
B12E0262	243600	573240	Rijksdriehoeksmeting	12E		1.27		12EP0262		12			

KWALITEIT gegevens VLOEIBAAR
NITG-nr	Monster datum	Monster-nr	Monster apparatuur	Mengmonster	Bovenkant monster (cm tov MV)	Onderkant monster (cm tov MV)	Analyse datum	Cl- (mg/l)	
B12E0262		C1991-04-1091		nee	925.0	1025.0	12-04-1991	54	
B12E0262		C1989-06-1223		nee	2885.0	2985.0	22-06-1989	88	
B12E0262		C1991-04-1092		nee	2885.0	2985.0	12-04-1991	137	
B12E0262		C1988-02-1011		nee	925.0	1025.0	01-02-1988	104	
B12E0262		C1988-02-1012		nee	2885.0	2985.0	01-02-1988	93	
B12E0262		C1990-06-1144		nee	2885.0	2985.0	18-06-1990	105	
B12E0262		C1990-06-1143		nee	925.0	1025.0	18-06-1990	70	
B12E0262		C1989-06-1222		nee	925.0	1025.0	22-06-1989	111	
B12E0262	19-09-2000	T2000-00-2788		nee	925.0	1025.0	19-09-2000	32	
B12E0262	19-09-2000	T2000-00-2789		nee	2885.0	2985.0	19-09-2000	61	
B12E0262	17-09-1998	C1998-09-1085		nee	2885.0	2985.0	17-09-1998	61	
B12E0262	17-09-1998	C1998-09-1084		nee	925.0	1025.0	17-09-1998	37	
