LOCATIE gegevens
NITG-nr	X-coord	Y-coord	Coordinaat systeem	Kaartblad	Bepaling locatie	Maaiveldhoogte (m tov NAP)	Bepaling maaiveldhoogte	OLGA-nr	RIVM-nr	Aantal analyses	Meetnet	Indeling	
B12E0215	241365	572730	Rijksdriehoeksmeting	12E		0.33		12EP0215	1445	19			

KWALITEIT gegevens VLOEIBAAR
NITG-nr	Monster datum	Monster-nr	Monster apparatuur	Mengmonster	Bovenkant monster (cm tov MV)	Onderkant monster (cm tov MV)	Analyse datum	Al (mg/l)	Al (mg/m3)	Al (ug/l)	As (mg/m3)	As (ug/l)	Ba (mg/m3)	Ba (ug/l)	CO2 (mg/l)	Ca (g/m3)	Ca (mg/l)	Cd (mg/m3)	Cd (ug/l)	Cl- (g/m3)	Cl- (mg/l)	Cr (mg/m3)	Cr (ug/l)	Cu (mg/m3)	Cu (ug/l)	DOC (g/m3)	DOC (mg/l)	EC (mS/m)	EC (uS/cm)	EC-5 (mS/m)	EC20C (mS/m)	ECVELD20C (mS/m)	Fe (g/m3)	Fe (mg/l)	HCO3 (g/m3)	HCO3 (mg/l)	HCO3 (mmol/l)	Hg (mg/m3)	Hg (ug/l)	K (g/m3)	K (mg/l)	KLEUR (mgPt/l)	KMNO4V-O (mg/l)	Mg (g/m3)	Mg (mg/l)	Mn (g/m3)	Mn (mg/l)	NH4 (gN/m3)	NH4 (mg/l)	NH4 (mgN/l)	NH4-ORG (mg/l)	NH4som (mg/l)	NO2 (mg/l)	NO3 (gN/m3)	NO3 (mg/l)	NO3 (mgN/l)	NO3som (mg/l)	Na (g/m3)	Na (mg/l)	NaHCO3 (mg/l)	Ni (mg/m3)	Ni (ug/l)	O2 (mg/l)	Pb (mg/m3)	Pb (ug/l)	Ptot (mgP/l)	SO4 (g/m3)	SO4 (mg/l)	SiO2 (mg/l)	Sr (mg/m3)	Sr (ug/l)	T-5 (C)	T-O2 (C)	T-PO4 (gP/m3)	T-PO4 (mg/l)	TEMP-V (C)	TIJDH (mmol/l)	TOC (g/m3)	TOC (mg/l)	TOTH (mmol/l)	Zn (mg/m3)	Zn (ug/l)	pH (-)	pH-5 (-)	pH-veld (-)	stijgh_mv (m-mv)	
B12E0215		C1971-11-1064		nee	2411.0	2508.0	19-11-1971								12		65.2				21.1								37.6					1.4		215.3						10	8.1		5.6		.11		.28		.07		0		0				12.7	0			0					10.3	18				0		.47	18	3.53			1.857			7.47				
B12E0215	03-06-2004	L2004-06-0030		nee	2411.0	2508.0	03-06-2004																																																								<.5																								
B12E0215	03-06-2004	L2004-06-0030		nee	2411.0	2508.0	03-06-2004			<5		<1		40			92.8		<.2		34		<1		<5		5.3					50.7		2.2		296	4.85		<.02		1.8				8.24		.156			.22		.28				<.2	<.6		14.5			<1			<1	.18		<.5			250									2.65		<10			7.49		
B12E0215	04-07-2000	C2000-07-8008		nee	2411.0	2508.0	04-07-2000		<5		<2		80			140		<0.1		75		<1		1		16.9				86			2.6		462			<0.02		2.2				12		0.22		0.41						<0.20				39			<3			<2			7.4			350				0.22							<20			7.11		-2.5	
B12E0215	01-01-2000	L2000-01-7984		nee	2411.0	2508.0	01-01-2000			<5		<2		80			140		<.1		75		<1		1		16.9	86						2.6		462			<.02		2.2				12		.22			.41						<.2			39			<3			<2	.22		7.4			350											<20	7.11				
B12E0215	29-05-1997	C1997-05-8153		nee	2411.0	2508.0	29-05-1997		<3		<2		10			140		<0.1		95		<1		<1						82			2.7		373			<0.02		2.2				12		0.19		0.46						<0.01				36			<3			<2			26			340				0.23				15.0			<20			7.34		-2.19	
B12E0215	29-05-1997	C1997-05-1288		nee	2411.0	2508.0	29-05-1997	<.003				<2		10			140		<.1		95		<1		<1									2.7		373			<.02		2.2				12		.19		.593						<.044				36			<3			<2			26							.706	20			15	3.98		<20	7.34				
B12E0215	01-01-1997	L1997-01-7587		nee	2411.0	2508.0	01-01-1997			<3		<2		10			140		<.1		95		<1		<1			82						2.7		373			<.02		2.2				12		.19			.46						<.01			36			<3			<2	.23		26			340											<20	7.34				
B12E0215	05-07-1995	C1995-07-1023		nee	451.0	549.0	05-07-1995	.006				<2		63			136		<.1		59		<1		<1									2.6		402					2.3				11.4		.21		.542						.266				24			<2			<2			16							.645	20			16.4	3.86		<20					
B12E0215	05-07-1995	C1995-07-8021		nee	451.0	549.0	05-07-1995		6		<2		63			136		<0.1		59		<1		<1									2.6		402					2.3				11.4		0.21		0.42						0.06				24			<2			<2			16			350				0.21				16.4			<20					-0.49	
B12E0215	05-07-1995	C1995-07-8022		nee	2411.0	2508.0	05-07-1995																							68.85																																										11.70												7.35		-2.33	
B12E0215	01-01-1995	L1995-01-0089		nee	451.0	549.0	01-01-1995			6		<2		63			136		<.1		59		<1		<1									2.6		402					2.3				11.4		.21			.42						.06			24			<2			<2	.21		16			350											<20					
B12E0215	01-01-1995	L1995-01-0090		nee	2411.0	2508.0	01-01-1995																					77.8																																																							7.35				
B12E0215	21-07-1994	C1994-07-1196		nee	2411.0	2508.0	21-07-1994	.012				<2		75			131		<.1		86		<1		<1									2.7		351					2.1				11.3		.2		.503						.797				26			<2			<2			11.5							.522	20			15.5	3.73		<20					
B12E0215	21-07-1994	C1994-07-8142		nee	2411.0	2508.0	21-07-1994		12		<2		75			131		<0.1		86		<1		<1						73.5			2.7		351					2.1				11.3		0.20		0.39						0.18				26			<2			<2			11.5			350		11.40		0.17				15.5			<20			7.38		-3.08	
B12E0215	21-07-1994	C1994-07-8143		nee	451.0	549.0	21-07-1994																																																																															-0.58	
B12E0215	01-01-1994	L1994-01-0142		nee	2411.0	2508.0	01-01-1994			12		<2		75			131		<.1		86		<1		<1			83.1						2.7		351					2.1				11.3		.2			.39						.18			26			<2			<2	.17		11.5			350											<20	7.38				
B12E0215	12-10-1993	C1993-10-1119		nee	2411.0	2508.0	12-10-1993	<.013				1.35		60.15			124.41		<.04		80.66		<.78		1.91									2.62		332.56					1.96				10.79		.19		.452						.133				23.47			1.06			.27			7.76							.583	20				3.54		<6.54					
B12E0215	12-10-1993	C1993-10-8101		nee	451.0	549.0	12-10-1993																																																																															-0.4	
B12E0215	12-10-1993	C1993-10-8100		nee	2411.0	2508.0	12-10-1993		<13.490		1.349		60.151			124.412		<0.045		80.663		<0.780		1.906		14.160				70			2.625		332.559					1.955				10.794		0.193		0.350						0.025				23.473			1.056			0.269			7.762			318.937		11.10		0.186							<6.539			7.43		-2.53	
B12E0215	01-01-1993	L1993-01-0054		nee	2411.0	2508.0	01-01-1993			<13.49		1.349		60.151			124.412		<.045		80.663		<.78		1.906		14.16	79						2.625		332.559					1.955				10.794		.193			.35						.025			23.473			1.056			.269	.186		7.762			318.937											6.539	7.43				
B12E0215	30-09-1992	C1992-09-8300		nee	2411.0	2508.0	30-09-1992		<13.49		1.52		57.86			119.13		<0.04		76.42		<0.78		<0.64		13.15		67.10					2.70		322.80					1.91				10.43		0.19		0.26						<0.01				22.30			<0.88			0.50			5.58			311.45				0.17							<6.54		7.70				
B12E0215	30-09-1992	C1992-09-1410		nee	2411.0	2508.0	30-09-1992	<.013				1.52		57.86			119.13		<.04		76.42		<.78		<.64			67.1						2.7		322.8					1.91				10.43		.19		.335						<.044				22.3			<.88			.5			5.58							.522	20				3.4		<6.54	7.7				
B12E0215	01-01-1992	L1992-01-0090		nee	2411.0	2508.0	01-01-1992			<13.49		1.52		57.86			119.13		<.04		76.42		<.78		<.64		13.15				67.1			2.7		322.8					1.91				10.43		.19			.26						<.01			22.3			<.88			.5	.17		5.58			311.45											6.54	7.7				
B12E0215	10-10-1991	C1991-10-8097		nee	2411.0	2508.0	10-10-1991		<13.49		2.16		58.38			120.65		0.02		72.24		<0.52		<0.64		15.53		67.00					2.88		335.50					1.91				10.58		0.19		0.32						0.04				21.14			<0.59			0.62			4.03			314.14				0.48							<6.54		7.59				
B12E0215	10-10-1991	C1991-10-1123		nee	2411.0	2508.0	10-10-1991	<.013				2.16		58.38			120.65		.02		72.24		<.52		<.64			67						2.88		335.5					1.91				10.58		.19		.413						.177				21.14			<.59			.62			4.03							1.474	20				3.45		<6.54	7.59				
B12E0215	01-01-1991	L1991-01-7089		nee	2411.0	2508.0	01-01-1991			<13.49		2.16		58.38			120.65		.02		72.24		<.52		<.64		15.53				67			2.88		335.5					1.91				10.58		.19			.32						.04			21.14			<.59			.62	.48		4.03			314.14											6.54	7.59				
B12E0215	30-11-1990	C1990-11-8210		nee	2411.0	2508.0	30-11-1990		10.00		2.00		70.00			114.00		<0.10		74.00		<0.50		<10.00		15.20		63.50					2.80		320.00					1.70				11.20		0.19		0.27						<0.11				19.00			<5.00			4.00			9.00							0.20							10.00		7.55				
B12E0215	30-11-1990	C1990-11-1445		nee	2411.0	2508.0	30-11-1990	.01				2		70			114		<.1		74		<.5		<10			63.5						2.8		320					1.7				11.2		.19		.348						<.487				19			<5			4			9							.614	20				3.3		10	7.55				
B12E0215	01-01-1990	L1990-01-0081		nee	2411.0	2508.0	01-01-1990			10		2		70			114		<.1		74		<.5		<10		15.2				63.5			2.8		320					1.7				11.2		.19			.27						<.11			19			<5			4	.2		9														10	7.55				
