LOCATIE gegevens
NITG-nr	X-coord	Y-coord	Coordinaat systeem	Kaartblad	Bepaling locatie	Maaiveldhoogte (m tov NAP)	Bepaling maaiveldhoogte	OLGA-nr	RIVM-nr	Aantal analyses	Meetnet	Indeling	
B12F0092	255520	573000	Rijksdriehoeksmeting	12F		-0.23		12FP0092		84			

KWALITEIT gegevens VLOEIBAAR
NITG-nr	Monster datum	Monster-nr	Monster apparatuur	Mengmonster	Bovenkant monster (cm tov MV)	Onderkant monster (cm tov MV)	Analyse datum	CO2 (mg/l)	Ca (mg/l)	Cl- (mg/l)	EC (mS/m)	EC (uS/cm)	Fe (mg/l)	HCO3 (mg/l)	K (mg/l)	KMNO4V-O (mg/l)	Mg (mg/l)	Mn (mg/l)	NH4 (mg/l)	NO2 (mg/l)	NO3 (mg/l)	Na (mg/l)	SO4 (mg/l)	T-PO4 (mg/l)	TEMP-V (C)	TIJDH (mmol/l)	TOTH (mmol/l)	pH (-)	
B12F0092		C1979-09-1051		nee	14991.0	15091.0	10-09-1979			200																			
B12F0092		C1988-05-1387		nee	6990.0	7090.0	11-05-1988			58																			
B12F0092		C1990-05-1043		nee	14991.0	15091.0	03-05-1990			200																			
B12F0092		C1989-05-1005		nee	14991.0	15091.0	01-05-1989			282																			
B12F0092		C1991-04-1248		nee	14991.0	15091.0	25-04-1991			195																			
B12F0092		C1984-05-1063		nee	14991.0	15091.0	04-05-1984			209																			
B12F0092		C1985-06-1220		nee	14991.0	15091.0	19-06-1985			210																			
B12F0092		C1982-08-1042		nee	14991.0	15091.0	11-08-1982			193																			
B12F0092		C1981-06-1045		nee	14991.0	15091.0	03-06-1981			230																			
B12F0092		C1987-07-1198		nee	14991.0	15091.0	22-07-1987			212																			
B12F0092		C1986-09-1289		nee	14991.0	15091.0	24-09-1986			213																			
B12F0092		C1988-05-1389		nee	14991.0	15091.0	11-05-1988			195																			
B12F0092		C1979-09-1048		nee	4491.0	4591.0	10-09-1979			19																			
B12F0092		C1980-07-1113		nee	4491.0	4591.0	22-07-1980			22																			
B12F0092		C1990-05-1040		nee	4491.0	4591.0	03-05-1990			21																			
B12F0092		C1989-05-1002		nee	4491.0	4591.0	01-05-1989			51																			
B12F0092		C1991-04-1245		nee	4491.0	4591.0	25-04-1991			22																			
B12F0092		C1984-05-1061		nee	4491.0	4591.0	04-05-1984			11																			
B12F0092		C1985-06-1217		nee	4491.0	4591.0	19-06-1985			20																			
B12F0092		C1985-09-1055		nee	4491.0	4591.0	09-09-1985			22																			
B12F0092		C1982-08-1039		nee	4491.0	4591.0	11-08-1982			25																			
B12F0092		C1981-06-1042		nee	4491.0	4591.0	03-06-1981			18																			
B12F0092		C1987-07-1195		nee	4491.0	4591.0	22-07-1987			19																			
B12F0092		C1986-09-1286		nee	4491.0	4591.0	24-09-1986			20																			
B12F0092		C1988-05-1386		nee	4491.0	4591.0	11-05-1988			20																			
B12F0092		C1979-09-1047		nee	191.0	291.0	10-09-1979			101																			
B12F0092		C1980-07-1112		nee	191.0	291.0	22-07-1980			108																			
B12F0092		C1990-05-1039		nee	191.0	291.0	03-05-1990			52																			
B12F0092		C1989-05-1001		nee	191.0	291.0	01-05-1989			98																			
B12F0092		C1991-04-1244		nee	191.0	291.0	25-04-1991			67																			
B12F0092		C1984-05-1060		nee	191.0	291.0	04-05-1984			79																			
B12F0092		C1985-06-1216		nee	191.0	291.0	19-06-1985			71																			
B12F0092		C1982-08-1038		nee	191.0	291.0	11-08-1982			105																			
B12F0092		C1981-06-1041		nee	191.0	291.0	03-06-1981			99																			
B12F0092		C1987-07-1194		nee	191.0	291.0	22-07-1987			68																			
B12F0092		C1986-09-1285		nee	191.0	291.0	24-09-1986			62																			
B12F0092		C1988-05-1385		nee	191.0	291.0	11-05-1988			51																			
B12F0092		C1979-09-1050		nee	10491.0	10591.0	10-09-1979			45																			
B12F0092		C1980-07-1115		nee	10491.0	10591.0	22-07-1980			73																			
B12F0092		C1990-05-1042		nee	10491.0	10591.0	03-05-1990			38																			
B12F0092		C1989-05-1004		nee	10491.0	10591.0	01-05-1989			82																			
B12F0092		C1991-04-1247		nee	10491.0	10591.0	25-04-1991			38																			
B12F0092		C1984-05-1062		nee	10491.0	10591.0	04-05-1984			41																			
B12F0092		C1985-06-1219		nee	10491.0	10591.0	19-06-1985			41																			
B12F0092		C1982-08-1041		nee	10491.0	10591.0	11-08-1982			44																			
B12F0092		C1981-06-1044		nee	10491.0	10591.0	03-06-1981			45																			
B12F0092		C1987-07-1197		nee	10491.0	10591.0	22-07-1987			42																			
B12F0092		C1986-09-1288		nee	10491.0	10591.0	24-09-1986			42																			
B12F0092		C1988-05-1388		nee	10491.0	10591.0	11-05-1988			40																			
B12F0092		C1979-09-1049		nee	6990.0	7090.0	10-09-1979			50																			
B12F0092		C1980-07-1114		nee	6990.0	7090.0	22-07-1980			54																			
B12F0092		C1990-05-1041		nee	6990.0	7090.0	03-05-1990			60																			
B12F0092		C1989-05-1003		nee	6990.0	7090.0	01-05-1989			102																			
B12F0092		C1991-04-1246		nee	6990.0	7090.0	25-04-1991			62																			
B12F0092		C1983-05-1009		nee	6990.0	7090.0	04-05-1983			54																			
B12F0092		C1985-06-1218		nee	6990.0	7090.0	19-06-1985			55																			
B12F0092		C1982-08-1040		nee	6990.0	7090.0	11-08-1982			53																			
B12F0092		C1981-06-1043		nee	6990.0	7090.0	03-06-1981			54																			
B12F0092		C1987-07-1196		nee	6990.0	7090.0	22-07-1987			58																			
B12F0092		C1986-09-1287		nee	6990.0	7090.0	24-09-1986			58																			
B12F0092		C1980-07-1116		nee	14991.0	15091.0	22-07-1980			240																			
B12F0092	24-06-1999	T1999-00-2619		nee	15001.0	15101.0	24-06-1999			60																			
B12F0092	24-06-1999	T1999-00-2616		nee	4501.0	4601.0	24-06-1999			26																			
B12F0092	24-06-1999	T1999-00-2615		nee	201.0	301.0	24-06-1999			35																			
B12F0092	24-06-1999	T1999-00-2618		nee	10501.0	10601.0	24-06-1999			31																			
B12F0092	24-06-1999	T1999-00-2617		nee	7000.0	7100.0	24-06-1999			58																			
B12F0092	13-05-1997	C1997-05-1016		nee	15002.0	15102.0	13-05-1997			190															20				
B12F0092	13-05-1997	C1997-05-1014		nee	7001.0	7101.0	13-05-1997			64															20				
B12F0092	13-05-1997	C1997-05-1015		nee	10502.0	10602.0	13-05-1997			39															20				
B12F0092	13-05-1997	C1997-05-1013		nee	4502.0	4602.0	13-05-1997			23															20				
B12F0092	13-05-1997	C1997-05-1012		nee	202.0	302.0	13-05-1997			52															20				
B12F0092	06-10-1986	C1986-10-1049		nee	7000.0	7100.0	06-10-1986		73.6	64		67.97	4.61	361	7.01	15	30.3	.13	1.59	0	<.04	33	<2	.29	18		3.082	6.7	
B12F0092	06-10-1986	C1986-10-1050		nee	10500.0	10600.0	06-10-1986		57.9	43		85.67	4.11	548	7.27	13	26.6	.16	1.33	0	<.04	121.9	<2	.36	18		2.538	6.9	
B12F0092	06-10-1986	C1986-10-1051		nee	15000.0	15100.0	06-10-1986		11.3	206		133.74	2.24	530	7.61	79	7.3	.17	1.04	.05	<.04	313.1	<2	.64	18		.582	7.1	
B12F0092	09-09-1985	C1985-09-1058		nee	15000.0	15100.0	09-09-1985		49.5	213		134.58	2.7	553	8.16	86	6.1	.21	1	.05	.02	320.7	3	.56	18		1.485	7.7	
B12F0092	09-09-1985	C1985-09-1054		nee	200.0	300.0	09-09-1985		45.9	67		57.5	83.3	71.4	3.23	92	10.7	.35	3.4	.01	.02	39.42	121.5	.16	18		1.585	6.5	
B12F0092	09-09-1985	C1985-09-1056		nee	7000.0	7100.0	09-09-1985		101.8	59		67.24	6.1	392	7.3	16	22.8	.16	1.7	0	.03	30.66	4.5	.3	18		3.477	6.9	
B12F0092	09-09-1985	C1985-09-1057		nee	10500.0	10600.0	09-09-1985		70.4	44		84.62	5.4	564	7.3	12	18.1	.21	1.4	0	.34	118.7	4	.34	18		2.501	7.2	
B12F0092	18-10-1982	C1982-10-1077		nee	10500.0	10600.0	18-10-1982		59.4	45		71.74	7	529		8	26.9	.36	1.7	0	.11	109.5	0	0	18		2.588	7.1	
B12F0092	07-06-1982	C1982-06-1005		nee	15000.0	15100.0	07-06-1982		20.9	210		141.39	5	533		78	6.7	.45	1.14	.12	.08	291	0	2.64	18		.797	7.6	
B12F0092	15-04-1976	C1976-04-1021		nee	7000.0	7100.0	15-04-1976	100	70.4	45		60.6	1.79	341	7.6	24.1	26.2	.13	2.064	.461	19.492	34	105	6.4	20	5.65	2.88	6.8	
B12F0092	15-04-1976	C1976-04-1023		nee	15000.0	15100.0	15-04-1976	80	14.1	202		131.75	1.03	522	8.1	135.6	47	.03	.645	.165	1.772	274.1	6	7.061	18	4.64	2.322	7.5	
B12F0092	15-04-1976	C1976-04-1020		nee	4500.0	4600.0	15-04-1976	140	89.6	42	65.5		5.64	329	6.8	31.2	9.1	.26	2.838	.526	37.212	35.3	27	8.6	20	5.29	2.646	6.7	
B12F0092	15-04-1976	C1976-04-1022		nee	10500.0	10600.0	15-04-1976	140	63.4	48		78.4	1.41	522	6.3	13.1	20.8	.03	2.193	.033	5.759	98.3	8	2.3	20	4.93	2.466	7.1	
