LOCATIE gegevens
NITG-nr	X-coord	Y-coord	Coordinaat systeem	Kaartblad	Bepaling locatie	Maaiveldhoogte (m tov NAP)	Bepaling maaiveldhoogte	OLGA-nr	RIVM-nr	Aantal analyses	Meetnet	Indeling	
B13A0256	265844	569744	Rijksdriehoeksmeting	13A		0.14		13AP0256		55			

KWALITEIT gegevens VLOEIBAAR
NITG-nr	Monster datum	Monster-nr	Monster apparatuur	Mengmonster	Bovenkant monster (cm tov MV)	Onderkant monster (cm tov MV)	Analyse datum	Cl- (mg/l)	TEMP-V (C)	
B13A0256		C1991-05-1350		nee	4002.0	4202.0	22-05-1991	18		
B13A0256		C1985-06-1015		nee	4002.0	4202.0	03-06-1985	22		
B13A0256		C1991-05-1351		nee	6842.0	8342.0	22-05-1991	14		
B13A0256		C1986-10-1074		nee	9302.0	9502.0	08-10-1986	26		
B13A0256		C1990-05-1137		nee	4002.0	4202.0	09-05-1990	17		
B13A0256		C1989-05-1393		nee	4002.0	4202.0	17-05-1989	27		
B13A0256		C1986-10-1072		nee	4002.0	4202.0	08-10-1986	19		
B13A0256		C1984-05-1067		nee	6842.0	8342.0	04-05-1984	10		
B13A0256		C1985-06-1016		nee	6842.0	8342.0	03-06-1985	17		
B13A0256		C1982-06-1007		nee	6842.0	8342.0	07-06-1982	134		
B13A0256		C1982-08-1085		nee	6842.0	8342.0	24-08-1982	130		
B13A0256		C1988-06-1049		nee	6842.0	8342.0	06-06-1988	17		
B13A0256		C1987-10-1174		nee	6842.0	8342.0	20-10-1987	17		
B13A0256		C1986-10-1073		nee	6842.0	8342.0	08-10-1986	14		
B13A0256		C1990-05-1138		nee	6842.0	8342.0	09-05-1990	13		
B13A0256		C1987-10-1173		nee	4002.0	4202.0	20-10-1987	18		
B13A0256		C1990-05-1140		nee	13802.0	14002.0	09-05-1990	144		
B13A0256		C1989-05-1396		nee	13802.0	14002.0	17-05-1989	146		
B13A0256		C1991-05-1353		nee	13802.0	14002.0	22-05-1991	130		
B13A0256		C1988-06-1048		nee	4002.0	4202.0	06-06-1988	21		
B13A0256		C1984-05-1069		nee	13802.0	14002.0	04-05-1984	137		
B13A0256		C1985-06-1018		nee	13802.0	14002.0	03-06-1985	137		
B13A0256		C1982-06-1009		nee	13802.0	14002.0	07-06-1982	134		
B13A0256		C1982-08-1087		nee	13802.0	14002.0	24-08-1982	130		
B13A0256		C1988-06-1051		nee	13802.0	14002.0	06-06-1988	137		
B13A0256		C1987-10-1176		nee	13802.0	14002.0	20-10-1987	137		
B13A0256		C1986-10-1075		nee	13802.0	14002.0	08-10-1986	132		
B13A0256		C1989-05-1394		nee	6842.0	8342.0	17-05-1989	18		
B13A0256		C1982-08-1084		nee	4002.0	4202.0	24-08-1982	38		
B13A0256		C1990-05-1139		nee	9302.0	9502.0	09-05-1990	21		
B13A0256		C1989-05-1395		nee	9302.0	9502.0	17-05-1989	27		
B13A0256		C1991-05-1352		nee	9302.0	9502.0	22-05-1991	22		
B13A0256		C1982-06-1006		nee	4002.0	4202.0	07-06-1982	20		
B13A0256		C1984-05-1068		nee	9302.0	9502.0	04-05-1984	22		
B13A0256		C1985-06-1017		nee	9302.0	9502.0	03-06-1985	27		
B13A0256		C1982-06-1008		nee	9302.0	9502.0	07-06-1982	27		
B13A0256		C1982-08-1086		nee	9302.0	9502.0	24-08-1982	50		
B13A0256		C1988-06-1050		nee	9302.0	9502.0	06-06-1988	26		
B13A0256		C1987-10-1175		nee	9302.0	9502.0	20-10-1987	23		
B13A0256	04-05-2005	T2005-00-4519		nee	13804.0	14004.0	04-05-2005	250		
B13A0256	04-05-2005	T2005-00-4518		nee	9304.0	9504.0	04-05-2005	20		
B13A0256	04-05-2005	T2005-00-4517		nee	6844.0	8344.0	04-05-2005	14		
B13A0256	04-05-2005	T2005-00-4516		nee	4004.0	4204.0	04-05-2005	20		
B13A0256	20-08-2003	T2003-00-0219		nee	9304.0	9504.0	20-08-2003	22		
B13A0256	20-08-2003	T2003-00-0220		nee	13804.0	14004.0	20-08-2003	226		
B13A0256	20-08-2003	T2003-00-0218		nee	6844.0	8344.0	20-08-2003	16		
B13A0256	20-08-2003	T2003-00-0217		nee	4004.0	4204.0	20-08-2003	22		
B13A0256	01-06-1999	T1999-00-2660		nee	9306.0	9506.0	01-06-1999	19		
B13A0256	01-06-1999	T1999-00-2661		nee	13806.0	14006.0	01-06-1999	183		
B13A0256	01-06-1999	T1999-00-2659		nee	6846.0	8346.0	01-06-1999	14		
B13A0256	01-06-1999	T1999-00-2658		nee	4006.0	4206.0	01-06-1999	19		
B13A0256	16-05-1997	C1997-05-1078		nee	9306.0	9506.0	16-05-1997	18	20	
B13A0256	16-05-1997	C1997-05-1079		nee	13806.0	14006.0	16-05-1997	165	20	
B13A0256	16-05-1997	C1997-05-1077		nee	6846.0	8346.0	16-05-1997	13	20	
B13A0256	16-05-1997	C1997-05-1076		nee	4006.0	4206.0	16-05-1997	21	20	
