LOCATIE gegevens
NITG-nr	X-coord	Y-coord	Coordinaat systeem	Kaartblad	Bepaling locatie	Maaiveldhoogte (m tov NAP)	Bepaling maaiveldhoogte	OLGA-nr	RIVM-nr	Aantal analyses	Meetnet	Indeling	
B13B0051	272090	572185	Rijksdriehoeksmeting	13B		0.03		13BP0051	1458	37			

KWALITEIT gegevens VLOEIBAAR
NITG-nr	Monster datum	Monster-nr	Monster apparatuur	Mengmonster	Bovenkant monster (cm tov MV)	Onderkant monster (cm tov MV)	Analyse datum	Al (mg/l)	Al (mg/m3)	Al (ug/l)	As (mg/m3)	As (ug/l)	Ba (mg/m3)	Ba (ug/l)	Buffercapaciteit pH 4.3 (mmol/l)	CO3-- (mg/l)	Ca (g/m3)	Ca (mg/l)	Ca (ug/l)	Cd (mg/m3)	Cd (ug/l)	Cl- (g/m3)	Cl- (mg/l)	Cr (mg/m3)	Cr (ug/l)	Cu (mg/m3)	Cu (ug/l)	DOC (g/m3)	DOC (mg/l)	EC (mS/m)	EC-5 (mS/m)	EC-LAB25C (uS/cm)	EC20C (mS/m)	ECVELD20C (mS/m)	Fe (g/m3)	Fe (mg/l)	Fe (ug/l)	GWST_mv (m-mv)	HCO3 (g/m3)	HCO3 (mg/l)	HCO3 (mmol/l)	HCO3-Veld (g/m3)	HCO3-Veld (mg/l)	HCO3-lab (mg/l)	Hg (mg/m3)	Hg (ug/l)	Hg kdamp AFS (ug/l)	K (g/m3)	K (mg/l)	K (ug/l)	Mg (g/m3)	Mg (mg/l)	Mg (ug/l)	Mn (g/m3)	Mn (mg/l)	Mn (ug/l)	NH4 (gN/m3)	NH4 (mg/l)	NH4 (mgN/l)	NH4-N (mgN/l)	NH4som (mg/l)	NO3 (gN/m3)	NO3 (mg/l)	NO3 (mgN/l)	NO3-N (mgN/l)	NO3som (mg/l)	Na (g/m3)	Na (mg/l)	Na (ug/l)	Ni (mg/m3)	Ni (ug/l)	O2 (mg/l)	Pb (mg/m3)	Pb (ug/l)	Ptot (mgP/l)	SO4 (g/m3)	SO4 (mg/l)	Sr (mg/l)	Sr (mg/m3)	Sr (ug/l)	T-5 (C)	T-PO4 (gP/m3)	T-PO4 (mg/l)	TEMP-ECVELD20C (C)	TEMP-V (C)	TEMP-pH_veld (C)	TOC (g/m3)	TOC (mg/l)	TOTH (mmol/l)	Temp-lab (C)	Totaal-Fosfaat (mgP/l)	Zn (mg/m3)	Zn (ug/l)	opgz-t (mg/l)	pH (-)	pH-5 (-)	pH-lab (-)	pH-veld (-)	stijgh_mv (m-mv)	
B13B0051		C1987-09-1105		nee	6494.9995	6594.9995	21-09-1987																14																																																																													
B13B0051		C1987-09-1104		nee	3893.9998	3993.9998	21-09-1987																18																																																																													
B13B0051		C1983-05-1020		nee	6494.9995	6594.9995	09-05-1983																15																																																																													
B13B0051		C1990-01-1211		nee	895.0	995.0	30-01-1990																13																																																																													
B13B0051		C1990-01-1212		nee	3893.9998	3993.9998	30-01-1990																13																																																																													
B13B0051	03-05-2012	L2012-05-0059		nee	895.0	995.0	03-05-2012			<10		.805			2.135	<6			24757.6		.106092		15.451		.67		<.15					244.4					15670.085							130.235		<.03				1184.821			2779.588			467.173			3.771					<.05					10741.028		.24			<.12	.3399114		1.7625													21.5			4.265				6.38			
B13B0051	21-09-2010	L2010-09-0019	Slangenpomp	nee	895.0	995.0	21-09-2010			12		<1		21				24.6			<.1		13		<1		<5		7.6					23.4		15		1.55		130	2.14								.9			2.6			.44			3.1		2.4				<.5	<.1			9.91			<1	<.5		<1			<.5			94				11.5		11.5			.72		.4		<10	201				6.2		
B13B0051	21-09-2010	L2010-09-0019	Slangenpomp	nee	895.0	995.0	21-09-2010																																								<.02																																																					
B13B0051	30-06-2009	L2009-06-0003	Slangenpomp	nee	895.0	995.0	30-06-2009			12		<1		23				24.1			<.1		14		1		<5		7.8					23.2		14.8				130	2.16					<.02			.8			2.55			.41			3.4		2.6				<.5	<.1			9.96			<1	<.5		<1			<.5			94				13.2		13.7			.71		.37		<10	203				6		
B13B0051	30-06-2009	L2009-06-0003	Slangenpomp	nee	895.0	995.0	30-06-2009																																								<.02																																																					
B13B0051	14-07-2005	L2005-07-0028		nee	895.0	995.0	14-07-2005			10		<1		27				24.6			<.1		14		<1		<5		7.4					23.1		15.9				127	2.08					<.02			.9			2.61			.431				2.6		3.4			<.15		<.6		10.6			<1			<1	.38		<.5			91									.72				<10					6.02		
B13B0051	14-07-2005	L2005-07-0028		nee	895.0	995.0	14-07-2005																																																																	<.5																												
B13B0051	06-07-2004	L2004-07-0006		nee	895.0	995.0	06-07-2004																																																																	<.5																												
B13B0051	06-07-2004	L2004-07-0006		nee	895.0	995.0	06-07-2004			7		4		26				31.4			<.2		14		1		<5		6.3					28.2		24.4				180	2.95					<.02			1.3			5.64			.6				.9		1.2			<.2		<.6		9.37			3			<1	.41		<.5			120									1.02				<10					6.36		
B13B0051	08-08-2003	L2003-08-0054		nee	895.0	995.0	08-08-2003			13		<1		22				22.9			<.2				<1		<5							22.8		15.3													1.7			2.35			.41				2.7		3.5			<.2		<.6		10.2			<1			<1			<.5			89													<10							
B13B0051	08-08-2003	L2003-08-0054		nee	895.0	995.0	08-08-2003																																																																																											6.03		
B13B0051	08-08-2003	L2003-08-0054		nee	895.0	995.0	08-08-2003																13																																																				.43																									
B13B0051	08-08-2003	L2003-08-0054		nee	895.0	995.0	08-08-2003																																																																	<.5																												
B13B0051	08-08-2003	L2003-08-0054		nee	895.0	995.0	08-08-2003																																	127	2.08																																																											
B13B0051	08-08-2003	L2003-08-0054		nee	895.0	995.0	08-08-2003																						7.9																																																																							
B13B0051	08-08-2003	L2003-08-0054		nee	895.0	995.0	08-08-2003																																							<.02																																																						
B13B0051	29-08-2002	L2002-08-0037		nee	895.0	995.0	29-08-2002																																							<.02																																																						
B13B0051	29-08-2002	L2002-08-0037		nee	895.0	995.0	29-08-2002																													14.65																																																																
B13B0051	29-08-2002	L2002-08-0037		nee	895.0	995.0	29-08-2002																																																																			<1						87.08													<10							
B13B0051	29-08-2002	L2002-08-0037		nee	895.0	995.0	29-08-2002																																																																	<.5																												
B13B0051	29-08-2002	L2002-08-0037		nee	895.0	995.0	29-08-2002			10.9		<1		20.98				22.33			<.2		14		<1		<5		6.35					22.1						120.11	1.97								.8			2.33			.39				2.94		3.78			<.2		<.6		10.45			<1				.39		<.5																					5.63		
B13B0051	01-01-2001	L2001-01-7262		nee	895.0	995.0	01-01-2001			8.67648		<.5		31.56769				23.77036			<.2		14.7		<1		<5		6.84	23.3						15.40002				129.23571	2.1186182					<.02			.91441			2.53125			.41656				2.86961111		3.6895			<.12		<.5		10.81377			<1	<.5		<2	.36		<.5	.08656											.69721809				3.37424		6.05					
B13B0051	23-05-2000	C2000-05-8134		nee	895.0	995.0	23-05-2000		11		<2		20				24			<0.1		16		<1		<1		7.6			24				16				127						<0.02			0.7			2.6			0.43			2.8					<0.20					11			<3			<2			<2.0			84			0.4										<20				5.6			-1.7	
B13B0051	01-01-2000	L2000-01-8005		nee	895.0	995.0	01-01-2000			11		<2		20				24			<.1		16		<1		<1		7.6	24						16				127						<.02			.7			2.6			.43				2.8					<.2				11			<3			<2	.4		<2			84													<20		5.6					
B13B0051	20-09-1999	C1999-09-8026		nee	895.0	995.0	20-09-1999		26		<2		20				24			<0.1		15		<1		<1		6.9			24				16				132						<0.02			0.90			2.6			0.42			2.7					<0.20					10.8			<3			2			<2.0			89			0.41										<20				6.10			-1.59	
B13B0051	01-01-1999	L1999-01-0491		nee	895.0	995.0	01-01-1999			26		<2		20				24			<.1		15		<1		<1		0	24						16				132						<.02			.9			2.6			.42				2.7					<.2				10.8			<3			2	.41		<2			89													20		6.1					
B13B0051	18-09-1998	C1998-09-8163		nee	895.0	995.0	18-09-1998		8		<2		20				24			<0.1		16		<1		<1		6.8			23				15				109						<0.02			0.70			2.5			0.42			2.8					<0.10					10.6			<3			<2			<2.0			82			0.39										<20				6.16			-1.53	
B13B0051	01-01-1998	L1998-01-0083		nee	895.0	995.0	01-01-1998			8		<2		20				24			<.1		16		<1		<1		0	23						15				109						<.02			.7			2.5			.42				2.8					<.1				10.6			<3			<2	.39		<2			82													<20		6.16					
B13B0051	01-08-1997	C1997-08-8002		nee	895.0	995.0	01-08-1997		9		<2		<10				23			<0.1		15		<1		<1					24				16				128						<0.02			0.81			2.5			0.41			2.7					0.02					11			<3			<2			10.4			75			0.41					6.2					<20				6.18			-1.5	
B13B0051	01-08-1997	C1997-08-1006		nee	895.0	995.0	01-08-1997	.009				<2		<10				23			<.1		15		<1		<1									16				128						<.02			.81			2.5			.41			3.483					.089					11			<3			<2			10.4						1.259		20			6.2	.67				<20		6.18					
B13B0051	01-01-1997	L1997-01-7610		nee	895.0	995.0	01-01-1997			9		<2		<10				23			<.1		15		<1		<1			24						16				128						<.02			.81			2.5			.41				2.7					.02				11			<3			<2	.41		10.4			75													<20		6.18					
B13B0051	06-09-1996	C1996-09-8077		nee	3894.0	3994.0	06-09-1996																																																																																												-1.14	
B13B0051	06-09-1996	C1996-09-8074		nee	895.0	995.0	06-09-1996		21		<2		20				22			<0.1		15		<1		<1					23.54				15				123			117.33						0.83			2.5			0.40			2.8					0.04					11			<3			<2			27			86		9.90	0.44					8.4					<20				6.03			-1.19	
B13B0051	06-09-1996	C1996-09-8076		nee	6495.0	6595.0	06-09-1996																																																																																												-1.15	
B13B0051	06-09-1996	C1996-09-1100		nee	895.0	995.0	06-09-1996	.021				<2		20				22			<.1		15		<1		<1									15				123									.83			2.5			.4			3.612					.177					11			<3			<2			27						1.351		20			8.4	.65				<20							
B13B0051	01-01-1996	L1996-01-7379		nee	895.0	995.0	01-01-1996			21		<2		20				22			<.1		15		<1		<1			26.6						15				123			117.33						.83			2.5			.4				2.8					.04				11			<3			<2	.44		27			86													<20		6.03					
B13B0051	03-08-1995	C1995-08-8040		nee	895.0	995.0	03-08-1995		23		<2		19				23			<0.1		15		<1		<1					20.97				15				124									0.9			2.5			0.41			2.8					0.12					10.8			<2			<2			23			88		11.30	0.42					7.1					<20				6.03			-1.05	
B13B0051	03-08-1995	C1995-08-8042		nee	3894.0	3994.0	03-08-1995																																																																																												-1.05	
B13B0051	03-08-1995	C1995-08-8041		nee	6495.0	6595.0	03-08-1995																																																																																												-1.14	
B13B0051	03-08-1995	C1995-08-1024		nee	895.0	995.0	03-08-1995	.023				<2		19				23			<.1		15		<1		<1									15				124									.9			2.5			.41			3.612					.532					10.8			<2			<2			23						1.289		20			7.1	.67				<20							
B13B0051	01-01-1995	L1995-01-0113		nee	895.0	995.0	01-01-1995			23		<2		19				23			<.1		15		<1		<1			23.7						15				124									.9			2.5			.41				2.8					.12				10.8			<2			<2	.42		23			88													<20		6.03					
B13B0051	24-08-1994	C1994-08-1210		nee	895.0	995.0	24-08-1994	.03				<2		22				23			<.1		16		<1		<1									16				122									.8			2.5			.41			3.741					.665					10.8			<2			<2			20						1.535		20			7	.67				<20							
B13B0051	24-08-1994	C1994-08-8096		nee	895.0	995.0	24-08-1994		30		<2		22				23			<0.1		16		<1		<1					22.66				16				122									0.8			2.5			0.41			2.9					0.15					10.8			<2			<2			20			86		10.50	0.50					7.0					<20				6.07			-1	
B13B0051	01-01-1994	L1994-01-0188		nee	895.0	995.0	01-01-1994			30		<2		22				23			<.1		16		<1		<1			25.6						16				122									.8			2.5			.41				2.9					.15				10.8			<2			<2	.5		20			86													<20		6.07					
B13B0051	27-10-1993	C1993-10-8261		nee	6495.0	6595.0	27-10-1993																																																																																												-0.75	
B13B0051	27-10-1993	C1993-10-1293		nee	3894.0	3994.0	27-10-1993	<.013				.23		19.78				34.83			<.04		13.5		1.35		1.27									18.14				164.75									1.41			5.71			.56			1.226					.133					10.14			<.88			<.21			<.1						1.32		20				1.1				6.54							
B13B0051	27-10-1993	C1993-10-8270		nee	3894.0	3994.0	27-10-1993		<13.490		0.225		19.776				34.826			<0.045		13.503		1.352		1.271		6.642			28.1				18.140				164.754									1.408			5.713			0.558			0.953					0.027					10.139			<0.880			<0.207			<0.096			141.944		10.50	0.434										6.539				6.26			-0.7	
B13B0051	27-10-1993	C1993-10-8273		nee	895.0	995.0	27-10-1993		35.074		0.150		19.501				22.477			<0.045		14.985		1.248		4.449		8.059			22.3				14.772				115.938									0.821			2.431			0.388			2.830					0.021					11.035			<0.880			<0.207			<0.096			82.363		10.40	0.434										6.539				6.01			-1.07	
B13B0051	27-10-1993	C1993-10-1292		nee	895.0	995.0	27-10-1993	.035				.15		19.5				22.48			<.04		14.98		1.25		4.45									14.77				115.94									.82			2.43			.39			3.651					.089					11.04			<.88			<.21			<.1						1.32		20				.66				6.54							
B13B0051	01-01-1993	L1993-01-0060		nee	895.0	995.0	01-01-1993			35.074		.15		19.501				22.477			<.045		14.985		1.248		4.449		8.059	25.2						14.772				115.938									.821			2.431			.388				2.83					.021				11.035			<.88			<.207	.434		<.096			82.363													<6.539		6.01					
B13B0051	01-01-1993	L1993-01-0061		nee	3894.0	3994.0	01-01-1993			<13.49		.225		19.776				34.826			<.045		13.503		1.352		1.271		6.642	31.8						18.14				164.754									1.408			5.713			.558				.953					.027				10.139			<.88			<.207	.434		<.096			141.944													<6.539		6.26					
B13B0051	23-10-1992	C1992-10-8177		nee	3894.0	3994.0	23-10-1992		30.72		0.25		20.89				35.48			<0.04		13.60		<0.78		0.83		3.63		24.00					19.15				140.35									1.38			5.79			0.56			0.82					0.01					10.24			<0.88			0.99			<0.05			146.69			0.46										<6.54			6.43					
B13B0051	23-10-1992	C1992-10-1375		nee	895.0	995.0	23-10-1992	.049				.22		19.79				22.84			<.04		15.51		.78		3.56			18.6						15.24				93.36									.88			2.46			.39			3.38					<.044					11.19			.88			.75			<.05						1.013		20				.67				<6.54		6.25					
B13B0051	23-10-1992	C1992-10-8176		nee	895.0	995.0	23-10-1992		48.83		0.22		19.79				22.84			<0.04		15.51		0.78		3.56		6.82		18.60					15.24				93.36									0.88			2.46			0.39			2.62					<0.01					11.19			0.88			0.75			<0.05			83.92			0.33										<6.54			6.25					
B13B0051	23-10-1992	C1992-10-1376		nee	3894.0	3994.0	23-10-1992	.031				.25		20.89				35.48			<.04		13.6		<.78		.83			24						19.15				140.35									1.38			5.79			.56			1.058					.044					10.24			<.88			.99			<.05						1.412		20				1.13				<6.54		6.43					
B13B0051	01-01-1992	L1992-01-0098		nee	3894.0	3994.0	01-01-1992			30.72		.25		20.89				35.48			<.04		13.6		<.78		.83		3.63				24			19.15				140.35									1.38			5.79			.56				.82					.01				10.24			<.88			.99	.46		<.05			146.69													6.54		6.43					
B13B0051	01-01-1992	L1992-01-0097		nee	895.0	995.0	01-01-1992			48.83		.22		19.79				22.84			<.04		15.51		.78		3.56		6.82				18.6			15.24				93.36									.88			2.46			.39				2.62					<.01				11.19			.88			.75	.33		<.05			83.92													6.54		6.25					
B13B0051	23-10-1991	C1991-10-8181		nee	3894.0	3994.0	23-10-1991		<13.49		0.31		21.03				35.59			0.03		15.80		0.83		0.83		3.82		23.80					18.23				151.28									1.43			5.83			0.55			0.95					0.07					10.67			1.94			1.20			<0.19			149.60			0.42										11.74			6.52					
B13B0051	23-10-1991	C1991-10-1241		nee	3894.0	3994.0	23-10-1991	<.013				.31		21.03				35.59			.03		15.8		.83		.83			23.8						18.23				151.28									1.43			5.83			.55			1.226					.31					10.67			1.94			1.2			<.19						1.289		20				1.13				11.74		6.52					
B13B0051	23-10-1991	C1991-10-1240		nee	895.0	995.0	23-10-1991	.037				.2		19.77				23.56			.03		15.12		.88		.76			18.6						15.49				100.04									.83			2.54			.4			3.702					.266					10.93			1.29			.58			<.19						1.289		20				.69				<6.54		6.58					
B13B0051	23-10-1991	C1991-10-8182		nee	895.0	995.0	23-10-1991		37.36		0.20		19.77				23.56			0.03		15.12		0.88		0.76		7.18		18.60					15.49				100.04									0.83			2.54			0.40			2.87					0.06					10.93			1.29			0.58			<0.19			86.65			0.42										<6.54			6.58					
B13B0051	01-01-1991	L1991-01-7096		nee	895.0	995.0	01-01-1991			37.36		.2		19.77				23.56			.03		15.12		.88		.76		7.18				18.6			15.49				100.04									.83			2.54			.4				2.87					.06				10.93			1.29			.58	.42		<.19			86.65													6.54		6.58					
B13B0051	01-01-1991	L1991-01-7097		nee	3894.0	3994.0	01-01-1991			<13.49		.31		21.03				35.59			.03		15.8		.83		.83		3.82				23.8			18.23				151.28									1.43			5.83			.55				.95					.07				10.67			1.94			1.2	.42		<.19			149.6													11.74		6.52					
B13B0051	23-11-1990	C1990-11-1363		nee	3894.0	3994.0	23-11-1990	.07				1		27				32			<.1		18		<.5		<10			28.5						19.5				175									1.3			6			.55			1.303					<.487					11			<5			2			<5						1.842		20				1.05				<10		6.5					
B13B0051	23-11-1990	C1990-11-8174		nee	895.0	995.0	23-11-1990		95.00		<0.50		30.00				24.00			<0.10		19.00		1.00		<10.00		7.97		24.00					17.00				130.00									0.80			2.70			0.39			3.50					<0.11					11.00			<5.00			3.00			14.00						1.70										<10.00			6.35					
B13B0051	23-11-1990	C1990-11-8173		nee	3894.0	3994.0	23-11-1990		70.00		1.00		27.00				32.00			<0.10		18.00		<0.50		<10.00		5.99		28.50					19.50				175.00									1.30			6.00			0.55			1.01					<0.11					11.00			<5.00			2.00			<5.00						0.60										<10.00			6.50					
B13B0051	23-11-1990	C1990-11-1362		nee	895.0	995.0	23-11-1990	.095				<.5		30				24			<.1		19		1		<10			24						17				130									.8			2.7			.39			4.515					<.487					11			<5			3			14						5.219		20				.71				<10		6.35					
B13B0051	01-01-1990	L1990-01-0089		nee	3894.0	3994.0	01-01-1990			70		1		27				32			<.1		18		<.5		<10		5.99				28.5			19.5				175									1.3			6			.55				1.01					<.11				11			<5			2	.6		<5																10		6.5					
B13B0051	01-01-1990	L1990-01-0088		nee	895.0	995.0	01-01-1990			95		<.5		30				24			<.1		19		1		<10		7.97				24			17				130									.8			2.7			.39				3.5					<.11				11			<5			3	1.7		14																10		6.35					
